%YAML 1.1
%TAG !u! tag:unity3d.com,2011:
--- !u!1 &244853353165822984
GameObject:
  m_ObjectHideFlags: 0
  m_CorrespondingSourceObject: {fileID: 0}
  m_PrefabInstance: {fileID: 0}
  m_PrefabAsset: {fileID: 0}
  serializedVersion: 6
  m_Component:
  - component: {fileID: 7234874574240382298}
  m_Layer: 0
  m_Name: CoralSuave_Anemona4 azul
  m_TagString: Untagged
  m_Icon: {fileID: 0}
  m_NavMeshLayer: 0
  m_StaticEditorFlags: 123
  m_IsActive: 1
--- !u!4 &7234874574240382298
Transform:
  m_ObjectHideFlags: 0
  m_CorrespondingSourceObject: {fileID: 0}
  m_PrefabInstance: {fileID: 0}
  m_PrefabAsset: {fileID: 0}
  m_GameObject: {fileID: 244853353165822984}
  m_LocalRotation: {x: 0, y: 0, z: 0, w: 1}
  m_LocalPosition: {x: 0, y: 0, z: 0}
  m_LocalScale: {x: 1, y: 1, z: 1}
  m_ConstrainProportionsScale: 0
  m_Children:
  - {fileID: 8208230306122521877}
  m_Father: {fileID: 0}
  m_RootOrder: 0
  m_LocalEulerAnglesHint: {x: 0, y: 0, z: 0}
--- !u!1001 &8530878190681996030
PrefabInstance:
  m_ObjectHideFlags: 0
  serializedVersion: 2
  m_Modification:
    m_TransformParent: {fileID: 7234874574240382298}
    m_Modifications:
    - target: {fileID: -8679921383154817045, guid: 2d20e11eba1ec3d48905085c20a5fc27,
        type: 3}
      propertyPath: m_RootOrder
      value: 0
      objectReference: {fileID: 0}
    - target: {fileID: -8679921383154817045, guid: 2d20e11eba1ec3d48905085c20a5fc27,
        type: 3}
      propertyPath: m_LocalPosition.x
      value: 0
      objectReference: {fileID: 0}
    - target: {fileID: -8679921383154817045, guid: 2d20e11eba1ec3d48905085c20a5fc27,
        type: 3}
      propertyPath: m_LocalPosition.y
      value: 0
      objectReference: {fileID: 0}
    - target: {fileID: -8679921383154817045, guid: 2d20e11eba1ec3d48905085c20a5fc27,
        type: 3}
      propertyPath: m_LocalPosition.z
      value: 0
      objectReference: {fileID: 0}
    - target: {fileID: -8679921383154817045, guid: 2d20e11eba1ec3d48905085c20a5fc27,
        type: 3}
      propertyPath: m_LocalRotation.w
      value: 1
      objectReference: {fileID: 0}
    - target: {fileID: -8679921383154817045, guid: 2d20e11eba1ec3d48905085c20a5fc27,
        type: 3}
      propertyPath: m_LocalRotation.x
      value: -0
      objectReference: {fileID: 0}
    - target: {fileID: -8679921383154817045, guid: 2d20e11eba1ec3d48905085c20a5fc27,
        type: 3}
      propertyPath: m_LocalRotation.y
      value: -0
      objectReference: {fileID: 0}
    - target: {fileID: -8679921383154817045, guid: 2d20e11eba1ec3d48905085c20a5fc27,
        type: 3}
      propertyPath: m_LocalRotation.z
      value: -0
      objectReference: {fileID: 0}
    - target: {fileID: -8679921383154817045, guid: 2d20e11eba1ec3d48905085c20a5fc27,
        type: 3}
      propertyPath: m_LocalEulerAnglesHint.x
      value: 0
      objectReference: {fileID: 0}
    - target: {fileID: -8679921383154817045, guid: 2d20e11eba1ec3d48905085c20a5fc27,
        type: 3}
      propertyPath: m_LocalEulerAnglesHint.y
      value: 0
      objectReference: {fileID: 0}
    - target: {fileID: -8679921383154817045, guid: 2d20e11eba1ec3d48905085c20a5fc27,
        type: 3}
      propertyPath: m_LocalEulerAnglesHint.z
      value: 0
      objectReference: {fileID: 0}
    - target: {fileID: -7511558181221131132, guid: 2d20e11eba1ec3d48905085c20a5fc27,
        type: 3}
      propertyPath: m_Materials.Array.data[0]
      value: 
      objectReference: {fileID: 2100000, guid: d2411ec22d877334b9e7dd0712389aae, type: 2}
    - target: {fileID: 919132149155446097, guid: 2d20e11eba1ec3d48905085c20a5fc27,
        type: 3}
      propertyPath: m_Name
      value: anemona4
      objectReference: {fileID: 0}
    m_RemovedComponents: []
  m_SourcePrefab: {fileID: 100100000, guid: 2d20e11eba1ec3d48905085c20a5fc27, type: 3}
--- !u!4 &8208230306122521877 stripped
Transform:
  m_CorrespondingSourceObject: {fileID: -8679921383154817045, guid: 2d20e11eba1ec3d48905085c20a5fc27,
    type: 3}
  m_PrefabInstance: {fileID: 8530878190681996030}
  m_PrefabAsset: {fileID: 0}
