%YAML 1.1
%TAG !u! tag:unity3d.com,2011:
--- !u!1 &6423723603597855967
GameObject:
  m_ObjectHideFlags: 0
  m_CorrespondingSourceObject: {fileID: 0}
  m_PrefabInstance: {fileID: 0}
  m_PrefabAsset: {fileID: 0}
  serializedVersion: 6
  m_Component:
  - component: {fileID: 9155234170637547999}
  m_Layer: 0
  m_Name: CoralSuave_Anemona
  m_TagString: Untagged
  m_Icon: {fileID: 0}
  m_NavMeshLayer: 0
  m_StaticEditorFlags: 123
  m_IsActive: 1
--- !u!4 &9155234170637547999
Transform:
  m_ObjectHideFlags: 0
  m_CorrespondingSourceObject: {fileID: 0}
  m_PrefabInstance: {fileID: 0}
  m_PrefabAsset: {fileID: 0}
  m_GameObject: {fileID: 6423723603597855967}
  m_LocalRotation: {x: 0, y: -0.7071068, z: 0, w: 0.7071068}
  m_LocalPosition: {x: 0, y: 0, z: 0}
  m_LocalScale: {x: 1, y: 1, z: 1}
  m_ConstrainProportionsScale: 0
  m_Children:
  - {fileID: 3770949958410273075}
  m_Father: {fileID: 0}
  m_RootOrder: 0
  m_LocalEulerAnglesHint: {x: 0, y: -90, z: 0}
--- !u!1001 &3737884884206413528
PrefabInstance:
  m_ObjectHideFlags: 0
  serializedVersion: 2
  m_Modification:
    m_TransformParent: {fileID: 9155234170637547999}
    m_Modifications:
    - target: {fileID: -8679921383154817045, guid: b86a80095dfda5247bb5a7966caf402e,
        type: 3}
      propertyPath: m_RootOrder
      value: 0
      objectReference: {fileID: 0}
    - target: {fileID: -8679921383154817045, guid: b86a80095dfda5247bb5a7966caf402e,
        type: 3}
      propertyPath: m_LocalScale.x
      value: 1
      objectReference: {fileID: 0}
    - target: {fileID: -8679921383154817045, guid: b86a80095dfda5247bb5a7966caf402e,
        type: 3}
      propertyPath: m_LocalScale.y
      value: 1
      objectReference: {fileID: 0}
    - target: {fileID: -8679921383154817045, guid: b86a80095dfda5247bb5a7966caf402e,
        type: 3}
      propertyPath: m_LocalScale.z
      value: 1
      objectReference: {fileID: 0}
    - target: {fileID: -8679921383154817045, guid: b86a80095dfda5247bb5a7966caf402e,
        type: 3}
      propertyPath: m_LocalPosition.x
      value: 0
      objectReference: {fileID: 0}
    - target: {fileID: -8679921383154817045, guid: b86a80095dfda5247bb5a7966caf402e,
        type: 3}
      propertyPath: m_LocalPosition.y
      value: 0
      objectReference: {fileID: 0}
    - target: {fileID: -8679921383154817045, guid: b86a80095dfda5247bb5a7966caf402e,
        type: 3}
      propertyPath: m_LocalPosition.z
      value: 0
      objectReference: {fileID: 0}
    - target: {fileID: -8679921383154817045, guid: b86a80095dfda5247bb5a7966caf402e,
        type: 3}
      propertyPath: m_LocalRotation.w
      value: 1
      objectReference: {fileID: 0}
    - target: {fileID: -8679921383154817045, guid: b86a80095dfda5247bb5a7966caf402e,
        type: 3}
      propertyPath: m_LocalRotation.x
      value: 0
      objectReference: {fileID: 0}
    - target: {fileID: -8679921383154817045, guid: b86a80095dfda5247bb5a7966caf402e,
        type: 3}
      propertyPath: m_LocalRotation.y
      value: 0
      objectReference: {fileID: 0}
    - target: {fileID: -8679921383154817045, guid: b86a80095dfda5247bb5a7966caf402e,
        type: 3}
      propertyPath: m_LocalRotation.z
      value: 0
      objectReference: {fileID: 0}
    - target: {fileID: -8679921383154817045, guid: b86a80095dfda5247bb5a7966caf402e,
        type: 3}
      propertyPath: m_LocalEulerAnglesHint.x
      value: 0
      objectReference: {fileID: 0}
    - target: {fileID: -8679921383154817045, guid: b86a80095dfda5247bb5a7966caf402e,
        type: 3}
      propertyPath: m_LocalEulerAnglesHint.y
      value: 0
      objectReference: {fileID: 0}
    - target: {fileID: -8679921383154817045, guid: b86a80095dfda5247bb5a7966caf402e,
        type: 3}
      propertyPath: m_LocalEulerAnglesHint.z
      value: 0
      objectReference: {fileID: 0}
    - target: {fileID: -8393734448516823218, guid: b86a80095dfda5247bb5a7966caf402e,
        type: 3}
      propertyPath: m_Materials.Array.data[0]
      value: 
      objectReference: {fileID: 2100000, guid: 72883cb5ca243644b817e1cf3142450e, type: 2}
    - target: {fileID: -8225983375606592093, guid: b86a80095dfda5247bb5a7966caf402e,
        type: 3}
      propertyPath: m_Mesh
      value: 
      objectReference: {fileID: -6719607756317905023, guid: b86a80095dfda5247bb5a7966caf402e,
        type: 3}
    - target: {fileID: -7511558181221131132, guid: b86a80095dfda5247bb5a7966caf402e,
        type: 3}
      propertyPath: m_Materials.Array.data[0]
      value: 
      objectReference: {fileID: 2100000, guid: 5dac6ed72e8559c40bf69756d75c55b4, type: 2}
    - target: {fileID: -7393175066225899884, guid: b86a80095dfda5247bb5a7966caf402e,
        type: 3}
      propertyPath: m_Materials.Array.data[0]
      value: 
      objectReference: {fileID: 2100000, guid: 72883cb5ca243644b817e1cf3142450e, type: 2}
    - target: {fileID: -4423464650572181584, guid: b86a80095dfda5247bb5a7966caf402e,
        type: 3}
      propertyPath: m_StaticEditorFlags
      value: 123
      objectReference: {fileID: 0}
    - target: {fileID: -2551561451448293535, guid: b86a80095dfda5247bb5a7966caf402e,
        type: 3}
      propertyPath: m_Mesh
      value: 
      objectReference: {fileID: -6719607756317905023, guid: b86a80095dfda5247bb5a7966caf402e,
        type: 3}
    - target: {fileID: -1037780898393476517, guid: b86a80095dfda5247bb5a7966caf402e,
        type: 3}
      propertyPath: m_Materials.Array.data[0]
      value: 
      objectReference: {fileID: 2100000, guid: 72883cb5ca243644b817e1cf3142450e, type: 2}
    - target: {fileID: -805584085785226452, guid: b86a80095dfda5247bb5a7966caf402e,
        type: 3}
      propertyPath: m_StaticEditorFlags
      value: 123
      objectReference: {fileID: 0}
    - target: {fileID: -356621421056713958, guid: b86a80095dfda5247bb5a7966caf402e,
        type: 3}
      propertyPath: m_StaticEditorFlags
      value: 123
      objectReference: {fileID: 0}
    - target: {fileID: 919132149155446097, guid: b86a80095dfda5247bb5a7966caf402e,
        type: 3}
      propertyPath: m_Name
      value: anemona1
      objectReference: {fileID: 0}
    - target: {fileID: 919132149155446097, guid: b86a80095dfda5247bb5a7966caf402e,
        type: 3}
      propertyPath: m_Layer
      value: 18
      objectReference: {fileID: 0}
    - target: {fileID: 919132149155446097, guid: b86a80095dfda5247bb5a7966caf402e,
        type: 3}
      propertyPath: m_StaticEditorFlags
      value: 123
      objectReference: {fileID: 0}
    - target: {fileID: 1511687446292799319, guid: b86a80095dfda5247bb5a7966caf402e,
        type: 3}
      propertyPath: m_Materials.Array.data[0]
      value: 
      objectReference: {fileID: 2100000, guid: 72883cb5ca243644b817e1cf3142450e, type: 2}
    - target: {fileID: 4742473837712756890, guid: b86a80095dfda5247bb5a7966caf402e,
        type: 3}
      propertyPath: m_Size
      value: 8.127291
      objectReference: {fileID: 0}
    - target: {fileID: 4742473837712756890, guid: b86a80095dfda5247bb5a7966caf402e,
        type: 3}
      propertyPath: m_FadeMode
      value: 1
      objectReference: {fileID: 0}
    - target: {fileID: 4742473837712756890, guid: b86a80095dfda5247bb5a7966caf402e,
        type: 3}
      propertyPath: m_LocalReferencePoint.x
      value: -0.045338392
      objectReference: {fileID: 0}
    - target: {fileID: 4742473837712756890, guid: b86a80095dfda5247bb5a7966caf402e,
        type: 3}
      propertyPath: m_LocalReferencePoint.y
      value: -0.0022854805
      objectReference: {fileID: 0}
    - target: {fileID: 4742473837712756890, guid: b86a80095dfda5247bb5a7966caf402e,
        type: 3}
      propertyPath: m_LODs.Array.data[0].fadeTransitionWidth
      value: 0.25
      objectReference: {fileID: 0}
    - target: {fileID: 4742473837712756890, guid: b86a80095dfda5247bb5a7966caf402e,
        type: 3}
      propertyPath: m_LODs.Array.data[1].fadeTransitionWidth
      value: 0.25
      objectReference: {fileID: 0}
    - target: {fileID: 4742473837712756890, guid: b86a80095dfda5247bb5a7966caf402e,
        type: 3}
      propertyPath: m_LODs.Array.data[2].fadeTransitionWidth
      value: 0.25
      objectReference: {fileID: 0}
    - target: {fileID: 4742473837712756890, guid: b86a80095dfda5247bb5a7966caf402e,
        type: 3}
      propertyPath: m_LODs.Array.data[0].screenRelativeHeight
      value: 0.042515606
      objectReference: {fileID: 0}
    - target: {fileID: 4742473837712756890, guid: b86a80095dfda5247bb5a7966caf402e,
        type: 3}
      propertyPath: m_LODs.Array.data[1].screenRelativeHeight
      value: 0.014459496
      objectReference: {fileID: 0}
    - target: {fileID: 4742473837712756890, guid: b86a80095dfda5247bb5a7966caf402e,
        type: 3}
      propertyPath: m_LODs.Array.data[2].screenRelativeHeight
      value: 0.008731256
      objectReference: {fileID: 0}
    - target: {fileID: 4742473837712756890, guid: b86a80095dfda5247bb5a7966caf402e,
        type: 3}
      propertyPath: m_LODs.Array.data[3].screenRelativeHeight
      value: 0.004011424
      objectReference: {fileID: 0}
    - target: {fileID: 4742473837712756890, guid: b86a80095dfda5247bb5a7966caf402e,
        type: 3}
      propertyPath: m_LODs.Array.data[0].renderers.Array.data[0].renderer
      value: 
      objectReference: {fileID: 0}
    - target: {fileID: 4742473837712756890, guid: b86a80095dfda5247bb5a7966caf402e,
        type: 3}
      propertyPath: m_LODs.Array.data[1].renderers.Array.data[0].renderer
      value: 
      objectReference: {fileID: 0}
    - target: {fileID: 7510089802060981170, guid: b86a80095dfda5247bb5a7966caf402e,
        type: 3}
      propertyPath: m_LocalPosition.x
      value: -5.24
      objectReference: {fileID: 0}
    - target: {fileID: 7880049377606040833, guid: b86a80095dfda5247bb5a7966caf402e,
        type: 3}
      propertyPath: m_Layer
      value: 18
      objectReference: {fileID: 0}
    - target: {fileID: 7880049377606040833, guid: b86a80095dfda5247bb5a7966caf402e,
        type: 3}
      propertyPath: m_StaticEditorFlags
      value: 123
      objectReference: {fileID: 0}
    m_RemovedComponents: []
  m_SourcePrefab: {fileID: 100100000, guid: b86a80095dfda5247bb5a7966caf402e, type: 3}
--- !u!4 &3770949958410273075 stripped
Transform:
  m_CorrespondingSourceObject: {fileID: -8679921383154817045, guid: b86a80095dfda5247bb5a7966caf402e,
    type: 3}
  m_PrefabInstance: {fileID: 3737884884206413528}
  m_PrefabAsset: {fileID: 0}
