%YAML 1.1
%TAG !u! tag:unity3d.com,2011:
--- !u!1 &5716588995957854357
GameObject:
  m_ObjectHideFlags: 0
  m_CorrespondingSourceObject: {fileID: 0}
  m_PrefabInstance: {fileID: 0}
  m_PrefabAsset: {fileID: 0}
  serializedVersion: 6
  m_Component:
  - component: {fileID: 2127159173761577266}
  m_Layer: 0
  m_Name: EsponjaSuave_Tubo2 cyan
  m_TagString: Untagged
  m_Icon: {fileID: 0}
  m_NavMeshLayer: 0
  m_StaticEditorFlags: 123
  m_IsActive: 1
--- !u!4 &2127159173761577266
Transform:
  m_ObjectHideFlags: 0
  m_CorrespondingSourceObject: {fileID: 0}
  m_PrefabInstance: {fileID: 0}
  m_PrefabAsset: {fileID: 0}
  m_GameObject: {fileID: 5716588995957854357}
  m_LocalRotation: {x: 0, y: 0, z: 0, w: 1}
  m_LocalPosition: {x: 0, y: 0, z: 0}
  m_LocalScale: {x: 3, y: 3, z: 3}
  m_ConstrainProportionsScale: 0
  m_Children:
  - {fileID: 2178323034443496266}
  m_Father: {fileID: 0}
  m_RootOrder: 0
  m_LocalEulerAnglesHint: {x: 0, y: 0, z: 0}
--- !u!1001 &1851063281602747553
PrefabInstance:
  m_ObjectHideFlags: 0
  serializedVersion: 2
  m_Modification:
    m_TransformParent: {fileID: 2127159173761577266}
    m_Modifications:
    - target: {fileID: -9198808720282798010, guid: 51691c6daf7f7be488c1b4edfce5d333,
        type: 3}
      propertyPath: m_Materials.Array.data[0]
      value: 
      objectReference: {fileID: 2100000, guid: e1a96033beefbdc4a8c7b11f1620b0e5, type: 2}
    - target: {fileID: -8865479699779750146, guid: 51691c6daf7f7be488c1b4edfce5d333,
        type: 3}
      propertyPath: m_Mesh
      value: 
      objectReference: {fileID: -3392570123572492986, guid: 51691c6daf7f7be488c1b4edfce5d333,
        type: 3}
    - target: {fileID: -8679921383154817045, guid: 51691c6daf7f7be488c1b4edfce5d333,
        type: 3}
      propertyPath: m_RootOrder
      value: 0
      objectReference: {fileID: 0}
    - target: {fileID: -8679921383154817045, guid: 51691c6daf7f7be488c1b4edfce5d333,
        type: 3}
      propertyPath: m_LocalPosition.x
      value: 0
      objectReference: {fileID: 0}
    - target: {fileID: -8679921383154817045, guid: 51691c6daf7f7be488c1b4edfce5d333,
        type: 3}
      propertyPath: m_LocalPosition.y
      value: 0
      objectReference: {fileID: 0}
    - target: {fileID: -8679921383154817045, guid: 51691c6daf7f7be488c1b4edfce5d333,
        type: 3}
      propertyPath: m_LocalPosition.z
      value: 0
      objectReference: {fileID: 0}
    - target: {fileID: -8679921383154817045, guid: 51691c6daf7f7be488c1b4edfce5d333,
        type: 3}
      propertyPath: m_LocalRotation.w
      value: 1
      objectReference: {fileID: 0}
    - target: {fileID: -8679921383154817045, guid: 51691c6daf7f7be488c1b4edfce5d333,
        type: 3}
      propertyPath: m_LocalRotation.x
      value: 0
      objectReference: {fileID: 0}
    - target: {fileID: -8679921383154817045, guid: 51691c6daf7f7be488c1b4edfce5d333,
        type: 3}
      propertyPath: m_LocalRotation.y
      value: -0
      objectReference: {fileID: 0}
    - target: {fileID: -8679921383154817045, guid: 51691c6daf7f7be488c1b4edfce5d333,
        type: 3}
      propertyPath: m_LocalRotation.z
      value: -0
      objectReference: {fileID: 0}
    - target: {fileID: -8679921383154817045, guid: 51691c6daf7f7be488c1b4edfce5d333,
        type: 3}
      propertyPath: m_LocalEulerAnglesHint.x
      value: 0
      objectReference: {fileID: 0}
    - target: {fileID: -8679921383154817045, guid: 51691c6daf7f7be488c1b4edfce5d333,
        type: 3}
      propertyPath: m_LocalEulerAnglesHint.y
      value: 0
      objectReference: {fileID: 0}
    - target: {fileID: -8679921383154817045, guid: 51691c6daf7f7be488c1b4edfce5d333,
        type: 3}
      propertyPath: m_LocalEulerAnglesHint.z
      value: 0
      objectReference: {fileID: 0}
    - target: {fileID: -8090138124357468471, guid: 51691c6daf7f7be488c1b4edfce5d333,
        type: 3}
      propertyPath: m_Materials.Array.data[0]
      value: 
      objectReference: {fileID: 2100000, guid: e1a96033beefbdc4a8c7b11f1620b0e5, type: 2}
    - target: {fileID: -7511558181221131132, guid: 51691c6daf7f7be488c1b4edfce5d333,
        type: 3}
      propertyPath: m_Materials.Array.data[0]
      value: 
      objectReference: {fileID: 2100000, guid: 7dc03b3081a456b43b5765622f96bf81, type: 2}
    - target: {fileID: -6369183399372844816, guid: 51691c6daf7f7be488c1b4edfce5d333,
        type: 3}
      propertyPath: m_LocalPosition.x
      value: 0
      objectReference: {fileID: 0}
    - target: {fileID: -6369183399372844816, guid: 51691c6daf7f7be488c1b4edfce5d333,
        type: 3}
      propertyPath: m_LocalPosition.y
      value: 0
      objectReference: {fileID: 0}
    - target: {fileID: -6369183399372844816, guid: 51691c6daf7f7be488c1b4edfce5d333,
        type: 3}
      propertyPath: m_LocalPosition.z
      value: 0
      objectReference: {fileID: 0}
    - target: {fileID: -5080957674477400102, guid: 51691c6daf7f7be488c1b4edfce5d333,
        type: 3}
      propertyPath: m_LocalPosition.x
      value: 0
      objectReference: {fileID: 0}
    - target: {fileID: -5080957674477400102, guid: 51691c6daf7f7be488c1b4edfce5d333,
        type: 3}
      propertyPath: m_LocalPosition.y
      value: 0
      objectReference: {fileID: 0}
    - target: {fileID: -5080957674477400102, guid: 51691c6daf7f7be488c1b4edfce5d333,
        type: 3}
      propertyPath: m_LocalPosition.z
      value: 0
      objectReference: {fileID: 0}
    - target: {fileID: -4595399482556776742, guid: 51691c6daf7f7be488c1b4edfce5d333,
        type: 3}
      propertyPath: m_Layer
      value: 18
      objectReference: {fileID: 0}
    - target: {fileID: -4595399482556776742, guid: 51691c6daf7f7be488c1b4edfce5d333,
        type: 3}
      propertyPath: m_StaticEditorFlags
      value: 123
      objectReference: {fileID: 0}
    - target: {fileID: -2523598221291192647, guid: 51691c6daf7f7be488c1b4edfce5d333,
        type: 3}
      propertyPath: m_LocalPosition.x
      value: 0
      objectReference: {fileID: 0}
    - target: {fileID: -2523598221291192647, guid: 51691c6daf7f7be488c1b4edfce5d333,
        type: 3}
      propertyPath: m_LocalPosition.y
      value: 0
      objectReference: {fileID: 0}
    - target: {fileID: -2523598221291192647, guid: 51691c6daf7f7be488c1b4edfce5d333,
        type: 3}
      propertyPath: m_LocalPosition.z
      value: 0
      objectReference: {fileID: 0}
    - target: {fileID: -1744726909770781224, guid: 51691c6daf7f7be488c1b4edfce5d333,
        type: 3}
      propertyPath: m_StaticEditorFlags
      value: 123
      objectReference: {fileID: 0}
    - target: {fileID: 919132149155446097, guid: 51691c6daf7f7be488c1b4edfce5d333,
        type: 3}
      propertyPath: m_Name
      value: esponja_tubo_2
      objectReference: {fileID: 0}
    - target: {fileID: 919132149155446097, guid: 51691c6daf7f7be488c1b4edfce5d333,
        type: 3}
      propertyPath: m_Layer
      value: 18
      objectReference: {fileID: 0}
    - target: {fileID: 919132149155446097, guid: 51691c6daf7f7be488c1b4edfce5d333,
        type: 3}
      propertyPath: m_StaticEditorFlags
      value: 123
      objectReference: {fileID: 0}
    - target: {fileID: 2207386054562959644, guid: 51691c6daf7f7be488c1b4edfce5d333,
        type: 3}
      propertyPath: m_Materials.Array.data[0]
      value: 
      objectReference: {fileID: 2100000, guid: e1a96033beefbdc4a8c7b11f1620b0e5, type: 2}
    - target: {fileID: 3928235287686346508, guid: 51691c6daf7f7be488c1b4edfce5d333,
        type: 3}
      propertyPath: m_StaticEditorFlags
      value: 123
      objectReference: {fileID: 0}
    - target: {fileID: 4742473837712756890, guid: 51691c6daf7f7be488c1b4edfce5d333,
        type: 3}
      propertyPath: m_Size
      value: 31.381943
      objectReference: {fileID: 0}
    - target: {fileID: 4742473837712756890, guid: 51691c6daf7f7be488c1b4edfce5d333,
        type: 3}
      propertyPath: m_FadeMode
      value: 1
      objectReference: {fileID: 0}
    - target: {fileID: 4742473837712756890, guid: 51691c6daf7f7be488c1b4edfce5d333,
        type: 3}
      propertyPath: m_LocalReferencePoint.x
      value: -1.1792545
      objectReference: {fileID: 0}
    - target: {fileID: 4742473837712756890, guid: 51691c6daf7f7be488c1b4edfce5d333,
        type: 3}
      propertyPath: m_LocalReferencePoint.y
      value: 0.6475258
      objectReference: {fileID: 0}
    - target: {fileID: 4742473837712756890, guid: 51691c6daf7f7be488c1b4edfce5d333,
        type: 3}
      propertyPath: m_LocalReferencePoint.z
      value: -0.0074243546
      objectReference: {fileID: 0}
    - target: {fileID: 4742473837712756890, guid: 51691c6daf7f7be488c1b4edfce5d333,
        type: 3}
      propertyPath: m_LODs.Array.data[0].fadeTransitionWidth
      value: 0.25
      objectReference: {fileID: 0}
    - target: {fileID: 4742473837712756890, guid: 51691c6daf7f7be488c1b4edfce5d333,
        type: 3}
      propertyPath: m_LODs.Array.data[1].fadeTransitionWidth
      value: 0.25
      objectReference: {fileID: 0}
    - target: {fileID: 4742473837712756890, guid: 51691c6daf7f7be488c1b4edfce5d333,
        type: 3}
      propertyPath: m_LODs.Array.data[2].fadeTransitionWidth
      value: 0.25
      objectReference: {fileID: 0}
    - target: {fileID: 4742473837712756890, guid: 51691c6daf7f7be488c1b4edfce5d333,
        type: 3}
      propertyPath: m_LODs.Array.data[2].screenRelativeHeight
      value: 0.0269
      objectReference: {fileID: 0}
    - target: {fileID: 5310949822566361608, guid: 51691c6daf7f7be488c1b4edfce5d333,
        type: 3}
      propertyPath: m_Materials.Array.data[0]
      value: 
      objectReference: {fileID: 2100000, guid: e1a96033beefbdc4a8c7b11f1620b0e5, type: 2}
    - target: {fileID: 7632993540071356146, guid: 51691c6daf7f7be488c1b4edfce5d333,
        type: 3}
      propertyPath: m_StaticEditorFlags
      value: 123
      objectReference: {fileID: 0}
    - target: {fileID: 7691553696405687890, guid: 51691c6daf7f7be488c1b4edfce5d333,
        type: 3}
      propertyPath: m_LocalPosition.x
      value: 0
      objectReference: {fileID: 0}
    - target: {fileID: 7691553696405687890, guid: 51691c6daf7f7be488c1b4edfce5d333,
        type: 3}
      propertyPath: m_LocalPosition.y
      value: 0
      objectReference: {fileID: 0}
    - target: {fileID: 7691553696405687890, guid: 51691c6daf7f7be488c1b4edfce5d333,
        type: 3}
      propertyPath: m_LocalPosition.z
      value: 0
      objectReference: {fileID: 0}
    m_RemovedComponents: []
  m_SourcePrefab: {fileID: 100100000, guid: 51691c6daf7f7be488c1b4edfce5d333, type: 3}
--- !u!4 &2178323034443496266 stripped
Transform:
  m_CorrespondingSourceObject: {fileID: -8679921383154817045, guid: 51691c6daf7f7be488c1b4edfce5d333,
    type: 3}
  m_PrefabInstance: {fileID: 1851063281602747553}
  m_PrefabAsset: {fileID: 0}
