%YAML 1.1
%TAG !u! tag:unity3d.com,2011:
--- !u!1 &3245271482178020254
GameObject:
  m_ObjectHideFlags: 0
  m_CorrespondingSourceObject: {fileID: 0}
  m_PrefabInstance: {fileID: 0}
  m_PrefabAsset: {fileID: 0}
  serializedVersion: 6
  m_Component:
  - component: {fileID: 454354809748570737}
  m_Layer: 0
  m_Name: EsponjaSuave_Tubo1 morado
  m_TagString: Untagged
  m_Icon: {fileID: 0}
  m_NavMeshLayer: 0
  m_StaticEditorFlags: 123
  m_IsActive: 1
--- !u!4 &454354809748570737
Transform:
  m_ObjectHideFlags: 0
  m_CorrespondingSourceObject: {fileID: 0}
  m_PrefabInstance: {fileID: 0}
  m_PrefabAsset: {fileID: 0}
  m_GameObject: {fileID: 3245271482178020254}
  m_LocalRotation: {x: 0, y: 0, z: 0, w: 1}
  m_LocalPosition: {x: 0, y: 0, z: 0}
  m_LocalScale: {x: 1, y: 1, z: 1}
  m_ConstrainProportionsScale: 0
  m_Children:
  - {fileID: 3315711325589910321}
  m_Father: {fileID: 0}
  m_RootOrder: 0
  m_LocalEulerAnglesHint: {x: 0, y: 0, z: 0}
--- !u!1001 &2993060451404469466
PrefabInstance:
  m_ObjectHideFlags: 0
  serializedVersion: 2
  m_Modification:
    m_TransformParent: {fileID: 454354809748570737}
    m_Modifications:
    - target: {fileID: -9223135624191442237, guid: 9c74c36cb53e36046981d429acc29674,
        type: 3}
      propertyPath: m_LocalPosition.x
      value: 0
      objectReference: {fileID: 0}
    - target: {fileID: -9223135624191442237, guid: 9c74c36cb53e36046981d429acc29674,
        type: 3}
      propertyPath: m_LocalPosition.y
      value: 0
      objectReference: {fileID: 0}
    - target: {fileID: -9223135624191442237, guid: 9c74c36cb53e36046981d429acc29674,
        type: 3}
      propertyPath: m_LocalPosition.z
      value: 0
      objectReference: {fileID: 0}
    - target: {fileID: -8679921383154817045, guid: 9c74c36cb53e36046981d429acc29674,
        type: 3}
      propertyPath: m_RootOrder
      value: 0
      objectReference: {fileID: 0}
    - target: {fileID: -8679921383154817045, guid: 9c74c36cb53e36046981d429acc29674,
        type: 3}
      propertyPath: m_LocalPosition.x
      value: 0
      objectReference: {fileID: 0}
    - target: {fileID: -8679921383154817045, guid: 9c74c36cb53e36046981d429acc29674,
        type: 3}
      propertyPath: m_LocalPosition.y
      value: 0
      objectReference: {fileID: 0}
    - target: {fileID: -8679921383154817045, guid: 9c74c36cb53e36046981d429acc29674,
        type: 3}
      propertyPath: m_LocalPosition.z
      value: 0
      objectReference: {fileID: 0}
    - target: {fileID: -8679921383154817045, guid: 9c74c36cb53e36046981d429acc29674,
        type: 3}
      propertyPath: m_LocalRotation.w
      value: 0
      objectReference: {fileID: 0}
    - target: {fileID: -8679921383154817045, guid: 9c74c36cb53e36046981d429acc29674,
        type: 3}
      propertyPath: m_LocalRotation.x
      value: 0
      objectReference: {fileID: 0}
    - target: {fileID: -8679921383154817045, guid: 9c74c36cb53e36046981d429acc29674,
        type: 3}
      propertyPath: m_LocalRotation.y
      value: 0
      objectReference: {fileID: 0}
    - target: {fileID: -8679921383154817045, guid: 9c74c36cb53e36046981d429acc29674,
        type: 3}
      propertyPath: m_LocalRotation.z
      value: 1
      objectReference: {fileID: 0}
    - target: {fileID: -8679921383154817045, guid: 9c74c36cb53e36046981d429acc29674,
        type: 3}
      propertyPath: m_LocalEulerAnglesHint.x
      value: 0
      objectReference: {fileID: 0}
    - target: {fileID: -8679921383154817045, guid: 9c74c36cb53e36046981d429acc29674,
        type: 3}
      propertyPath: m_LocalEulerAnglesHint.y
      value: 0
      objectReference: {fileID: 0}
    - target: {fileID: -8679921383154817045, guid: 9c74c36cb53e36046981d429acc29674,
        type: 3}
      propertyPath: m_LocalEulerAnglesHint.z
      value: 180
      objectReference: {fileID: 0}
    - target: {fileID: -7511558181221131132, guid: 9c74c36cb53e36046981d429acc29674,
        type: 3}
      propertyPath: m_Materials.Array.data[0]
      value: 
      objectReference: {fileID: 2100000, guid: 4acf081fc7d246b49bb50a7784085ddd, type: 2}
    - target: {fileID: -3763795612271048809, guid: 9c74c36cb53e36046981d429acc29674,
        type: 3}
      propertyPath: m_StaticEditorFlags
      value: 123
      objectReference: {fileID: 0}
    - target: {fileID: -2971245813714056813, guid: 9c74c36cb53e36046981d429acc29674,
        type: 3}
      propertyPath: m_Layer
      value: 18
      objectReference: {fileID: 0}
    - target: {fileID: -2971245813714056813, guid: 9c74c36cb53e36046981d429acc29674,
        type: 3}
      propertyPath: m_StaticEditorFlags
      value: 0
      objectReference: {fileID: 0}
    - target: {fileID: -1234304009174628681, guid: 9c74c36cb53e36046981d429acc29674,
        type: 3}
      propertyPath: m_Materials.Array.data[0]
      value: 
      objectReference: {fileID: 2100000, guid: 4acf081fc7d246b49bb50a7784085ddd, type: 2}
    - target: {fileID: -440640401943002297, guid: 9c74c36cb53e36046981d429acc29674,
        type: 3}
      propertyPath: m_StaticEditorFlags
      value: 123
      objectReference: {fileID: 0}
    - target: {fileID: -297961042652856859, guid: 9c74c36cb53e36046981d429acc29674,
        type: 3}
      propertyPath: m_LocalPosition.x
      value: 0
      objectReference: {fileID: 0}
    - target: {fileID: -297961042652856859, guid: 9c74c36cb53e36046981d429acc29674,
        type: 3}
      propertyPath: m_LocalPosition.y
      value: 0
      objectReference: {fileID: 0}
    - target: {fileID: -297961042652856859, guid: 9c74c36cb53e36046981d429acc29674,
        type: 3}
      propertyPath: m_LocalPosition.z
      value: 0
      objectReference: {fileID: 0}
    - target: {fileID: -275595556543181137, guid: 9c74c36cb53e36046981d429acc29674,
        type: 3}
      propertyPath: m_Materials.Array.data[0]
      value: 
      objectReference: {fileID: 2100000, guid: 4acf081fc7d246b49bb50a7784085ddd, type: 2}
    - target: {fileID: 140550261454254088, guid: 9c74c36cb53e36046981d429acc29674,
        type: 3}
      propertyPath: m_Layer
      value: 18
      objectReference: {fileID: 0}
    - target: {fileID: 140550261454254088, guid: 9c74c36cb53e36046981d429acc29674,
        type: 3}
      propertyPath: m_StaticEditorFlags
      value: 123
      objectReference: {fileID: 0}
    - target: {fileID: 788942014509158116, guid: 9c74c36cb53e36046981d429acc29674,
        type: 3}
      propertyPath: m_LocalPosition.x
      value: 0
      objectReference: {fileID: 0}
    - target: {fileID: 788942014509158116, guid: 9c74c36cb53e36046981d429acc29674,
        type: 3}
      propertyPath: m_LocalPosition.y
      value: 0
      objectReference: {fileID: 0}
    - target: {fileID: 788942014509158116, guid: 9c74c36cb53e36046981d429acc29674,
        type: 3}
      propertyPath: m_LocalPosition.z
      value: 0
      objectReference: {fileID: 0}
    - target: {fileID: 919132149155446097, guid: 9c74c36cb53e36046981d429acc29674,
        type: 3}
      propertyPath: m_Name
      value: esponja_tubo_1
      objectReference: {fileID: 0}
    - target: {fileID: 919132149155446097, guid: 9c74c36cb53e36046981d429acc29674,
        type: 3}
      propertyPath: m_StaticEditorFlags
      value: 123
      objectReference: {fileID: 0}
    - target: {fileID: 2431180765541313209, guid: 9c74c36cb53e36046981d429acc29674,
        type: 3}
      propertyPath: m_Materials.Array.data[0]
      value: 
      objectReference: {fileID: 2100000, guid: 4acf081fc7d246b49bb50a7784085ddd, type: 2}
    - target: {fileID: 3820133852088626091, guid: 9c74c36cb53e36046981d429acc29674,
        type: 3}
      propertyPath: m_Materials.Array.data[0]
      value: 
      objectReference: {fileID: 2100000, guid: e2ba879e40004874cac8bcdd478f08af, type: 2}
    - target: {fileID: 4211614281557490558, guid: 9c74c36cb53e36046981d429acc29674,
        type: 3}
      propertyPath: m_LocalPosition.x
      value: 0
      objectReference: {fileID: 0}
    - target: {fileID: 4211614281557490558, guid: 9c74c36cb53e36046981d429acc29674,
        type: 3}
      propertyPath: m_LocalPosition.y
      value: 0
      objectReference: {fileID: 0}
    - target: {fileID: 4211614281557490558, guid: 9c74c36cb53e36046981d429acc29674,
        type: 3}
      propertyPath: m_LocalPosition.z
      value: 0
      objectReference: {fileID: 0}
    - target: {fileID: 4742473837712756890, guid: 9c74c36cb53e36046981d429acc29674,
        type: 3}
      propertyPath: m_FadeMode
      value: 1
      objectReference: {fileID: 0}
    - target: {fileID: 4742473837712756890, guid: 9c74c36cb53e36046981d429acc29674,
        type: 3}
      propertyPath: m_LocalReferencePoint.x
      value: 0
      objectReference: {fileID: 0}
    - target: {fileID: 4742473837712756890, guid: 9c74c36cb53e36046981d429acc29674,
        type: 3}
      propertyPath: m_LocalReferencePoint.y
      value: 0
      objectReference: {fileID: 0}
    - target: {fileID: 4742473837712756890, guid: 9c74c36cb53e36046981d429acc29674,
        type: 3}
      propertyPath: m_LocalReferencePoint.z
      value: 0
      objectReference: {fileID: 0}
    - target: {fileID: 4742473837712756890, guid: 9c74c36cb53e36046981d429acc29674,
        type: 3}
      propertyPath: m_LODs.Array.data[0].fadeTransitionWidth
      value: 0.25
      objectReference: {fileID: 0}
    - target: {fileID: 4742473837712756890, guid: 9c74c36cb53e36046981d429acc29674,
        type: 3}
      propertyPath: m_LODs.Array.data[1].fadeTransitionWidth
      value: 0.25
      objectReference: {fileID: 0}
    - target: {fileID: 4742473837712756890, guid: 9c74c36cb53e36046981d429acc29674,
        type: 3}
      propertyPath: m_LODs.Array.data[2].fadeTransitionWidth
      value: 0.25
      objectReference: {fileID: 0}
    - target: {fileID: 4742473837712756890, guid: 9c74c36cb53e36046981d429acc29674,
        type: 3}
      propertyPath: m_LODs.Array.data[2].screenRelativeHeight
      value: 0.0207
      objectReference: {fileID: 0}
    - target: {fileID: 4742473837712756890, guid: 9c74c36cb53e36046981d429acc29674,
        type: 3}
      propertyPath: m_LODs.Array.data[3].screenRelativeHeight
      value: 0.021656753
      objectReference: {fileID: 0}
    - target: {fileID: 5136581014404698155, guid: 9c74c36cb53e36046981d429acc29674,
        type: 3}
      propertyPath: m_Materials.Array.data[0]
      value: 
      objectReference: {fileID: 2100000, guid: 4acf081fc7d246b49bb50a7784085ddd, type: 2}
    - target: {fileID: 6214101218958140426, guid: 9c74c36cb53e36046981d429acc29674,
        type: 3}
      propertyPath: m_IsActive
      value: 0
      objectReference: {fileID: 0}
    - target: {fileID: 6214101218958140426, guid: 9c74c36cb53e36046981d429acc29674,
        type: 3}
      propertyPath: m_StaticEditorFlags
      value: 0
      objectReference: {fileID: 0}
    - target: {fileID: 7783773858758755446, guid: 9c74c36cb53e36046981d429acc29674,
        type: 3}
      propertyPath: m_Materials.Array.data[0]
      value: 
      objectReference: {fileID: 2100000, guid: 4acf081fc7d246b49bb50a7784085ddd, type: 2}
    - target: {fileID: 9004016372660625925, guid: 9c74c36cb53e36046981d429acc29674,
        type: 3}
      propertyPath: m_StaticEditorFlags
      value: 123
      objectReference: {fileID: 0}
    m_RemovedComponents: []
  m_SourcePrefab: {fileID: 100100000, guid: 9c74c36cb53e36046981d429acc29674, type: 3}
--- !u!4 &3315711325589910321 stripped
Transform:
  m_CorrespondingSourceObject: {fileID: -8679921383154817045, guid: 9c74c36cb53e36046981d429acc29674,
    type: 3}
  m_PrefabInstance: {fileID: 2993060451404469466}
  m_PrefabAsset: {fileID: 0}
