%YAML 1.1
%TAG !u! tag:unity3d.com,2011:
--- !u!1 &2864369227929918623
GameObject:
  m_ObjectHideFlags: 0
  m_CorrespondingSourceObject: {fileID: 0}
  m_PrefabInstance: {fileID: 0}
  m_PrefabAsset: {fileID: 0}
  serializedVersion: 6
  m_Component:
  - component: {fileID: 6788341835675156135}
  m_Layer: 0
  m_Name: EsponjaSuave_Ramas2 morada
  m_TagString: Untagged
  m_Icon: {fileID: 0}
  m_NavMeshLayer: 0
  m_StaticEditorFlags: 123
  m_IsActive: 1
--- !u!4 &6788341835675156135
Transform:
  m_ObjectHideFlags: 0
  m_CorrespondingSourceObject: {fileID: 0}
  m_PrefabInstance: {fileID: 0}
  m_PrefabAsset: {fileID: 0}
  m_GameObject: {fileID: 2864369227929918623}
  m_LocalRotation: {x: 0, y: 0, z: 0, w: 1}
  m_LocalPosition: {x: 0, y: 0, z: 0}
  m_LocalScale: {x: 1, y: 1, z: 1}
  m_ConstrainProportionsScale: 0
  m_Children:
  - {fileID: 3771204508520516069}
  m_Father: {fileID: 0}
  m_RootOrder: 0
  m_LocalEulerAnglesHint: {x: 0, y: 0, z: 0}
--- !u!1001 &3737068466499939854
PrefabInstance:
  m_ObjectHideFlags: 0
  serializedVersion: 2
  m_Modification:
    m_TransformParent: {fileID: 6788341835675156135}
    m_Modifications:
    - target: {fileID: -8679921383154817045, guid: b0386ae8ebcaec440a8d4748fb1675c0,
        type: 3}
      propertyPath: m_RootOrder
      value: 0
      objectReference: {fileID: 0}
    - target: {fileID: -8679921383154817045, guid: b0386ae8ebcaec440a8d4748fb1675c0,
        type: 3}
      propertyPath: m_LocalPosition.x
      value: 0
      objectReference: {fileID: 0}
    - target: {fileID: -8679921383154817045, guid: b0386ae8ebcaec440a8d4748fb1675c0,
        type: 3}
      propertyPath: m_LocalPosition.y
      value: 0
      objectReference: {fileID: 0}
    - target: {fileID: -8679921383154817045, guid: b0386ae8ebcaec440a8d4748fb1675c0,
        type: 3}
      propertyPath: m_LocalPosition.z
      value: 0
      objectReference: {fileID: 0}
    - target: {fileID: -8679921383154817045, guid: b0386ae8ebcaec440a8d4748fb1675c0,
        type: 3}
      propertyPath: m_LocalRotation.w
      value: 1
      objectReference: {fileID: 0}
    - target: {fileID: -8679921383154817045, guid: b0386ae8ebcaec440a8d4748fb1675c0,
        type: 3}
      propertyPath: m_LocalRotation.x
      value: 0
      objectReference: {fileID: 0}
    - target: {fileID: -8679921383154817045, guid: b0386ae8ebcaec440a8d4748fb1675c0,
        type: 3}
      propertyPath: m_LocalRotation.y
      value: 0
      objectReference: {fileID: 0}
    - target: {fileID: -8679921383154817045, guid: b0386ae8ebcaec440a8d4748fb1675c0,
        type: 3}
      propertyPath: m_LocalRotation.z
      value: 0
      objectReference: {fileID: 0}
    - target: {fileID: -8679921383154817045, guid: b0386ae8ebcaec440a8d4748fb1675c0,
        type: 3}
      propertyPath: m_LocalEulerAnglesHint.x
      value: 0
      objectReference: {fileID: 0}
    - target: {fileID: -8679921383154817045, guid: b0386ae8ebcaec440a8d4748fb1675c0,
        type: 3}
      propertyPath: m_LocalEulerAnglesHint.y
      value: 0
      objectReference: {fileID: 0}
    - target: {fileID: -8679921383154817045, guid: b0386ae8ebcaec440a8d4748fb1675c0,
        type: 3}
      propertyPath: m_LocalEulerAnglesHint.z
      value: 0
      objectReference: {fileID: 0}
    - target: {fileID: -8013058792836604442, guid: b0386ae8ebcaec440a8d4748fb1675c0,
        type: 3}
      propertyPath: m_LocalPosition.x
      value: 0
      objectReference: {fileID: 0}
    - target: {fileID: -8013058792836604442, guid: b0386ae8ebcaec440a8d4748fb1675c0,
        type: 3}
      propertyPath: m_LocalPosition.y
      value: 0
      objectReference: {fileID: 0}
    - target: {fileID: -8013058792836604442, guid: b0386ae8ebcaec440a8d4748fb1675c0,
        type: 3}
      propertyPath: m_LocalPosition.z
      value: 0
      objectReference: {fileID: 0}
    - target: {fileID: -7511558181221131132, guid: b0386ae8ebcaec440a8d4748fb1675c0,
        type: 3}
      propertyPath: m_Materials.Array.data[0]
      value: 
      objectReference: {fileID: 2100000, guid: d72d9f8cea60d624ab28ea6ee79c7f19, type: 2}
    - target: {fileID: -7316165137750738619, guid: b0386ae8ebcaec440a8d4748fb1675c0,
        type: 3}
      propertyPath: m_Materials.Array.data[0]
      value: 
      objectReference: {fileID: 2100000, guid: e2ba879e40004874cac8bcdd478f08af, type: 2}
    - target: {fileID: -6585697762869451984, guid: b0386ae8ebcaec440a8d4748fb1675c0,
        type: 3}
      propertyPath: m_Layer
      value: 18
      objectReference: {fileID: 0}
    - target: {fileID: -6585697762869451984, guid: b0386ae8ebcaec440a8d4748fb1675c0,
        type: 3}
      propertyPath: m_StaticEditorFlags
      value: 0
      objectReference: {fileID: 0}
    - target: {fileID: -6582599582501296625, guid: b0386ae8ebcaec440a8d4748fb1675c0,
        type: 3}
      propertyPath: m_StaticEditorFlags
      value: 123
      objectReference: {fileID: 0}
    - target: {fileID: -2399297469346869885, guid: b0386ae8ebcaec440a8d4748fb1675c0,
        type: 3}
      propertyPath: m_Materials.Array.data[0]
      value: 
      objectReference: {fileID: 2100000, guid: d72d9f8cea60d624ab28ea6ee79c7f19, type: 2}
    - target: {fileID: -1457178562711436737, guid: b0386ae8ebcaec440a8d4748fb1675c0,
        type: 3}
      propertyPath: m_Materials.Array.data[0]
      value: 
      objectReference: {fileID: 2100000, guid: d72d9f8cea60d624ab28ea6ee79c7f19, type: 2}
    - target: {fileID: -443148135536187305, guid: b0386ae8ebcaec440a8d4748fb1675c0,
        type: 3}
      propertyPath: m_Materials.Array.data[0]
      value: 
      objectReference: {fileID: 2100000, guid: d72d9f8cea60d624ab28ea6ee79c7f19, type: 2}
    - target: {fileID: 496274525825269950, guid: b0386ae8ebcaec440a8d4748fb1675c0,
        type: 3}
      propertyPath: m_LocalPosition.x
      value: 0
      objectReference: {fileID: 0}
    - target: {fileID: 496274525825269950, guid: b0386ae8ebcaec440a8d4748fb1675c0,
        type: 3}
      propertyPath: m_LocalPosition.y
      value: 0
      objectReference: {fileID: 0}
    - target: {fileID: 496274525825269950, guid: b0386ae8ebcaec440a8d4748fb1675c0,
        type: 3}
      propertyPath: m_LocalPosition.z
      value: 0
      objectReference: {fileID: 0}
    - target: {fileID: 919132149155446097, guid: b0386ae8ebcaec440a8d4748fb1675c0,
        type: 3}
      propertyPath: m_Name
      value: esponja_ramas2
      objectReference: {fileID: 0}
    - target: {fileID: 919132149155446097, guid: b0386ae8ebcaec440a8d4748fb1675c0,
        type: 3}
      propertyPath: m_StaticEditorFlags
      value: 123
      objectReference: {fileID: 0}
    - target: {fileID: 958411544587265468, guid: b0386ae8ebcaec440a8d4748fb1675c0,
        type: 3}
      propertyPath: m_Materials.Array.data[0]
      value: 
      objectReference: {fileID: 2100000, guid: d72d9f8cea60d624ab28ea6ee79c7f19, type: 2}
    - target: {fileID: 3435379890847255474, guid: b0386ae8ebcaec440a8d4748fb1675c0,
        type: 3}
      propertyPath: m_IsActive
      value: 0
      objectReference: {fileID: 0}
    - target: {fileID: 3435379890847255474, guid: b0386ae8ebcaec440a8d4748fb1675c0,
        type: 3}
      propertyPath: m_StaticEditorFlags
      value: 0
      objectReference: {fileID: 0}
    - target: {fileID: 4076094871808278076, guid: b0386ae8ebcaec440a8d4748fb1675c0,
        type: 3}
      propertyPath: m_StaticEditorFlags
      value: 123
      objectReference: {fileID: 0}
    - target: {fileID: 4623698204387812979, guid: b0386ae8ebcaec440a8d4748fb1675c0,
        type: 3}
      propertyPath: m_StaticEditorFlags
      value: 123
      objectReference: {fileID: 0}
    - target: {fileID: 4742473837712756890, guid: b0386ae8ebcaec440a8d4748fb1675c0,
        type: 3}
      propertyPath: m_FadeMode
      value: 1
      objectReference: {fileID: 0}
    - target: {fileID: 4742473837712756890, guid: b0386ae8ebcaec440a8d4748fb1675c0,
        type: 3}
      propertyPath: m_LocalReferencePoint.x
      value: -0.020484924
      objectReference: {fileID: 0}
    - target: {fileID: 4742473837712756890, guid: b0386ae8ebcaec440a8d4748fb1675c0,
        type: 3}
      propertyPath: m_LocalReferencePoint.y
      value: 0.0000052452087
      objectReference: {fileID: 0}
    - target: {fileID: 4742473837712756890, guid: b0386ae8ebcaec440a8d4748fb1675c0,
        type: 3}
      propertyPath: m_LocalReferencePoint.z
      value: 0.21676922
      objectReference: {fileID: 0}
    - target: {fileID: 4742473837712756890, guid: b0386ae8ebcaec440a8d4748fb1675c0,
        type: 3}
      propertyPath: m_LODs.Array.data[0].fadeTransitionWidth
      value: 0.25
      objectReference: {fileID: 0}
    - target: {fileID: 4742473837712756890, guid: b0386ae8ebcaec440a8d4748fb1675c0,
        type: 3}
      propertyPath: m_LODs.Array.data[1].fadeTransitionWidth
      value: 0.25
      objectReference: {fileID: 0}
    - target: {fileID: 4742473837712756890, guid: b0386ae8ebcaec440a8d4748fb1675c0,
        type: 3}
      propertyPath: m_LODs.Array.data[2].fadeTransitionWidth
      value: 0.25
      objectReference: {fileID: 0}
    - target: {fileID: 4742473837712756890, guid: b0386ae8ebcaec440a8d4748fb1675c0,
        type: 3}
      propertyPath: m_LODs.Array.data[2].screenRelativeHeight
      value: 0.009
      objectReference: {fileID: 0}
    - target: {fileID: 4742473837712756890, guid: b0386ae8ebcaec440a8d4748fb1675c0,
        type: 3}
      propertyPath: m_LODs.Array.data[3].screenRelativeHeight
      value: 0.013572196
      objectReference: {fileID: 0}
    - target: {fileID: 5292332858387803140, guid: b0386ae8ebcaec440a8d4748fb1675c0,
        type: 3}
      propertyPath: m_Materials.Array.data[0]
      value: 
      objectReference: {fileID: 2100000, guid: e02c3a499a688604cb4e2514c38b0eeb, type: 2}
    - target: {fileID: 5750110308042913071, guid: b0386ae8ebcaec440a8d4748fb1675c0,
        type: 3}
      propertyPath: m_LocalPosition.x
      value: 0
      objectReference: {fileID: 0}
    - target: {fileID: 5750110308042913071, guid: b0386ae8ebcaec440a8d4748fb1675c0,
        type: 3}
      propertyPath: m_LocalPosition.y
      value: 0
      objectReference: {fileID: 0}
    - target: {fileID: 5750110308042913071, guid: b0386ae8ebcaec440a8d4748fb1675c0,
        type: 3}
      propertyPath: m_LocalPosition.z
      value: 0
      objectReference: {fileID: 0}
    - target: {fileID: 6453688805844577174, guid: b0386ae8ebcaec440a8d4748fb1675c0,
        type: 3}
      propertyPath: m_Layer
      value: 18
      objectReference: {fileID: 0}
    - target: {fileID: 6453688805844577174, guid: b0386ae8ebcaec440a8d4748fb1675c0,
        type: 3}
      propertyPath: m_StaticEditorFlags
      value: 123
      objectReference: {fileID: 0}
    - target: {fileID: 8534431096357257061, guid: b0386ae8ebcaec440a8d4748fb1675c0,
        type: 3}
      propertyPath: m_LocalPosition.x
      value: 0
      objectReference: {fileID: 0}
    - target: {fileID: 8534431096357257061, guid: b0386ae8ebcaec440a8d4748fb1675c0,
        type: 3}
      propertyPath: m_LocalPosition.y
      value: 0
      objectReference: {fileID: 0}
    - target: {fileID: 8534431096357257061, guid: b0386ae8ebcaec440a8d4748fb1675c0,
        type: 3}
      propertyPath: m_LocalPosition.z
      value: 0
      objectReference: {fileID: 0}
    m_RemovedComponents: []
  m_SourcePrefab: {fileID: 100100000, guid: b0386ae8ebcaec440a8d4748fb1675c0, type: 3}
--- !u!4 &3771204508520516069 stripped
Transform:
  m_CorrespondingSourceObject: {fileID: -8679921383154817045, guid: b0386ae8ebcaec440a8d4748fb1675c0,
    type: 3}
  m_PrefabInstance: {fileID: 3737068466499939854}
  m_PrefabAsset: {fileID: 0}
