%YAML 1.1
%TAG !u! tag:unity3d.com,2011:
--- !u!1 &2410034894641754324
GameObject:
  m_ObjectHideFlags: 0
  m_CorrespondingSourceObject: {fileID: 0}
  m_PrefabInstance: {fileID: 0}
  m_PrefabAsset: {fileID: 0}
  serializedVersion: 6
  m_Component:
  - component: {fileID: 2627223044067241225}
  m_Layer: 0
  m_Name: EsponjaSuave_Ramas3
  m_TagString: Untagged
  m_Icon: {fileID: 0}
  m_NavMeshLayer: 0
  m_StaticEditorFlags: 123
  m_IsActive: 1
--- !u!4 &2627223044067241225
Transform:
  m_ObjectHideFlags: 0
  m_CorrespondingSourceObject: {fileID: 0}
  m_PrefabInstance: {fileID: 0}
  m_PrefabAsset: {fileID: 0}
  m_GameObject: {fileID: 2410034894641754324}
  m_LocalRotation: {x: 0, y: 0, z: 0, w: 1}
  m_LocalPosition: {x: 0, y: 0, z: 0}
  m_LocalScale: {x: 1, y: 1, z: 1}
  m_ConstrainProportionsScale: 0
  m_Children:
  - {fileID: 8957846364786215897}
  m_Father: {fileID: 0}
  m_RootOrder: 0
  m_LocalEulerAnglesHint: {x: 0, y: 0, z: 0}
--- !u!1001 &8924463975310437426
PrefabInstance:
  m_ObjectHideFlags: 0
  serializedVersion: 2
  m_Modification:
    m_TransformParent: {fileID: 2627223044067241225}
    m_Modifications:
    - target: {fileID: -8679921383154817045, guid: 578c640f06152b14f9757b03a332ac4f,
        type: 3}
      propertyPath: m_RootOrder
      value: 0
      objectReference: {fileID: 0}
    - target: {fileID: -8679921383154817045, guid: 578c640f06152b14f9757b03a332ac4f,
        type: 3}
      propertyPath: m_LocalPosition.x
      value: 0
      objectReference: {fileID: 0}
    - target: {fileID: -8679921383154817045, guid: 578c640f06152b14f9757b03a332ac4f,
        type: 3}
      propertyPath: m_LocalPosition.y
      value: 0
      objectReference: {fileID: 0}
    - target: {fileID: -8679921383154817045, guid: 578c640f06152b14f9757b03a332ac4f,
        type: 3}
      propertyPath: m_LocalPosition.z
      value: 0
      objectReference: {fileID: 0}
    - target: {fileID: -8679921383154817045, guid: 578c640f06152b14f9757b03a332ac4f,
        type: 3}
      propertyPath: m_LocalRotation.w
      value: 1
      objectReference: {fileID: 0}
    - target: {fileID: -8679921383154817045, guid: 578c640f06152b14f9757b03a332ac4f,
        type: 3}
      propertyPath: m_LocalRotation.x
      value: 0
      objectReference: {fileID: 0}
    - target: {fileID: -8679921383154817045, guid: 578c640f06152b14f9757b03a332ac4f,
        type: 3}
      propertyPath: m_LocalRotation.y
      value: 0
      objectReference: {fileID: 0}
    - target: {fileID: -8679921383154817045, guid: 578c640f06152b14f9757b03a332ac4f,
        type: 3}
      propertyPath: m_LocalRotation.z
      value: 0
      objectReference: {fileID: 0}
    - target: {fileID: -8679921383154817045, guid: 578c640f06152b14f9757b03a332ac4f,
        type: 3}
      propertyPath: m_LocalEulerAnglesHint.x
      value: 0
      objectReference: {fileID: 0}
    - target: {fileID: -8679921383154817045, guid: 578c640f06152b14f9757b03a332ac4f,
        type: 3}
      propertyPath: m_LocalEulerAnglesHint.y
      value: 0
      objectReference: {fileID: 0}
    - target: {fileID: -8679921383154817045, guid: 578c640f06152b14f9757b03a332ac4f,
        type: 3}
      propertyPath: m_LocalEulerAnglesHint.z
      value: 0
      objectReference: {fileID: 0}
    - target: {fileID: -7511558181221131132, guid: 578c640f06152b14f9757b03a332ac4f,
        type: 3}
      propertyPath: m_Materials.Array.data[0]
      value: 
      objectReference: {fileID: 2100000, guid: 614deb0549ae30247842515740b54739, type: 2}
    - target: {fileID: -7425261541278445625, guid: 578c640f06152b14f9757b03a332ac4f,
        type: 3}
      propertyPath: m_StaticEditorFlags
      value: 123
      objectReference: {fileID: 0}
    - target: {fileID: -5862874319514028976, guid: 578c640f06152b14f9757b03a332ac4f,
        type: 3}
      propertyPath: m_Materials.Array.data[0]
      value: 
      objectReference: {fileID: 2100000, guid: 614deb0549ae30247842515740b54739, type: 2}
    - target: {fileID: -5655550378784537548, guid: 578c640f06152b14f9757b03a332ac4f,
        type: 3}
      propertyPath: m_StaticEditorFlags
      value: 123
      objectReference: {fileID: 0}
    - target: {fileID: -4828186708634153653, guid: 578c640f06152b14f9757b03a332ac4f,
        type: 3}
      propertyPath: m_LocalPosition.x
      value: 0
      objectReference: {fileID: 0}
    - target: {fileID: -4828186708634153653, guid: 578c640f06152b14f9757b03a332ac4f,
        type: 3}
      propertyPath: m_LocalPosition.y
      value: 0
      objectReference: {fileID: 0}
    - target: {fileID: -4828186708634153653, guid: 578c640f06152b14f9757b03a332ac4f,
        type: 3}
      propertyPath: m_LocalPosition.z
      value: 0
      objectReference: {fileID: 0}
    - target: {fileID: -1545549185707810064, guid: 578c640f06152b14f9757b03a332ac4f,
        type: 3}
      propertyPath: m_LocalPosition.x
      value: 0
      objectReference: {fileID: 0}
    - target: {fileID: -1545549185707810064, guid: 578c640f06152b14f9757b03a332ac4f,
        type: 3}
      propertyPath: m_LocalPosition.y
      value: 0
      objectReference: {fileID: 0}
    - target: {fileID: -1545549185707810064, guid: 578c640f06152b14f9757b03a332ac4f,
        type: 3}
      propertyPath: m_LocalPosition.z
      value: 0
      objectReference: {fileID: 0}
    - target: {fileID: -1387610238070484325, guid: 578c640f06152b14f9757b03a332ac4f,
        type: 3}
      propertyPath: m_LocalPosition.x
      value: 0
      objectReference: {fileID: 0}
    - target: {fileID: -1387610238070484325, guid: 578c640f06152b14f9757b03a332ac4f,
        type: 3}
      propertyPath: m_LocalPosition.y
      value: 0
      objectReference: {fileID: 0}
    - target: {fileID: -1387610238070484325, guid: 578c640f06152b14f9757b03a332ac4f,
        type: 3}
      propertyPath: m_LocalPosition.z
      value: 0
      objectReference: {fileID: 0}
    - target: {fileID: -904830114176033695, guid: 578c640f06152b14f9757b03a332ac4f,
        type: 3}
      propertyPath: m_Materials.Array.data[0]
      value: 
      objectReference: {fileID: 2100000, guid: 614deb0549ae30247842515740b54739, type: 2}
    - target: {fileID: -347885706267154191, guid: 578c640f06152b14f9757b03a332ac4f,
        type: 3}
      propertyPath: m_Materials.Array.data[0]
      value: 
      objectReference: {fileID: 2100000, guid: fe0639f9343bc994fabb3df10086b22e, type: 2}
    - target: {fileID: 919132149155446097, guid: 578c640f06152b14f9757b03a332ac4f,
        type: 3}
      propertyPath: m_Name
      value: esponja_ramas3
      objectReference: {fileID: 0}
    - target: {fileID: 919132149155446097, guid: 578c640f06152b14f9757b03a332ac4f,
        type: 3}
      propertyPath: m_StaticEditorFlags
      value: 123
      objectReference: {fileID: 0}
    - target: {fileID: 1231593415789183758, guid: 578c640f06152b14f9757b03a332ac4f,
        type: 3}
      propertyPath: m_Materials.Array.data[0]
      value: 
      objectReference: {fileID: 2100000, guid: e2ba879e40004874cac8bcdd478f08af, type: 2}
    - target: {fileID: 1723026641460155614, guid: 578c640f06152b14f9757b03a332ac4f,
        type: 3}
      propertyPath: m_LocalPosition.x
      value: 0
      objectReference: {fileID: 0}
    - target: {fileID: 1723026641460155614, guid: 578c640f06152b14f9757b03a332ac4f,
        type: 3}
      propertyPath: m_LocalPosition.y
      value: 0
      objectReference: {fileID: 0}
    - target: {fileID: 1723026641460155614, guid: 578c640f06152b14f9757b03a332ac4f,
        type: 3}
      propertyPath: m_LocalPosition.z
      value: 0
      objectReference: {fileID: 0}
    - target: {fileID: 3866657647484883486, guid: 578c640f06152b14f9757b03a332ac4f,
        type: 3}
      propertyPath: m_Materials.Array.data[0]
      value: 
      objectReference: {fileID: 2100000, guid: 614deb0549ae30247842515740b54739, type: 2}
    - target: {fileID: 4742473837712756890, guid: 578c640f06152b14f9757b03a332ac4f,
        type: 3}
      propertyPath: m_FadeMode
      value: 1
      objectReference: {fileID: 0}
    - target: {fileID: 4742473837712756890, guid: 578c640f06152b14f9757b03a332ac4f,
        type: 3}
      propertyPath: m_LocalReferencePoint.x
      value: 0
      objectReference: {fileID: 0}
    - target: {fileID: 4742473837712756890, guid: 578c640f06152b14f9757b03a332ac4f,
        type: 3}
      propertyPath: m_LocalReferencePoint.y
      value: 0
      objectReference: {fileID: 0}
    - target: {fileID: 4742473837712756890, guid: 578c640f06152b14f9757b03a332ac4f,
        type: 3}
      propertyPath: m_LocalReferencePoint.z
      value: 0
      objectReference: {fileID: 0}
    - target: {fileID: 4742473837712756890, guid: 578c640f06152b14f9757b03a332ac4f,
        type: 3}
      propertyPath: m_LODs.Array.data[0].fadeTransitionWidth
      value: 0.25
      objectReference: {fileID: 0}
    - target: {fileID: 4742473837712756890, guid: 578c640f06152b14f9757b03a332ac4f,
        type: 3}
      propertyPath: m_LODs.Array.data[1].fadeTransitionWidth
      value: 0.25
      objectReference: {fileID: 0}
    - target: {fileID: 4742473837712756890, guid: 578c640f06152b14f9757b03a332ac4f,
        type: 3}
      propertyPath: m_LODs.Array.data[2].fadeTransitionWidth
      value: 0.25
      objectReference: {fileID: 0}
    - target: {fileID: 6413635239611107464, guid: 578c640f06152b14f9757b03a332ac4f,
        type: 3}
      propertyPath: m_IsActive
      value: 0
      objectReference: {fileID: 0}
    - target: {fileID: 6413635239611107464, guid: 578c640f06152b14f9757b03a332ac4f,
        type: 3}
      propertyPath: m_StaticEditorFlags
      value: 0
      objectReference: {fileID: 0}
    - target: {fileID: 7066923384592607762, guid: 578c640f06152b14f9757b03a332ac4f,
        type: 3}
      propertyPath: m_Layer
      value: 18
      objectReference: {fileID: 0}
    - target: {fileID: 7066923384592607762, guid: 578c640f06152b14f9757b03a332ac4f,
        type: 3}
      propertyPath: m_StaticEditorFlags
      value: 123
      objectReference: {fileID: 0}
    - target: {fileID: 7131134418392590777, guid: 578c640f06152b14f9757b03a332ac4f,
        type: 3}
      propertyPath: m_StaticEditorFlags
      value: 123
      objectReference: {fileID: 0}
    - target: {fileID: 8451836764960619386, guid: 578c640f06152b14f9757b03a332ac4f,
        type: 3}
      propertyPath: m_Materials.Array.data[0]
      value: 
      objectReference: {fileID: 2100000, guid: 614deb0549ae30247842515740b54739, type: 2}
    - target: {fileID: 8957529355397091208, guid: 578c640f06152b14f9757b03a332ac4f,
        type: 3}
      propertyPath: m_Layer
      value: 18
      objectReference: {fileID: 0}
    - target: {fileID: 8957529355397091208, guid: 578c640f06152b14f9757b03a332ac4f,
        type: 3}
      propertyPath: m_StaticEditorFlags
      value: 0
      objectReference: {fileID: 0}
    m_RemovedComponents: []
  m_SourcePrefab: {fileID: 100100000, guid: 578c640f06152b14f9757b03a332ac4f, type: 3}
--- !u!4 &8957846364786215897 stripped
Transform:
  m_CorrespondingSourceObject: {fileID: -8679921383154817045, guid: 578c640f06152b14f9757b03a332ac4f,
    type: 3}
  m_PrefabInstance: {fileID: 8924463975310437426}
  m_PrefabAsset: {fileID: 0}
