%YAML 1.1
%TAG !u! tag:unity3d.com,2011:
--- !u!114 &11400000
MonoBehaviour:
  m_ObjectHideFlags: 0
  m_CorrespondingSourceObject: {fileID: 0}
  m_PrefabInstance: {fileID: 0}
  m_PrefabAsset: {fileID: 0}
  m_GameObject: {fileID: 0}
  m_Enabled: 1
  m_EditorHideFlags: 0
  m_Script: {fileID: 11500000, guid: 290cb7aa0ba836e44b030813ddee3eb8, type: 3}
  m_Name: BlowFish
  m_EditorClassIdentifier: 
  <ModelPrefab>k__BackingField: {fileID: 4826516317640202529, guid: d4204aa7705b85e4aa406ad024b72216,
    type: 3}
  LayerData: {fileID: 11400000, guid: d90667e38f692854f871a6ece5614e19, type: 2}
  <Data>k__BackingField:
    <Speed>k__BackingField: 2.8
    <SmoothSpeed>k__BackingField: 0.155
    <MaxHealth>k__BackingField: 6
    health: 6
    currentHealth: 6
    <Energy>k__BackingField: 0
    <AttackDistance>k__BackingField: 42
    <DamageMultiplier>k__BackingField: 1
    <Shield>k__BackingField: 0
    <InmunityDuration>k__BackingField: 1.5
    ChangeColorOnInmunity: 0
    InmunityColor: {r: 0, g: 0, b: 0, a: 0}
    <DiedMaterial>k__BackingField: {fileID: 2100000, guid: ee2cf5319ea72f74c9af09a19edf1a18,
      type: 2}
    isInmune: 0
    ControlOnInmune: 0
    UIColor: {r: 0, g: 0, b: 0, a: 0}
