%YAML 1.1
%TAG !u! tag:unity3d.com,2011:
--- !u!1 &244853353165822984
GameObject:
  m_ObjectHideFlags: 0
  m_CorrespondingSourceObject: {fileID: 0}
  m_PrefabInstance: {fileID: 0}
  m_PrefabAsset: {fileID: 0}
  serializedVersion: 6
  m_Component:
  - component: {fileID: 7234874574240382298}
  m_Layer: 6
  m_Name: CoralSuaveGrow_Anemona4 celeste
  m_TagString: Untagged
  m_Icon: {fileID: 0}
  m_NavMeshLayer: 0
  m_StaticEditorFlags: 123
  m_IsActive: 1
--- !u!4 &7234874574240382298
Transform:
  m_ObjectHideFlags: 0
  m_CorrespondingSourceObject: {fileID: 0}
  m_PrefabInstance: {fileID: 0}
  m_PrefabAsset: {fileID: 0}
  m_GameObject: {fileID: 244853353165822984}
  m_LocalRotation: {x: 0, y: 0, z: 0, w: 1}
  m_LocalPosition: {x: -8.000413, y: 0.8897962, z: 34.819916}
  m_LocalScale: {x: 1, y: 1, z: 1}
  m_ConstrainProportionsScale: 0
  m_Children:
  - {fileID: 5256514604091408170}
  m_Father: {fileID: 0}
  m_RootOrder: 0
  m_LocalEulerAnglesHint: {x: 0, y: 0, z: 0}
--- !u!1001 &5726429540943141057
PrefabInstance:
  m_ObjectHideFlags: 0
  serializedVersion: 2
  m_Modification:
    m_TransformParent: {fileID: 7234874574240382298}
    m_Modifications:
    - target: {fileID: -8679921383154817045, guid: a16f4680d940fc14eaa9665e3eb05e4e,
        type: 3}
      propertyPath: m_RootOrder
      value: 0
      objectReference: {fileID: 0}
    - target: {fileID: -8679921383154817045, guid: a16f4680d940fc14eaa9665e3eb05e4e,
        type: 3}
      propertyPath: m_LocalPosition.x
      value: 0
      objectReference: {fileID: 0}
    - target: {fileID: -8679921383154817045, guid: a16f4680d940fc14eaa9665e3eb05e4e,
        type: 3}
      propertyPath: m_LocalPosition.y
      value: 0
      objectReference: {fileID: 0}
    - target: {fileID: -8679921383154817045, guid: a16f4680d940fc14eaa9665e3eb05e4e,
        type: 3}
      propertyPath: m_LocalPosition.z
      value: 0
      objectReference: {fileID: 0}
    - target: {fileID: -8679921383154817045, guid: a16f4680d940fc14eaa9665e3eb05e4e,
        type: 3}
      propertyPath: m_LocalRotation.w
      value: 1
      objectReference: {fileID: 0}
    - target: {fileID: -8679921383154817045, guid: a16f4680d940fc14eaa9665e3eb05e4e,
        type: 3}
      propertyPath: m_LocalRotation.x
      value: 0
      objectReference: {fileID: 0}
    - target: {fileID: -8679921383154817045, guid: a16f4680d940fc14eaa9665e3eb05e4e,
        type: 3}
      propertyPath: m_LocalRotation.y
      value: 0
      objectReference: {fileID: 0}
    - target: {fileID: -8679921383154817045, guid: a16f4680d940fc14eaa9665e3eb05e4e,
        type: 3}
      propertyPath: m_LocalRotation.z
      value: 0
      objectReference: {fileID: 0}
    - target: {fileID: -8679921383154817045, guid: a16f4680d940fc14eaa9665e3eb05e4e,
        type: 3}
      propertyPath: m_LocalEulerAnglesHint.x
      value: 0
      objectReference: {fileID: 0}
    - target: {fileID: -8679921383154817045, guid: a16f4680d940fc14eaa9665e3eb05e4e,
        type: 3}
      propertyPath: m_LocalEulerAnglesHint.y
      value: 0
      objectReference: {fileID: 0}
    - target: {fileID: -8679921383154817045, guid: a16f4680d940fc14eaa9665e3eb05e4e,
        type: 3}
      propertyPath: m_LocalEulerAnglesHint.z
      value: 0
      objectReference: {fileID: 0}
    - target: {fileID: -7850011605776706546, guid: a16f4680d940fc14eaa9665e3eb05e4e,
        type: 3}
      propertyPath: m_Materials.Array.data[0]
      value: 
      objectReference: {fileID: 2100000, guid: f7ebd0ba404adb84f8ca9d370ea67df4, type: 2}
    - target: {fileID: -4844011468353164568, guid: a16f4680d940fc14eaa9665e3eb05e4e,
        type: 3}
      propertyPath: m_Materials.Array.data[0]
      value: 
      objectReference: {fileID: 2100000, guid: f7ebd0ba404adb84f8ca9d370ea67df4, type: 2}
    - target: {fileID: -4717354124782923021, guid: a16f4680d940fc14eaa9665e3eb05e4e,
        type: 3}
      propertyPath: m_StaticEditorFlags
      value: 123
      objectReference: {fileID: 0}
    - target: {fileID: -2727607233914896440, guid: a16f4680d940fc14eaa9665e3eb05e4e,
        type: 3}
      propertyPath: m_LocalPosition.x
      value: 0
      objectReference: {fileID: 0}
    - target: {fileID: -2727607233914896440, guid: a16f4680d940fc14eaa9665e3eb05e4e,
        type: 3}
      propertyPath: m_LocalPosition.y
      value: 0
      objectReference: {fileID: 0}
    - target: {fileID: -2727607233914896440, guid: a16f4680d940fc14eaa9665e3eb05e4e,
        type: 3}
      propertyPath: m_LocalPosition.z
      value: 0
      objectReference: {fileID: 0}
    - target: {fileID: -2025098815996803857, guid: a16f4680d940fc14eaa9665e3eb05e4e,
        type: 3}
      propertyPath: m_Materials.Array.data[0]
      value: 
      objectReference: {fileID: 2100000, guid: f7ebd0ba404adb84f8ca9d370ea67df4, type: 2}
    - target: {fileID: 919132149155446097, guid: a16f4680d940fc14eaa9665e3eb05e4e,
        type: 3}
      propertyPath: m_Name
      value: anemona4_lod
      objectReference: {fileID: 0}
    - target: {fileID: 919132149155446097, guid: a16f4680d940fc14eaa9665e3eb05e4e,
        type: 3}
      propertyPath: m_StaticEditorFlags
      value: 123
      objectReference: {fileID: 0}
    - target: {fileID: 3608754514056412695, guid: a16f4680d940fc14eaa9665e3eb05e4e,
        type: 3}
      propertyPath: m_LocalPosition.x
      value: 0
      objectReference: {fileID: 0}
    - target: {fileID: 3608754514056412695, guid: a16f4680d940fc14eaa9665e3eb05e4e,
        type: 3}
      propertyPath: m_LocalPosition.y
      value: 0
      objectReference: {fileID: 0}
    - target: {fileID: 3608754514056412695, guid: a16f4680d940fc14eaa9665e3eb05e4e,
        type: 3}
      propertyPath: m_LocalPosition.z
      value: 0
      objectReference: {fileID: 0}
    - target: {fileID: 3871910687382820740, guid: a16f4680d940fc14eaa9665e3eb05e4e,
        type: 3}
      propertyPath: m_StaticEditorFlags
      value: 123
      objectReference: {fileID: 0}
    - target: {fileID: 4215779383472677517, guid: a16f4680d940fc14eaa9665e3eb05e4e,
        type: 3}
      propertyPath: m_StaticEditorFlags
      value: 123
      objectReference: {fileID: 0}
    - target: {fileID: 4311871278813041636, guid: a16f4680d940fc14eaa9665e3eb05e4e,
        type: 3}
      propertyPath: m_Layer
      value: 18
      objectReference: {fileID: 0}
    - target: {fileID: 4311871278813041636, guid: a16f4680d940fc14eaa9665e3eb05e4e,
        type: 3}
      propertyPath: m_StaticEditorFlags
      value: 123
      objectReference: {fileID: 0}
    - target: {fileID: 4510452037457812255, guid: a16f4680d940fc14eaa9665e3eb05e4e,
        type: 3}
      propertyPath: m_LocalPosition.x
      value: 0
      objectReference: {fileID: 0}
    - target: {fileID: 4510452037457812255, guid: a16f4680d940fc14eaa9665e3eb05e4e,
        type: 3}
      propertyPath: m_LocalPosition.y
      value: 0
      objectReference: {fileID: 0}
    - target: {fileID: 4510452037457812255, guid: a16f4680d940fc14eaa9665e3eb05e4e,
        type: 3}
      propertyPath: m_LocalPosition.z
      value: 0
      objectReference: {fileID: 0}
    - target: {fileID: 4609031352967999868, guid: a16f4680d940fc14eaa9665e3eb05e4e,
        type: 3}
      propertyPath: m_LocalPosition.x
      value: 0
      objectReference: {fileID: 0}
    - target: {fileID: 4609031352967999868, guid: a16f4680d940fc14eaa9665e3eb05e4e,
        type: 3}
      propertyPath: m_LocalPosition.y
      value: 0
      objectReference: {fileID: 0}
    - target: {fileID: 4609031352967999868, guid: a16f4680d940fc14eaa9665e3eb05e4e,
        type: 3}
      propertyPath: m_LocalPosition.z
      value: 0
      objectReference: {fileID: 0}
    - target: {fileID: 4742473837712756890, guid: a16f4680d940fc14eaa9665e3eb05e4e,
        type: 3}
      propertyPath: m_FadeMode
      value: 1
      objectReference: {fileID: 0}
    - target: {fileID: 4742473837712756890, guid: a16f4680d940fc14eaa9665e3eb05e4e,
        type: 3}
      propertyPath: m_LODs.Array.data[0].fadeTransitionWidth
      value: 0.25
      objectReference: {fileID: 0}
    - target: {fileID: 4742473837712756890, guid: a16f4680d940fc14eaa9665e3eb05e4e,
        type: 3}
      propertyPath: m_LODs.Array.data[1].fadeTransitionWidth
      value: 0.25
      objectReference: {fileID: 0}
    - target: {fileID: 4742473837712756890, guid: a16f4680d940fc14eaa9665e3eb05e4e,
        type: 3}
      propertyPath: m_LODs.Array.data[2].fadeTransitionWidth
      value: 0.25
      objectReference: {fileID: 0}
    - target: {fileID: 4742473837712756890, guid: a16f4680d940fc14eaa9665e3eb05e4e,
        type: 3}
      propertyPath: m_LODs.Array.data[3].fadeTransitionWidth
      value: 0.25
      objectReference: {fileID: 0}
    - target: {fileID: 4742473837712756890, guid: a16f4680d940fc14eaa9665e3eb05e4e,
        type: 3}
      propertyPath: m_LODs.Array.data[0].screenRelativeHeight
      value: 0.34905475
      objectReference: {fileID: 0}
    - target: {fileID: 4742473837712756890, guid: a16f4680d940fc14eaa9665e3eb05e4e,
        type: 3}
      propertyPath: m_LODs.Array.data[1].screenRelativeHeight
      value: 0.17188741
      objectReference: {fileID: 0}
    - target: {fileID: 4742473837712756890, guid: a16f4680d940fc14eaa9665e3eb05e4e,
        type: 3}
      propertyPath: m_LODs.Array.data[3].screenRelativeHeight
      value: 0.026860638
      objectReference: {fileID: 0}
    - target: {fileID: 5461407091254766544, guid: a16f4680d940fc14eaa9665e3eb05e4e,
        type: 3}
      propertyPath: m_Materials.Array.data[0]
      value: 
      objectReference: {fileID: 2100000, guid: f7ebd0ba404adb84f8ca9d370ea67df4, type: 2}
    m_RemovedComponents: []
  m_SourcePrefab: {fileID: 100100000, guid: a16f4680d940fc14eaa9665e3eb05e4e, type: 3}
--- !u!4 &5256514604091408170 stripped
Transform:
  m_CorrespondingSourceObject: {fileID: -8679921383154817045, guid: a16f4680d940fc14eaa9665e3eb05e4e,
    type: 3}
  m_PrefabInstance: {fileID: 5726429540943141057}
  m_PrefabAsset: {fileID: 0}
--- !u!1 &8407804093965552421 stripped
GameObject:
  m_CorrespondingSourceObject: {fileID: 4311871278813041636, guid: a16f4680d940fc14eaa9665e3eb05e4e,
    type: 3}
  m_PrefabInstance: {fileID: 5726429540943141057}
  m_PrefabAsset: {fileID: 0}
--- !u!64 &87090587950806049
MeshCollider:
  m_ObjectHideFlags: 0
  m_CorrespondingSourceObject: {fileID: 0}
  m_PrefabInstance: {fileID: 0}
  m_PrefabAsset: {fileID: 0}
  m_GameObject: {fileID: 8407804093965552421}
  m_Material: {fileID: 0}
  m_IsTrigger: 0
  m_Enabled: 1
  serializedVersion: 4
  m_Convex: 0
  m_CookingOptions: 30
  m_Mesh: {fileID: 2649229114247164556, guid: a16f4680d940fc14eaa9665e3eb05e4e, type: 3}
--- !u!114 &6220938771968521805
MonoBehaviour:
  m_ObjectHideFlags: 0
  m_CorrespondingSourceObject: {fileID: 0}
  m_PrefabInstance: {fileID: 0}
  m_PrefabAsset: {fileID: 0}
  m_GameObject: {fileID: 8407804093965552421}
  m_Enabled: 1
  m_EditorHideFlags: 0
  m_Script: {fileID: 11500000, guid: 61a2602c9dcbf7c43a47883e2cddec42, type: 3}
  m_Name: 
  m_EditorClassIdentifier: 
  alphaValue: 0.5
