%YAML 1.1
%TAG !u! tag:unity3d.com,2011:
--- !u!114 &11400000
MonoBehaviour:
  m_ObjectHideFlags: 0
  m_CorrespondingSourceObject: {fileID: 0}
  m_PrefabInstance: {fileID: 0}
  m_PrefabAsset: {fileID: 0}
  m_GameObject: {fileID: 0}
  m_Enabled: 1
  m_EditorHideFlags: 0
  m_Script: {fileID: 11500000, guid: a3d7bbb3e478e0c4b929170e801cb067, type: 3}
  m_Name: Turtle
  m_EditorClassIdentifier: 
  ShowInfo: 1
  Name:
    FieldName: BabyTutleTitle
    TextTable: {fileID: 0}
    TextColor: {r: 0, g: 0.654902, b: 0.60784316, a: 1}
  Description:
    FieldName: BabyTutleDescription
    TextTable: {fileID: 0}
    TextColor: {r: 1, g: 1, b: 1, a: 1}
  collectableSprite: {fileID: 1818064988, guid: e3ec7a8e2c41310428043b3295523160,
    type: 3}
  amount: 0
  showInfoFirstCollection: 1
  collectableTutoDataPopUp:
    Title:
      FieldName: BabyTutleTitle
      TextTable: {fileID: 0}
      TextColor: {r: 0, g: 0.654902, b: 0.60784316, a: 1}
    Description:
      FieldName: BabyTutleDescription
      TextTable: {fileID: 0}
      TextColor: {r: 1, g: 1, b: 1, a: 1}
    UseSpriteAsset: 0
    spriteAsset: {fileID: 0}
    Icon: {fileID: 1818064988, guid: e3ec7a8e2c41310428043b3295523160, type: 3}
    UseButtonInstruction: 0
    buttonInstructionData: {fileID: 0}
  collectableTutorialData: {fileID: 11400000, guid: 5c28076edc64f16478148a0e30c0b91f,
    type: 2}
  firstCollection: 1
  LastCheckAmount: 0
