%YAML 1.1
%TAG !u! tag:unity3d.com,2011:
--- !u!1 &7006914391984204163
GameObject:
  m_ObjectHideFlags: 0
  m_CorrespondingSourceObject: {fileID: 0}
  m_PrefabInstance: {fileID: 0}
  m_PrefabAsset: {fileID: 0}
  serializedVersion: 6
  m_Component:
  - component: {fileID: 6921015407222476126}
  - component: {fileID: 278458993768989934}
  m_Layer: 0
  m_Name: SpawnCoffeLionFish
  m_TagString: Untagged
  m_Icon: {fileID: 0}
  m_NavMeshLayer: 0
  m_StaticEditorFlags: 0
  m_IsActive: 1
--- !u!4 &6921015407222476126
Transform:
  m_ObjectHideFlags: 0
  m_CorrespondingSourceObject: {fileID: 0}
  m_PrefabInstance: {fileID: 0}
  m_PrefabAsset: {fileID: 0}
  m_GameObject: {fileID: 7006914391984204163}
  m_LocalRotation: {x: 0, y: 0, z: 0, w: 1}
  m_LocalPosition: {x: 0, y: 0, z: 0}
  m_LocalScale: {x: 1, y: 1, z: 1}
  m_ConstrainProportionsScale: 0
  m_Children:
  - {fileID: 7661323503922833251}
  m_Father: {fileID: 0}
  m_RootOrder: 0
  m_LocalEulerAnglesHint: {x: 0, y: 0, z: 0}
--- !u!114 &278458993768989934
MonoBehaviour:
  m_ObjectHideFlags: 0
  m_CorrespondingSourceObject: {fileID: 0}
  m_PrefabInstance: {fileID: 0}
  m_PrefabAsset: {fileID: 0}
  m_GameObject: {fileID: 7006914391984204163}
  m_Enabled: 1
  m_EditorHideFlags: 0
  m_Script: {fileID: 11500000, guid: cd20488b937eb4944bd249a545e61e39, type: 3}
  m_Name: 
  m_EditorClassIdentifier: 
  Data: {fileID: 11400000, guid: 8e421e6655b74404799063e784c8b39f, type: 2}
  useFeels: 0
  <TargetFeelsContainer>k__BackingField: {fileID: 0}
  loadFeels: {fileID: 0}
  useAbilityDuration: 0
  castFeels: {fileID: 0}
  isLocked: 0
  autoCastOnUnlocked: 0
  CurrentBehaviour: {fileID: 0}
  updateDirectionOnCast: 0
  useSaveJSON: 0
  baseCastEffect: {fileID: 1676835565863135306}
  waitForEndBehaviour: 0
  amountOfAbilitiesToThrow: 1
  castArea: {x: 72, y: 52, z: 55}
  showGuide: 1
--- !u!1001 &492384497698351885
PrefabInstance:
  m_ObjectHideFlags: 0
  serializedVersion: 2
  m_Modification:
    m_TransformParent: {fileID: 6921015407222476126}
    m_Modifications:
    - target: {fileID: 1878872699, guid: 9c76ae55d7d485b4385fbb5a84148a60, type: 3}
      propertyPath: m_LocalPosition.y
      value: 0.41
      objectReference: {fileID: 0}
    - target: {fileID: 1878872700, guid: 9c76ae55d7d485b4385fbb5a84148a60, type: 3}
      propertyPath: customInstanceID
      value: -1188550
      objectReference: {fileID: 0}
    - target: {fileID: 1878872700, guid: 9c76ae55d7d485b4385fbb5a84148a60, type: 3}
      propertyPath: particleMaterial
      value: 
      objectReference: {fileID: 0}
    - target: {fileID: 1878872700, guid: 9c76ae55d7d485b4385fbb5a84148a60, type: 3}
      propertyPath: startLifetime.value1
      value: 0.52
      objectReference: {fileID: 0}
    - target: {fileID: 1878872700, guid: 9c76ae55d7d485b4385fbb5a84148a60, type: 3}
      propertyPath: startLifetime.value2
      value: 0.6
      objectReference: {fileID: 0}
    - target: {fileID: 1878872700, guid: 9c76ae55d7d485b4385fbb5a84148a60, type: 3}
      propertyPath: particleData.metaBuffer_1
      value: 
      objectReference: {fileID: 0}
    - target: {fileID: 1878872700, guid: 9c76ae55d7d485b4385fbb5a84148a60, type: 3}
      propertyPath: particleData.metaBuffer_2
      value: 
      objectReference: {fileID: 0}
    - target: {fileID: 1878872700, guid: 9c76ae55d7d485b4385fbb5a84148a60, type: 3}
      propertyPath: particleData.randomBuffer
      value: 
      objectReference: {fileID: 0}
    - target: {fileID: 1878872700, guid: 9c76ae55d7d485b4385fbb5a84148a60, type: 3}
      propertyPath: particleData.positionBuffer_1
      value: 
      objectReference: {fileID: 0}
    - target: {fileID: 1878872700, guid: 9c76ae55d7d485b4385fbb5a84148a60, type: 3}
      propertyPath: particleData.positionBuffer_2
      value: 
      objectReference: {fileID: 0}
    - target: {fileID: 1878872700, guid: 9c76ae55d7d485b4385fbb5a84148a60, type: 3}
      propertyPath: particleData.velocityBuffer_1
      value: 
      objectReference: {fileID: 0}
    - target: {fileID: 1878872700, guid: 9c76ae55d7d485b4385fbb5a84148a60, type: 3}
      propertyPath: particleData.velocityBuffer_2
      value: 
      objectReference: {fileID: 0}
    - target: {fileID: 1878872700, guid: 9c76ae55d7d485b4385fbb5a84148a60, type: 3}
      propertyPath: particleData.newParticleBuffer
      value: 
      objectReference: {fileID: 0}
    - target: {fileID: 1878872700, guid: 9c76ae55d7d485b4385fbb5a84148a60, type: 3}
      propertyPath: sizeOverLifetime.bezier1.Array.data[0].w
      value: 0.0056855506
      objectReference: {fileID: 0}
    - target: {fileID: 1878872700, guid: 9c76ae55d7d485b4385fbb5a84148a60, type: 3}
      propertyPath: sizeOverLifetime.bezier1.Array.data[0].y
      value: 0.0056855506
      objectReference: {fileID: 0}
    - target: {fileID: 1878872700, guid: 9c76ae55d7d485b4385fbb5a84148a60, type: 3}
      propertyPath: sizeOverLifetime.bezier1.Array.data[0].z
      value: 0.13456406
      objectReference: {fileID: 0}
    - target: {fileID: 1878872700, guid: 9c76ae55d7d485b4385fbb5a84148a60, type: 3}
      propertyPath: sizeOverLifetime.bezier1.Array.data[1].w
      value: 3.3047438
      objectReference: {fileID: 0}
    - target: {fileID: 1878872700, guid: 9c76ae55d7d485b4385fbb5a84148a60, type: 3}
      propertyPath: sizeOverLifetime.bezier1.Array.data[1].x
      value: 0.4036926
      objectReference: {fileID: 0}
    - target: {fileID: 1878872700, guid: 9c76ae55d7d485b4385fbb5a84148a60, type: 3}
      propertyPath: sizeOverLifetime.bezier1.Array.data[1].y
      value: 3.491496
      objectReference: {fileID: 0}
    - target: {fileID: 1878872700, guid: 9c76ae55d7d485b4385fbb5a84148a60, type: 3}
      propertyPath: sizeOverLifetime.bezier1.Array.data[1].z
      value: 0.26912856
      objectReference: {fileID: 0}
    - target: {fileID: 1878872700, guid: 9c76ae55d7d485b4385fbb5a84148a60, type: 3}
      propertyPath: sizeOverLifetime.bezier1.Array.data[2].w
      value: 3.7673542
      objectReference: {fileID: 0}
    - target: {fileID: 1878872700, guid: 9c76ae55d7d485b4385fbb5a84148a60, type: 3}
      propertyPath: sizeOverLifetime.bezier1.Array.data[2].x
      value: 0.4036926
      objectReference: {fileID: 0}
    - target: {fileID: 1878872700, guid: 9c76ae55d7d485b4385fbb5a84148a60, type: 3}
      propertyPath: sizeOverLifetime.bezier1.Array.data[2].y
      value: 3.491496
      objectReference: {fileID: 0}
    - target: {fileID: 1878872700, guid: 9c76ae55d7d485b4385fbb5a84148a60, type: 3}
      propertyPath: sizeOverLifetime.bezier1.Array.data[2].z
      value: 0.6024615
      objectReference: {fileID: 0}
    - target: {fileID: 1878872700, guid: 9c76ae55d7d485b4385fbb5a84148a60, type: 3}
      propertyPath: sizeOverLifetime.bezier1.Array.data[3].z
      value: 0.8012311
      objectReference: {fileID: 0}
    - target: {fileID: 1878872700, guid: 9c76ae55d7d485b4385fbb5a84148a60, type: 3}
      propertyPath: sizeOverLifetime.curve1.m_Curve.Array.data[1].time
      value: 0.4036926
      objectReference: {fileID: 0}
    - target: {fileID: 1878872700, guid: 9c76ae55d7d485b4385fbb5a84148a60, type: 3}
      propertyPath: sizeOverLifetime.curve1.m_Curve.Array.data[0].value
      value: 0.0056855506
      objectReference: {fileID: 0}
    - target: {fileID: 1878872700, guid: 9c76ae55d7d485b4385fbb5a84148a60, type: 3}
      propertyPath: sizeOverLifetime.curve1.m_Curve.Array.data[1].value
      value: 3.491496
      objectReference: {fileID: 0}
    - target: {fileID: 1878872700, guid: 9c76ae55d7d485b4385fbb5a84148a60, type: 3}
      propertyPath: sizeOverLifetime.curve1.m_Curve.Array.data[1].inSlope
      value: 1.3878329
      objectReference: {fileID: 0}
    - target: {fileID: 1878872700, guid: 9c76ae55d7d485b4385fbb5a84148a60, type: 3}
      propertyPath: sizeOverLifetime.curve1.m_Curve.Array.data[1].outSlope
      value: 1.3878329
      objectReference: {fileID: 0}
    - target: {fileID: 4211378582032341078, guid: 9c76ae55d7d485b4385fbb5a84148a60,
        type: 3}
      propertyPath: m_Name
      value: LoadSpawmEnemyVFX
      objectReference: {fileID: 0}
    - target: {fileID: 6063722534140897631, guid: 9c76ae55d7d485b4385fbb5a84148a60,
        type: 3}
      propertyPath: startSize.seed
      value: 0.88732433
      objectReference: {fileID: 0}
    - target: {fileID: 6063722534140897631, guid: 9c76ae55d7d485b4385fbb5a84148a60,
        type: 3}
      propertyPath: startSpeed.seed
      value: 0.17200792
      objectReference: {fileID: 0}
    - target: {fileID: 6063722534140897631, guid: 9c76ae55d7d485b4385fbb5a84148a60,
        type: 3}
      propertyPath: customInstanceID
      value: -1188556
      objectReference: {fileID: 0}
    - target: {fileID: 6063722534140897631, guid: 9c76ae55d7d485b4385fbb5a84148a60,
        type: 3}
      propertyPath: emissionRate.seed
      value: 0.00645566
      objectReference: {fileID: 0}
    - target: {fileID: 6063722534140897631, guid: 9c76ae55d7d485b4385fbb5a84148a60,
        type: 3}
      propertyPath: startLifetime.seed
      value: 0.64632654
      objectReference: {fileID: 0}
    - target: {fileID: 6063722534140897631, guid: 9c76ae55d7d485b4385fbb5a84148a60,
        type: 3}
      propertyPath: startRotation.seed
      value: 0.22675979
      objectReference: {fileID: 0}
    - target: {fileID: 6063722534140897631, guid: 9c76ae55d7d485b4385fbb5a84148a60,
        type: 3}
      propertyPath: sizeOverLifetime.seed
      value: 0.2927938
      objectReference: {fileID: 0}
    - target: {fileID: 6063722534140897631, guid: 9c76ae55d7d485b4385fbb5a84148a60,
        type: 3}
      propertyPath: colorOverLifetime.seed
      value: 0.64529157
      objectReference: {fileID: 0}
    - target: {fileID: 6063722534140897631, guid: 9c76ae55d7d485b4385fbb5a84148a60,
        type: 3}
      propertyPath: rotationOverLifetime.seed
      value: 0.28349572
      objectReference: {fileID: 0}
    - target: {fileID: 7820272282924993646, guid: 9c76ae55d7d485b4385fbb5a84148a60,
        type: 3}
      propertyPath: m_RootOrder
      value: 0
      objectReference: {fileID: 0}
    - target: {fileID: 7820272282924993646, guid: 9c76ae55d7d485b4385fbb5a84148a60,
        type: 3}
      propertyPath: m_LocalPosition.x
      value: 0
      objectReference: {fileID: 0}
    - target: {fileID: 7820272282924993646, guid: 9c76ae55d7d485b4385fbb5a84148a60,
        type: 3}
      propertyPath: m_LocalPosition.y
      value: 0
      objectReference: {fileID: 0}
    - target: {fileID: 7820272282924993646, guid: 9c76ae55d7d485b4385fbb5a84148a60,
        type: 3}
      propertyPath: m_LocalPosition.z
      value: 0
      objectReference: {fileID: 0}
    - target: {fileID: 7820272282924993646, guid: 9c76ae55d7d485b4385fbb5a84148a60,
        type: 3}
      propertyPath: m_LocalRotation.w
      value: 1
      objectReference: {fileID: 0}
    - target: {fileID: 7820272282924993646, guid: 9c76ae55d7d485b4385fbb5a84148a60,
        type: 3}
      propertyPath: m_LocalRotation.x
      value: -0
      objectReference: {fileID: 0}
    - target: {fileID: 7820272282924993646, guid: 9c76ae55d7d485b4385fbb5a84148a60,
        type: 3}
      propertyPath: m_LocalRotation.y
      value: -0
      objectReference: {fileID: 0}
    - target: {fileID: 7820272282924993646, guid: 9c76ae55d7d485b4385fbb5a84148a60,
        type: 3}
      propertyPath: m_LocalRotation.z
      value: -0
      objectReference: {fileID: 0}
    - target: {fileID: 7820272282924993646, guid: 9c76ae55d7d485b4385fbb5a84148a60,
        type: 3}
      propertyPath: m_LocalEulerAnglesHint.x
      value: 0
      objectReference: {fileID: 0}
    - target: {fileID: 7820272282924993646, guid: 9c76ae55d7d485b4385fbb5a84148a60,
        type: 3}
      propertyPath: m_LocalEulerAnglesHint.y
      value: 0
      objectReference: {fileID: 0}
    - target: {fileID: 7820272282924993646, guid: 9c76ae55d7d485b4385fbb5a84148a60,
        type: 3}
      propertyPath: m_LocalEulerAnglesHint.z
      value: 0
      objectReference: {fileID: 0}
    - target: {fileID: 8045348196915560674, guid: 9c76ae55d7d485b4385fbb5a84148a60,
        type: 3}
      propertyPath: m_RootOrder
      value: 1
      objectReference: {fileID: 0}
    m_RemovedComponents: []
  m_SourcePrefab: {fileID: 100100000, guid: 9c76ae55d7d485b4385fbb5a84148a60, type: 3}
--- !u!114 &1676835565863135306 stripped
MonoBehaviour:
  m_CorrespondingSourceObject: {fileID: 1265542314302587719, guid: 9c76ae55d7d485b4385fbb5a84148a60,
    type: 3}
  m_PrefabInstance: {fileID: 492384497698351885}
  m_PrefabAsset: {fileID: 0}
  m_GameObject: {fileID: 0}
  m_Enabled: 1
  m_EditorHideFlags: 0
  m_Script: {fileID: 11500000, guid: 5076436d8f9f7b04786df92b17678676, type: 3}
  m_Name: 
  m_EditorClassIdentifier: 
--- !u!4 &7661323503922833251 stripped
Transform:
  m_CorrespondingSourceObject: {fileID: 7820272282924993646, guid: 9c76ae55d7d485b4385fbb5a84148a60,
    type: 3}
  m_PrefabInstance: {fileID: 492384497698351885}
  m_PrefabAsset: {fileID: 0}
