%YAML 1.1
%TAG !u! tag:unity3d.com,2011:
--- !u!1 &3739118307859338323
GameObject:
  m_ObjectHideFlags: 0
  m_CorrespondingSourceObject: {fileID: 0}
  m_PrefabInstance: {fileID: 0}
  m_PrefabAsset: {fileID: 0}
  serializedVersion: 6
  m_Component:
  - component: {fileID: 2184640557892789945}
  - component: {fileID: 2927774310906746420}
  m_Layer: 0
  m_Name: RedElectricLungeAbilityBehaviour
  m_TagString: Untagged
  m_Icon: {fileID: 0}
  m_NavMeshLayer: 0
  m_StaticEditorFlags: 0
  m_IsActive: 0
--- !u!4 &2184640557892789945
Transform:
  m_ObjectHideFlags: 0
  m_CorrespondingSourceObject: {fileID: 0}
  m_PrefabInstance: {fileID: 0}
  m_PrefabAsset: {fileID: 0}
  m_GameObject: {fileID: 3739118307859338323}
  m_LocalRotation: {x: 0, y: 0, z: 0, w: 1}
  m_LocalPosition: {x: 0, y: 0, z: 0}
  m_LocalScale: {x: 1, y: 1, z: 1}
  m_ConstrainProportionsScale: 0
  m_Children: []
  m_Father: {fileID: 0}
  m_RootOrder: 0
  m_LocalEulerAnglesHint: {x: 0, y: 0, z: 0}
--- !u!114 &2927774310906746420
MonoBehaviour:
  m_ObjectHideFlags: 0
  m_CorrespondingSourceObject: {fileID: 0}
  m_PrefabInstance: {fileID: 0}
  m_PrefabAsset: {fileID: 0}
  m_GameObject: {fileID: 3739118307859338323}
  m_Enabled: 1
  m_EditorHideFlags: 0
  m_Script: {fileID: 11500000, guid: abc3a5b668cc5e649b239173828eba13, type: 3}
  m_Name: 
  m_EditorClassIdentifier: 
  damageSameLayer: 0
  <CanBeDisrupt>k__BackingField: 0
  <AllowCastOtherAbilities>k__BackingField: 1
  <LayerData>k__BackingField: {fileID: 11400000, guid: d90667e38f692854f871a6ece5614e19,
    type: 2}
  stopThrowingOnApplyDamage: 1
  stopThrowingOnApplyEffect: 1
  UseCollisionHelper: 1
  CollisionHelper: {fileID: 0}
  vfx: {fileID: 0}
  knockBackDuration: 1
  dashCrashVfx: {fileID: 278726635574630032, guid: ce497cf653fa3e244a702b134d2ed7fa,
    type: 3}
  useVFXOnTrigger: 0
  throwVfx: {fileID: 0}
  dashCrashSFX: {fileID: 0}
