%YAML 1.1
%TAG !u! tag:unity3d.com,2011:
--- !u!114 &-9012563459210308655
MonoBehaviour:
  m_ObjectHideFlags: 11
  m_CorrespondingSourceObject: {fileID: 0}
  m_PrefabInstance: {fileID: 0}
  m_PrefabAsset: {fileID: 0}
  m_GameObject: {fileID: 0}
  m_Enabled: 1
  m_EditorHideFlags: 0
  m_Script: {fileID: 11500000, guid: d0353a89b1f911e48b9e16bdc9f2e058, type: 3}
  m_Name: 
  m_EditorClassIdentifier: 
  version: 5
--- !u!21 &2100000
Material:
  serializedVersion: 8
  m_ObjectHideFlags: 0
  m_CorrespondingSourceObject: {fileID: 0}
  m_PrefabInstance: {fileID: 0}
  m_PrefabAsset: {fileID: 0}
  m_Name: WrongHighligthTotem
  m_Shader: {fileID: -6465566751694194690, guid: 4b320f9b73b266142bb3803a14b8454b,
    type: 3}
  m_ValidKeywords: []
  m_InvalidKeywords: []
  m_LightmapFlags: 4
  m_EnableInstancingVariants: 0
  m_DoubleSidedGI: 1
  m_CustomRenderQueue: -1
  stringTagMap: {}
  disabledShaderPasses: []
  m_SavedProperties:
    serializedVersion: 3
    m_TexEnvs:
    - _BaseMap:
        m_Texture: {fileID: 0}
        m_Scale: {x: 1, y: 1}
        m_Offset: {x: 0, y: 0}
    - _BumpMap:
        m_Texture: {fileID: 0}
        m_Scale: {x: 1, y: 1}
        m_Offset: {x: 0, y: 0}
    - _DetailAlbedoMap:
        m_Texture: {fileID: 0}
        m_Scale: {x: 1, y: 1}
        m_Offset: {x: 0, y: 0}
    - _DetailMask:
        m_Texture: {fileID: 0}
        m_Scale: {x: 1, y: 1}
        m_Offset: {x: 0, y: 0}
    - _DetailNormalMap:
        m_Texture: {fileID: 0}
        m_Scale: {x: 1, y: 1}
        m_Offset: {x: 0, y: 0}
    - _EmissionMap:
        m_Texture: {fileID: 0}
        m_Scale: {x: 1, y: 1}
        m_Offset: {x: 0, y: 0}
    - _MainTex:
        m_Texture: {fileID: 0}
        m_Scale: {x: 1, y: 1}
        m_Offset: {x: 0, y: 0}
    - _MetallicGlossMap:
        m_Texture: {fileID: 0}
        m_Scale: {x: 1, y: 1}
        m_Offset: {x: 0, y: 0}
    - _OcclusionMap:
        m_Texture: {fileID: 0}
        m_Scale: {x: 1, y: 1}
        m_Offset: {x: 0, y: 0}
    - _ParallaxMap:
        m_Texture: {fileID: 0}
        m_Scale: {x: 1, y: 1}
        m_Offset: {x: 0, y: 0}
    - _SpecGlossMap:
        m_Texture: {fileID: 0}
        m_Scale: {x: 1, y: 1}
        m_Offset: {x: 0, y: 0}
    - _Tex:
        m_Texture: {fileID: 2800000, guid: d37f3992eab97a241a70bcf1e48c3755, type: 3}
        m_Scale: {x: 1, y: 1}
        m_Offset: {x: 0, y: 0}
    - unity_Lightmaps:
        m_Texture: {fileID: 0}
        m_Scale: {x: 1, y: 1}
        m_Offset: {x: 0, y: 0}
    - unity_LightmapsInd:
        m_Texture: {fileID: 0}
        m_Scale: {x: 1, y: 1}
        m_Offset: {x: 0, y: 0}
    - unity_ShadowMasks:
        m_Texture: {fileID: 0}
        m_Scale: {x: 1, y: 1}
        m_Offset: {x: 0, y: 0}
    m_Ints: []
    m_Floats:
    - _Alpha: 0.045
    - _AlphaClip: 0
    - _AlphaColor: 1.4
    - _AlphaP: 0.754
    - _Blend: 2
    - _BumpScale: 1
    - _ClearCoatMask: 0
    - _ClearCoatSmoothness: 0
    - _Cull: 0
    - _Cutoff: 0.5
    - _DetailAlbedoMapScale: 1
    - _DetailNormalMapScale: 1
    - _DstBlend: 1
    - _EnvironmentReflections: 1
    - _FresnelPowerP: 0.76
    - _GlossMapScale: 0
    - _Glossiness: 0
    - _GlossyReflections: 0
    - _GlowP: 50
    - _HigthligthPower: 1.15
    - _HigthligthSmoothness: 2.35
    - _Metallic: 0
    - _NoiseDeformationFrecuency: 0.041
    - _NoiseDeformationSize: 0
    - _NoiseDeformationSpeed: 1
    - _NoiseScale: 110
    - _OcclusionStrength: 1
    - _Offset: 60
    - _Parallax: 0.005
    - _QueueControl: 1
    - _QueueOffset: 0
    - _Rango: 0.01
    - _ReceiveShadows: 1
    - _Smoothness: 0.324
    - _SmoothnessTextureChannel: 0
    - _SpecularHighlights: 1
    - _SrcBlend: 5
    - _Surface: 1
    - _VelocidadParticulas: 0.1
    - _WorkflowMode: 1
    - _ZWrite: 0
    m_Colors:
    - _BaseColor: {r: 0, g: 1, b: 0.8683648, a: 0.25490198}
    - _CentroP: {r: 0, g: 0, b: 0, a: 0}
    - _Color: {r: 0.22745098, g: 0.051247936, b: 0.03921568, a: 1}
    - _Color2: {r: 0, g: 0.65939844, b: 0.85098046, a: 1}
    - _Color2P: {r: 1024, g: 1024, b: 1024, a: 0.08627451}
    - _ColorP: {r: 0.7578911, g: 0.24921645, b: 0, a: 1}
    - _EmissionColor: {r: 0, g: 0, b: 0, a: 1}
    - _HigthlighColor: {r: 6.0628657, g: 0, b: 0.058756676, a: 0}
    - _LinesSpeed: {r: -0.8, g: -0.8, b: 0, a: 0}
    - _NoiseSpeed: {r: 0, g: 0.1, b: 0, a: 0}
    - _SpecColor: {r: 0.19999996, g: 0.19999996, b: 0.19999996, a: 1}
    - _TilingLines: {r: 30, g: 4, b: 0, a: 0}
  m_BuildTextureStacks: []
