%YAML 1.1
%TAG !u! tag:unity3d.com,2011:
--- !u!114 &-7097907326632485965
MonoBehaviour:
  m_ObjectHideFlags: 11
  m_CorrespondingSourceObject: {fileID: 0}
  m_PrefabInstance: {fileID: 0}
  m_PrefabAsset: {fileID: 0}
  m_GameObject: {fileID: 0}
  m_Enabled: 1
  m_EditorHideFlags: 0
  m_Script: {fileID: 11500000, guid: d0353a89b1f911e48b9e16bdc9f2e058, type: 3}
  m_Name: 
  m_EditorClassIdentifier: 
  version: 5
--- !u!21 &2100000
Material:
  serializedVersion: 8
  m_ObjectHideFlags: 0
  m_CorrespondingSourceObject: {fileID: 0}
  m_PrefabInstance: {fileID: 0}
  m_PrefabAsset: {fileID: 0}
  m_Name: LionFishPurpleMat
  m_Shader: {fileID: -6465566751694194690, guid: f615da5996d9a41a4b7a87c284733a78,
    type: 3}
  m_ValidKeywords: []
  m_InvalidKeywords: []
  m_LightmapFlags: 4
  m_EnableInstancingVariants: 1
  m_DoubleSidedGI: 0
  m_CustomRenderQueue: 2000
  stringTagMap:
    RenderType: Opaque
  disabledShaderPasses: []
  m_SavedProperties:
    serializedVersion: 3
    m_TexEnvs:
    - Texture2D_Texture:
        m_Texture: {fileID: 2800000, guid: 0c477fc741fd5044f83bb231c8243590, type: 3}
        m_Scale: {x: 1, y: 1}
        m_Offset: {x: 0, y: 0}
    - _BaseMap:
        m_Texture: {fileID: 2800000, guid: 0c477fc741fd5044f83bb231c8243590, type: 3}
        m_Scale: {x: 1, y: 1}
        m_Offset: {x: 0, y: 0}
    - _BrushTexture:
        m_Texture: {fileID: 2800000, guid: c61e12b00f19ecd448a748ee4f011b63, type: 3}
        m_Scale: {x: 1, y: 1}
        m_Offset: {x: 0, y: 0}
    - _BumpMap:
        m_Texture: {fileID: 2800000, guid: 0c6c8db40a4f8d942ac28e845cef9111, type: 3}
        m_Scale: {x: 1, y: 1}
        m_Offset: {x: 0, y: 0}
    - _DetailAlbedoMap:
        m_Texture: {fileID: 0}
        m_Scale: {x: 1, y: 1}
        m_Offset: {x: 0, y: 0}
    - _DetailMask:
        m_Texture: {fileID: 0}
        m_Scale: {x: 1, y: 1}
        m_Offset: {x: 0, y: 0}
    - _DetailNormalMap:
        m_Texture: {fileID: 0}
        m_Scale: {x: 1, y: 1}
        m_Offset: {x: 0, y: 0}
    - _EmisionTex:
        m_Texture: {fileID: 0}
        m_Scale: {x: 1, y: 1}
        m_Offset: {x: 0, y: 0}
    - _EmissionMap:
        m_Texture: {fileID: 0}
        m_Scale: {x: 1, y: 1}
        m_Offset: {x: 0, y: 0}
    - _MainTex:
        m_Texture: {fileID: 2800000, guid: 0c477fc741fd5044f83bb231c8243590, type: 3}
        m_Scale: {x: 1, y: 1}
        m_Offset: {x: 0, y: 0}
    - _MetallicGlossMap:
        m_Texture: {fileID: 0}
        m_Scale: {x: 1, y: 1}
        m_Offset: {x: 0, y: 0}
    - _MetallicRoughnessTex:
        m_Texture: {fileID: 0}
        m_Scale: {x: 1, y: 1}
        m_Offset: {x: 0, y: 0}
    - _OcclusionMap:
        m_Texture: {fileID: 2800000, guid: 606359899368263408a24d9e691e8c51, type: 3}
        m_Scale: {x: 1, y: 1}
        m_Offset: {x: 0, y: 0}
    - _ParallaxMap:
        m_Texture: {fileID: 2800000, guid: bbfe204ef795115448f207a5fa400dbb, type: 3}
        m_Scale: {x: 1, y: 1}
        m_Offset: {x: 0, y: 0}
    - _SpecGlossMap:
        m_Texture: {fileID: 0}
        m_Scale: {x: 1, y: 1}
        m_Offset: {x: 0, y: 0}
    - _TexAO:
        m_Texture: {fileID: 2800000, guid: 606359899368263408a24d9e691e8c51, type: 3}
        m_Scale: {x: 1, y: 1}
        m_Offset: {x: 0, y: 0}
    - _TexAlpha:
        m_Texture: {fileID: 0}
        m_Scale: {x: 1, y: 1}
        m_Offset: {x: 0, y: 0}
    - _TexMask:
        m_Texture: {fileID: 0}
        m_Scale: {x: 1, y: 1}
        m_Offset: {x: 0, y: 0}
    - _TexMetallic:
        m_Texture: {fileID: 0}
        m_Scale: {x: 1, y: 1}
        m_Offset: {x: 0, y: 0}
    - _TexNormal:
        m_Texture: {fileID: 2800000, guid: 0c6c8db40a4f8d942ac28e845cef9111, type: 3}
        m_Scale: {x: 1, y: 1}
        m_Offset: {x: 0, y: 0}
    - _TexSmoothness:
        m_Texture: {fileID: 0}
        m_Scale: {x: 1, y: 1}
        m_Offset: {x: 0, y: 0}
    - unity_Lightmaps:
        m_Texture: {fileID: 0}
        m_Scale: {x: 1, y: 1}
        m_Offset: {x: 0, y: 0}
    - unity_LightmapsInd:
        m_Texture: {fileID: 0}
        m_Scale: {x: 1, y: 1}
        m_Offset: {x: 0, y: 0}
    - unity_ShadowMasks:
        m_Texture: {fileID: 0}
        m_Scale: {x: 1, y: 1}
        m_Offset: {x: 0, y: 0}
    m_Ints: []
    m_Floats:
    - Vector1_AmplitudFactor: 1
    - Vector1_AmplitudeDeformationZ: 0
    - Vector1_AmplitudeMovementX: 0
    - Vector1_AmplitudeMovementY: 0
    - Vector1_AmplitudeWaveX: 0.155
    - Vector1_AmplitudeWaveY: 0.045
    - Vector1_AmplitudeWaveZ: 0
    - Vector1_FrequencyDeformationZ: 0
    - Vector1_FrequencyWaveX: 2.17
    - Vector1_FrequencyWaveY: 0.28
    - Vector1_FrequencyWaveZ: 0
    - Vector1_SpeedDeformationZ: 0
    - Vector1_SpeedFactor: 2
    - Vector1_SpeedMovementX: 0
    - Vector1_SpeedMovementY: 0
    - Vector1_SpeedWaveX: 2.02
    - Vector1_SpeedWaveY: 0.18
    - Vector1_SpeedWaveZ: 0
    - _AOStrength: 3.04
    - _Alpha: 1
    - _AlphaClip: 0
    - _AnchoLinea: 1.72
    - _Blend: 0
    - _BrushOpacity: 0.75
    - _BrushStrength: 7.5
    - _BumpScale: 0.5
    - _CastShadows: 1
    - _ClearCoatMask: 0
    - _ClearCoatSmoothness: 0
    - _ColorStrength: 0
    - _Cull: 2
    - _Cutoff: 0.5
    - _DepthFactor: 7
    - _DepthOffset: 0.15
    - _DetailAlbedoMapScale: 1
    - _DetailNormalMapScale: 1
    - _DstBlend: 0
    - _EnvironmentReflections: 1
    - _FadeOutlineDetect: 0.5
    - _Float: 0
    - _FrecuencyFactor: 0.249
    - _GlossMapScale: 1
    - _Glossiness: 0.5
    - _GlossyReflections: 1
    - _HighligthPower: 0
    - _HightlighSmoothness: 1
    - _Metallic: 0
    - _MetallicValue: 0
    - _Mode: 0
    - _NoiseScale: 500
    - _NoiseStregth: 0.25
    - _NormalStrength: 0.48
    - _OcclusionStrength: 0.018
    - _OnlyColor: 0
    - _OutlineSize: 0
    - _Parallax: 0.005
    - _PoderLinea: 0.15
    - _PruebaInclinacion: 0
    - _QueueControl: 0
    - _QueueOffset: 0
    - _ReceiveShadows: 1
    - _RotationTexture: 0
    - _ShowDepth: 0
    - _SizeLine: 0
    - _Smoothness: 0
    - _SmoothnessTextureChannel: 0
    - _SmoothnessValue: 0.25
    - _SpecularHighlights: 1
    - _SrcBlend: 1
    - _Surface: 0
    - _UVSec: 0
    - _UseMetallicTex: 0
    - _UseSmoothnessTex: 0
    - _ValorRotacion: 0
    - _VelocidadLinea: 0
    - _VerPivotX: 0
    - _WorkflowMode: 1
    - _ZTest: 4
    - _ZWrite: 1
    - _ZWriteControl: 0
    - _prueba2: 1
    m_Colors:
    - _BaseColor: {r: 1, g: 1, b: 1, a: 1}
    - _BrushColor: {r: 0.3568628, g: 0.3333333, b: 0.3176471, a: 0.2627451}
    - _Color: {r: 1, g: 1, b: 1, a: 1}
    - _ColorEmission: {r: 0, g: 0, b: 0, a: 0}
    - _ColorLine: {r: 0, g: 0, b: 0, a: 0}
    - _ColorLinea: {r: 4.4686623, g: 0.29971588, b: 0, a: 0}
    - _ColorLinea_1: {r: 0, g: 0, b: 0, a: 0}
    - _EmissionColor: {r: 0.8078432, g: 0, b: 1, a: 1}
    - _HightligthColor: {r: 0, g: 0, b: 0, a: 1}
    - _OutlineColor: {r: 0, g: 0, b: 0, a: 0}
    - _Pivot: {r: 0, g: -0.78, b: 2.96, a: 0}
    - _PivotDirection: {r: 1, g: 0, b: 0, a: 0}
    - _PivotIntensity: {r: 1, g: 1, b: 0.6, a: 0}
    - _PivotSize: {r: 3, g: 4, b: 7.34, a: 0}
    - _RangoLinea: {r: -15, g: 11.59, b: 0, a: 0}
    - _SpecColor: {r: 0.19999996, g: 0.19999996, b: 0.19999996, a: 1}
    - _Tilling_Texture: {r: 11, g: 15, b: 0, a: 0}
  m_BuildTextureStacks: []
