%YAML 1.1
%TAG !u! tag:unity3d.com,2011:
--- !u!114 &11400000
MonoBehaviour:
  m_ObjectHideFlags: 0
  m_CorrespondingSourceObject: {fileID: 0}
  m_PrefabInstance: {fileID: 0}
  m_PrefabAsset: {fileID: 0}
  m_GameObject: {fileID: 0}
  m_Enabled: 1
  m_EditorHideFlags: 0
  m_Script: {fileID: 11500000, guid: ceb924a9b285cf14b9874c95ab340811, type: 3}
  m_Name: BoatDynamite
  m_EditorClassIdentifier: 
  <Distance>k__BackingField: 0
  <Speed>k__BackingField: 1.2
  <Cooldown>k__BackingField: 0
  <Damage>k__BackingField: 1
  <Duration>k__BackingField: 0
  <EnergyCost>k__BackingField: 0
  <DamageType>k__BackingField: 0
  <BehaviourPrefab>k__BackingField: {fileID: 8556740807618147987, guid: 358f32a253f4c404388432375c13ac26,
    type: 3}
  <ChangeColorOnCast>k__BackingField: 0
  CharacterColor: {r: 0, g: 0, b: 0, a: 0}
  IsCasting: 0
  IsCombined: 0
  IsLoaded: 0
  Direction: {x: 0, y: 0, z: 0}
  <HasInputAction>k__BackingField: 0
  InputReference:
    InputReferenceData:
      InputPriority: 0
      InputActionReference: {fileID: 0}
      InputActionInteractionData:
        InputActionReference: {fileID: 0}
    CombineInputetReferenceData: []
  HasLoadTime: 0
  loadTime: 0
  BaseAbilityComboCast: {fileID: 0}
  castPosition: {x: 0, y: 0, z: 0}
