%YAML 1.1
%TAG !u! tag:unity3d.com,2011:
--- !u!114 &-168729182045374558
MonoBehaviour:
  m_ObjectHideFlags: 11
  m_CorrespondingSourceObject: {fileID: 0}
  m_PrefabInstance: {fileID: 0}
  m_PrefabAsset: {fileID: 0}
  m_GameObject: {fileID: 0}
  m_Enabled: 1
  m_EditorHideFlags: 0
  m_Script: {fileID: 11500000, guid: d0353a89b1f911e48b9e16bdc9f2e058, type: 3}
  m_Name: 
  m_EditorClassIdentifier: 
  version: 5
--- !u!21 &2100000
Material:
  serializedVersion: 8
  m_ObjectHideFlags: 0
  m_CorrespondingSourceObject: {fileID: 0}
  m_PrefabInstance: {fileID: 0}
  m_PrefabAsset: {fileID: 0}
  m_Name: JellyFishSpectrumMaterial
  m_Shader: {fileID: -6465566751694194690, guid: f615da5996d9a41a4b7a87c284733a78,
    type: 3}
  m_ValidKeywords:
  - _SURFACE_TYPE_TRANSPARENT
  m_InvalidKeywords: []
  m_LightmapFlags: 4
  m_EnableInstancingVariants: 0
  m_DoubleSidedGI: 0
  m_CustomRenderQueue: 3000
  stringTagMap:
    RenderType: Transparent
  disabledShaderPasses:
  - DepthOnly
  m_SavedProperties:
    serializedVersion: 3
    m_TexEnvs:
    - Texture2D_Texture:
        m_Texture: {fileID: 0}
        m_Scale: {x: 1, y: 1}
        m_Offset: {x: 0, y: 0}
    - _BaseMap:
        m_Texture: {fileID: 0}
        m_Scale: {x: 1, y: 1}
        m_Offset: {x: 0, y: 0}
    - _BumpMap:
        m_Texture: {fileID: 0}
        m_Scale: {x: 1, y: 1}
        m_Offset: {x: 0, y: 0}
    - _DetailAlbedoMap:
        m_Texture: {fileID: 0}
        m_Scale: {x: 1, y: 1}
        m_Offset: {x: 0, y: 0}
    - _DetailMask:
        m_Texture: {fileID: 0}
        m_Scale: {x: 1, y: 1}
        m_Offset: {x: 0, y: 0}
    - _DetailNormalMap:
        m_Texture: {fileID: 0}
        m_Scale: {x: 1, y: 1}
        m_Offset: {x: 0, y: 0}
    - _EmisionTex:
        m_Texture: {fileID: 0}
        m_Scale: {x: 1, y: 1}
        m_Offset: {x: 0, y: 0}
    - _EmissionMap:
        m_Texture: {fileID: 0}
        m_Scale: {x: 1, y: 1}
        m_Offset: {x: 0, y: 0}
    - _MainTex:
        m_Texture: {fileID: 0}
        m_Scale: {x: 1, y: 1}
        m_Offset: {x: 0, y: 0}
    - _MetallicGlossMap:
        m_Texture: {fileID: 0}
        m_Scale: {x: 1, y: 1}
        m_Offset: {x: 0, y: 0}
    - _OcclusionMap:
        m_Texture: {fileID: 0}
        m_Scale: {x: 1, y: 1}
        m_Offset: {x: 0, y: 0}
    - _ParallaxMap:
        m_Texture: {fileID: 0}
        m_Scale: {x: 1, y: 1}
        m_Offset: {x: 0, y: 0}
    - _SpecGlossMap:
        m_Texture: {fileID: 0}
        m_Scale: {x: 1, y: 1}
        m_Offset: {x: 0, y: 0}
    - _Tex:
        m_Texture: {fileID: 0}
        m_Scale: {x: 1, y: 1}
        m_Offset: {x: 0, y: 0}
    - _TexAO:
        m_Texture: {fileID: 0}
        m_Scale: {x: 1, y: 1}
        m_Offset: {x: 0, y: 0}
    - _TexAlpha:
        m_Texture: {fileID: 0}
        m_Scale: {x: 1, y: 1}
        m_Offset: {x: 0, y: 0}
    - _TexMask:
        m_Texture: {fileID: 0}
        m_Scale: {x: 1, y: 1}
        m_Offset: {x: 0, y: 0}
    - _TexMetallic:
        m_Texture: {fileID: 2800000, guid: 73388913fc339bc408a1f5a08c3f445c, type: 3}
        m_Scale: {x: 1, y: 1}
        m_Offset: {x: 0, y: 0}
    - _TexNormal:
        m_Texture: {fileID: 0}
        m_Scale: {x: 1, y: 1}
        m_Offset: {x: 0, y: 0}
    - _TexSmoothness:
        m_Texture: {fileID: 0}
        m_Scale: {x: 1, y: 1}
        m_Offset: {x: 0, y: 0}
    - _TexSmothness:
        m_Texture: {fileID: 0}
        m_Scale: {x: 1, y: 1}
        m_Offset: {x: 0, y: 0}
    - unity_Lightmaps:
        m_Texture: {fileID: 0}
        m_Scale: {x: 1, y: 1}
        m_Offset: {x: 0, y: 0}
    - unity_LightmapsInd:
        m_Texture: {fileID: 0}
        m_Scale: {x: 1, y: 1}
        m_Offset: {x: 0, y: 0}
    - unity_ShadowMasks:
        m_Texture: {fileID: 0}
        m_Scale: {x: 1, y: 1}
        m_Offset: {x: 0, y: 0}
    m_Ints: []
    m_Floats:
    - Vector1_AmplitudFactor: 1
    - Vector1_AmplitudeDeformationZ: 0
    - Vector1_AmplitudeMovementX: 0
    - Vector1_AmplitudeMovementY: 0
    - Vector1_AmplitudeWaveX: 0.01
    - Vector1_AmplitudeWaveY: 0.037
    - Vector1_AmplitudeWaveZ: 0.02
    - Vector1_FrequencyDeformationZ: 0
    - Vector1_FrequencyWaveX: 0.4
    - Vector1_FrequencyWaveY: 0.14
    - Vector1_FrequencyWaveZ: 0.2
    - Vector1_SpeedDeformationZ: 0
    - Vector1_SpeedFactor: 2
    - Vector1_SpeedMovementX: 0
    - Vector1_SpeedMovementY: 0
    - Vector1_SpeedWaveX: 1.55
    - Vector1_SpeedWaveY: 3.25
    - Vector1_SpeedWaveZ: 8
    - _AOStrength: 1
    - _Alpha: 1
    - _AlphaClip: 0
    - _AlphaP: 1
    - _AnchoLinea: 0
    - _Blend: 0
    - _BumpScale: 1
    - _CastShadows: 1
    - _ClearCoatMask: 0
    - _ClearCoatSmoothness: 0
    - _ColorStrength: 0
    - _Cull: 2
    - _Cutoff: 0.5
    - _Densidad: 0
    - _DetailAlbedoMapScale: 1
    - _DetailNormalMapScale: 1
    - _Distance: 0
    - _DstBlend: 10
    - _EnvironmentReflections: 1
    - _FallOut: 0
    - _FogIntensity: 1.47
    - _FogMultiplicador: 0
    - _FogOfsset: 1
    - _FogSmooth: 0.27
    - _FrecuencyFactor: 1
    - _FresnelPower: 1
    - _FresnelPowerP: 1.16
    - _GlossMapScale: 0
    - _Glossiness: 0
    - _GlossyReflections: 0
    - _Glow: 0.78
    - _GlowP: 14.01
    - _HighligthPower: 0
    - _Metallic: 0
    - _MetallicValue: 0
    - _NormalStrength: 1
    - _OcclusionStrength: 1
    - _OnlyColor: 0
    - _Parallax: 0.005
    - _PoderLinea: 0
    - _PruebaInclinacion: 0
    - _QueueControl: 0
    - _QueueOffset: 0
    - _ReceiveShadows: 1
    - _Scale: -8.88
    - _SizeLine: 0
    - _Smoothness: 0.5
    - _SmoothnessTextureChannel: 0
    - _SmoothnessValue: 0.25
    - _SpecularHighlights: 1
    - _SrcBlend: 5
    - _Surface: 1
    - _UseMetallicTex: 0
    - _UseSmoothnessTex: 0
    - _VelocidadLinea: 0
    - _VerPivotX: 0
    - _WorkflowMode: 1
    - _ZTest: 4
    - _ZWrite: 0
    - _ZWriteControl: 0
    - _prueba2: 1
    m_Colors:
    - _BaseColor: {r: 1, g: 1, b: 1, a: 1}
    - _Centro: {r: 0, g: 0, b: -0.77, a: 0}
    - _CentroP: {r: 0, g: 0, b: 5.7, a: 0}
    - _Color: {r: 0, g: 4.0262055, b: 10.680629, a: 1}
    - _Color2: {r: 0, g: 6.5362654, b: 9.849155, a: 1}
    - _Color2P: {r: 0, g: 3.4869192, b: 7.999999, a: 1}
    - _ColorEmission: {r: 0.007565096, g: 0.07286382, b: 0.06649321, a: 0}
    - _ColorLinea: {r: 0, g: 0, b: 0, a: 0}
    - _ColorLinea_1: {r: 0, g: 0, b: 0, a: 0}
    - _ColorP: {r: 0, g: 2.4156864, b: 5.992157, a: 1}
    - _EmissionColor: {r: 0, g: 0, b: 0, a: 1}
    - _HightligthColor: {r: 0, g: 0, b: 0, a: 0}
    - _Pivot: {r: 0, g: 0, b: 10.22, a: 0}
    - _PivotDirection: {r: 0, g: 0, b: 1, a: 0}
    - _PivotIntensity: {r: 1, g: 1, b: 0.72, a: 0}
    - _PivotSize: {r: 4, g: 4, b: 2.06, a: 0}
    - _RangoLinea: {r: 0, g: 0, b: 0, a: 0}
    - _SpecColor: {r: 0.19999996, g: 0.19999996, b: 0.19999996, a: 1}
  m_BuildTextureStacks: []
