%YAML 1.1
%TAG !u! tag:unity3d.com,2011:
--- !u!114 &11400000
MonoBehaviour:
  m_ObjectHideFlags: 0
  m_CorrespondingSourceObject: {fileID: 0}
  m_PrefabInstance: {fileID: 0}
  m_PrefabAsset: {fileID: 0}
  m_GameObject: {fileID: 0}
  m_Enabled: 1
  m_EditorHideFlags: 0
  m_Script: {fileID: 11500000, guid: b6b183fbd75d05344aa403652208a440, type: 3}
  m_Name: SO_JellyFishBoss_Challenge
  m_EditorClassIdentifier: 
  Icon: {fileID: -182536345, guid: cb0c1b48bbfc9bd49a3444c567b16bf4, type: 3}
  Color: {r: 0.990566, g: 0.77870893, b: 0.1541919, a: 1}
  Title:
    FieldName: ChallengeTitleText
    TextTable: {fileID: 11400000, guid: c39951043802c8a43b02bae453c00b9a, type: 2}
    TextColor: {r: 1, g: 1, b: 1, a: 1}
  Description:
    FieldName: KillBossJellyFishChallengeDescription
    TextTable: {fileID: 11400000, guid: c39951043802c8a43b02bae453c00b9a, type: 2}
    TextColor: {r: 1, g: 1, b: 1, a: 1}
  Progress:
    FieldName: KillBossJellyFishChallengeProgress
    TextTable: {fileID: 11400000, guid: c39951043802c8a43b02bae453c00b9a, type: 2}
    TextColor: {r: 1, g: 1, b: 1, a: 1}
  Instruction:
    FieldName: KillBossLionFishChallengeInstruction
    TextTable: {fileID: 11400000, guid: c39951043802c8a43b02bae453c00b9a, type: 2}
    TextColor: {r: 1, g: 1, b: 1, a: 1}
