%YAML 1.1
%TAG !u! tag:unity3d.com,2011:
--- !u!114 &11400000
MonoBehaviour:
  m_ObjectHideFlags: 0
  m_CorrespondingSourceObject: {fileID: 0}
  m_PrefabInstance: {fileID: 0}
  m_PrefabAsset: {fileID: 0}
  m_GameObject: {fileID: 0}
  m_Enabled: 1
  m_EditorHideFlags: 0
  m_Script: {fileID: 11500000, guid: ceb924a9b285cf14b9874c95ab340811, type: 3}
  m_Name: ElectricShootCombo
  m_EditorClassIdentifier: 
  abilityInfo:
    ShowUseInfo: 1
    Name:
      FieldName: 
      TexTable: {fileID: 0}
      TextColor: {r: 1, g: 1, b: 1, a: 1}
    Instruction:
      promptName: 
      kbButton:
        Text:
          FieldName: 
          TexTable: {fileID: 0}
          TextColor: {r: 1, g: 1, b: 1, a: 1}
        Sprite: {fileID: 0}
        UseTextOnSprite: 0
        SpriteText:
          FieldName: 
          TexTable: {fileID: 0}
          TextColor: {r: 1, g: 1, b: 1, a: 1}
      gamepadButton:
        Text:
          FieldName: 
          TexTable: {fileID: 0}
          TextColor: {r: 1, g: 1, b: 1, a: 1}
        Sprite: {fileID: 0}
        UseTextOnSprite: 0
        SpriteText:
          FieldName: 
          TexTable: {fileID: 0}
          TextColor: {r: 1, g: 1, b: 1, a: 1}
    Description:
      FieldName: 
      TexTable: {fileID: 0}
      TextColor: {r: 1, g: 1, b: 1, a: 1}
    Sprite: {fileID: 0}
  <Distance>k__BackingField: 12.1
  <Speed>k__BackingField: 35.97
  <Cooldown>k__BackingField: 0.3
  <Damage>k__BackingField: 4
  <Duration>k__BackingField: 3.3125
  <EnergyCost>k__BackingField: 10
  <DamageType>k__BackingField: 2
  <BehaviourPrefab>k__BackingField: {fileID: 1808048548885048175, guid: 171756b6cad932349b9c5c1b0099bae3,
    type: 3}
  <ChangeColorOnCast>k__BackingField: 0
  CharacterColor: {r: 0, g: 0, b: 0, a: 0}
  IsCasting: 0
  IsCombined: 1
  IsLoaded: 0
  Direction: {x: 0, y: 0, z: 0}
  <HasInputAction>k__BackingField: 0
  InputReference:
    InputReferenceData:
      InputPriority: 0
      InputActionReference: {fileID: 0}
      InputActionInteractionData:
        InputActionReference: {fileID: 0}
    CombineInputetReferenceData: []
  HasLoadTime: 0
  loadTime: 0
  BaseAbilityComboCast: {fileID: 0}
  castPosition: {x: 0, y: 0, z: 0}
