%YAML 1.1
%TAG !u! tag:unity3d.com,2011:
--- !u!114 &11400000
MonoBehaviour:
  m_ObjectHideFlags: 0
  m_CorrespondingSourceObject: {fileID: 0}
  m_PrefabInstance: {fileID: 0}
  m_PrefabAsset: {fileID: 0}
  m_GameObject: {fileID: 0}
  m_Enabled: 1
  m_EditorHideFlags: 0
  m_Script: {fileID: 11500000, guid: ceb924a9b285cf14b9874c95ab340811, type: 3}
  m_Name: PoisionedShield
  m_EditorClassIdentifier: 
  abilityInfo:
    ShowUseInfo: 0
    Name:
      FieldName: PosionedShieldName
      TexTable: {fileID: 11400000, guid: 7818ce40667c7de429f08f1b2696ee83, type: 2}
      TextColor: {r: 1, g: 1, b: 1, a: 1}
    Instruction:
      promptName: 
      kbButton:
        Text:
          FieldName: 
          TexTable: {fileID: 0}
          TextColor: {r: 1, g: 1, b: 1, a: 1}
        Sprite: {fileID: 0}
        UseTextOnSprite: 0
        SpriteText:
          FieldName: 
          TexTable: {fileID: 0}
          TextColor: {r: 1, g: 1, b: 1, a: 1}
      gamepadButton:
        Text:
          FieldName: 
          TexTable: {fileID: 0}
          TextColor: {r: 1, g: 1, b: 1, a: 1}
        Sprite: {fileID: 0}
        UseTextOnSprite: 0
        SpriteText:
          FieldName: 
          TexTable: {fileID: 0}
          TextColor: {r: 1, g: 1, b: 1, a: 1}
    Description:
      FieldName: PosionedShieldDescription
      TexTable: {fileID: 11400000, guid: 7818ce40667c7de429f08f1b2696ee83, type: 2}
      TextColor: {r: 1, g: 1, b: 1, a: 1}
    Sprite: {fileID: 567263334, guid: aac7354eb8913f848b47b67f40fefc73, type: 3}
  <Distance>k__BackingField: 0
  <Speed>k__BackingField: 0
  <Cooldown>k__BackingField: 1
  <Damage>k__BackingField: 0
  <Duration>k__BackingField: 0
  <EnergyCost>k__BackingField: 0
  <DamageType>k__BackingField: 0
  <BehaviourPrefab>k__BackingField: {fileID: 0}
  <ChangeColorOnCast>k__BackingField: 1
  CharacterColor: {r: 0.627451, g: 0, b: 2.9803922, a: 0}
  IsCasting: 0
  IsCombined: 0
  IsLoaded: 0
  Direction: {x: 0, y: 0, z: 0}
  <HasInputAction>k__BackingField: 0
  InputReference:
    InputReferenceData:
      InputPriority: 0
      InputActionReference: {fileID: 0}
      InputActionInteractionData:
        InputActionReference: {fileID: 0}
    CombineInputetReferenceData: []
  HasLoadTime: 0
  loadTime: 0
  BaseAbilityComboCast: {fileID: 0}
  castPosition: {x: 0, y: 0, z: 0}
