%YAML 1.1
%TAG !u! tag:unity3d.com,2011:
--- !u!114 &11400000
MonoBehaviour:
  m_ObjectHideFlags: 0
  m_CorrespondingSourceObject: {fileID: 0}
  m_PrefabInstance: {fileID: 0}
  m_PrefabAsset: {fileID: 0}
  m_GameObject: {fileID: 0}
  m_Enabled: 1
  m_EditorHideFlags: 0
  m_Script: {fileID: 11500000, guid: b23f08d2ae4cba14087c1ed36193d82b, type: 3}
  m_Name: BT_BossLionFish
  m_EditorClassIdentifier: 
  mBehaviorSource:
    behaviorName: BossLionFishBehaviour
    behaviorDescription: 
    mTaskData:
      types: []
      parentIndex: 
      startIndex: 
      variableStartIndex: 
      JSONSerialization: '{"EntryTask":{"Type":"BehaviorDesigner.Runtime.Tasks.EntryTask","NodeData":{"Offset":"(350.5373,74.1626)"},"ID":0,"Name":"Entry","Instant":true},"RootTask":{"Type":"InitializeTree","NodeData":{"Offset":"(0,110)"},"ID":1,"Name":"Initialize
        Tree","Instant":true,"SharedEnemyControllerEnemyController":{"Type":"SharedEnemyController","Name":"EnemyController","IsShared":true},"AbortTypeabortType":"None","Children":[{"Type":"BehaviorDesigner.Runtime.Tasks.Selector","NodeData":{"Offset":"(0,110)"},"ID":2,"Name":"Selector","Instant":true,"AbortTypeabortType":"None","Children":[{"Type":"BehaviorDesigner.Runtime.Tasks.Inverter","NodeData":{"Offset":"(-1441.76331,176.641052)"},"ID":3,"Name":"Inverter","Instant":true,"Children":[{"Type":"BehaviorDesigner.Runtime.Tasks.Selector","NodeData":{"Offset":"(-1.76330566,106.241089)"},"ID":4,"Name":"Selector","Instant":true,"AbortTypeabortType":"LowerPriority","Children":[{"Type":"BehaviorDesigner.Runtime.Tasks.BehaviorTreeReference","NodeData":{"Offset":"(-192.963257,126.641113)","ColorIndex":6},"ID":5,"Name":"StopMove
        BehaviorTreeReference","Instant":true,"ExternalBehavior[]externalBehaviors":[0],"SharedNamedVariable[]variables":[{"Type":"BehaviorDesigner.Runtime.SharedNamedVariable","Name":null,"NamedVariablemValue":{"Stringname":"EnemyController","Stringtype":"SharedEnemyController","SharedVariablevalue":{"Type":"SharedEnemyController","Name":"EnemyController","IsShared":true}}},{"Type":"BehaviorDesigner.Runtime.SharedNamedVariable","Name":null,"NamedVariablemValue":{"Stringname":"EnemyCharacter","Stringtype":"SharedEnemyCharacter","SharedVariablevalue":{"Type":"SharedEnemyCharacter","Name":"EnemyCharacter","IsShared":true}}},{"Type":"BehaviorDesigner.Runtime.SharedNamedVariable","Name":null,"NamedVariablemValue":{"Stringname":"IsDead","Stringtype":"SharedBool","SharedVariablevalue":{"Type":"BehaviorDesigner.Runtime.SharedBool","Name":"IsDead","IsShared":true,"BooleanmValue":false}}},{"Type":"BehaviorDesigner.Runtime.SharedNamedVariable","Name":null,"NamedVariablemValue":{"Stringname":"CanMove","Stringtype":"SharedBool","SharedVariablevalue":{"Type":"BehaviorDesigner.Runtime.SharedBool","Name":"CanMove","IsShared":true,"BooleanmValue":false}}},{"Type":"BehaviorDesigner.Runtime.SharedNamedVariable","Name":null,"NamedVariablemValue":{"Stringname":"OnKnockBack","Stringtype":"SharedBool","SharedVariablevalue":{"Type":"BehaviorDesigner.Runtime.SharedBool","Name":"OnKnockBack","IsShared":true,"BooleanmValue":false}}}],"Booleancollapsed":false},{"Type":"BehaviorDesigner.Runtime.Tasks.BehaviorTreeReference","NodeData":{"Offset":"(147.036682,126.641113)","ColorIndex":8},"ID":6,"Name":"Avoid
        BehaviorTreeReference","Instant":true,"ExternalBehavior[]externalBehaviors":[1],"SharedNamedVariable[]variables":[{"Type":"BehaviorDesigner.Runtime.SharedNamedVariable","Name":null,"NamedVariablemValue":{"Stringname":"EnemyController","Stringtype":"SharedEnemyController","SharedVariablevalue":{"Type":"SharedEnemyController","Name":"EnemyController","IsShared":true}}},{"Type":"BehaviorDesigner.Runtime.SharedNamedVariable","Name":null,"NamedVariablemValue":{"Stringname":"EnemyCharacter","Stringtype":"SharedEnemyCharacter","SharedVariablevalue":{"Type":"SharedEnemyCharacter","Name":"EnemyCharacter","IsShared":true}}},{"Type":"BehaviorDesigner.Runtime.SharedNamedVariable","Name":null,"NamedVariablemValue":{"Stringname":"CanAttack","Stringtype":"SharedBool","SharedVariablevalue":{"Type":"BehaviorDesigner.Runtime.SharedBool","Name":"CanAttack","IsShared":true,"BooleanmValue":false}}},{"Type":"BehaviorDesigner.Runtime.SharedNamedVariable","Name":null,"NamedVariablemValue":{"Stringname":"IsFocusingPlayer","Stringtype":"SharedBool","SharedVariablevalue":{"Type":"BehaviorDesigner.Runtime.SharedBool","Name":"IsFocusingPlayer","IsShared":true,"BooleanmValue":false}}}],"Booleancollapsed":false}]}]},{"Type":"BehaviorDesigner.Runtime.Tasks.Sequence","NodeData":{"Offset":"(-256.923065,136.1539)"},"ID":7,"Name":"Sequence","Instant":true,"AbortTypeabortType":"None","Children":[{"Type":"BTCondition_IsPlayerDetected","NodeData":{"Offset":"(-514.3243,137.79924)","ColorIndex":4},"ID":8,"Name":"Check
        Is Player Detected","Instant":true,"SharedEnemyControllerEnemyController":{"Type":"SharedEnemyController","Name":"EnemyController","IsShared":true},"SharedEnemyCharacterEnemyCharacter":{"Type":"SharedEnemyCharacter","Name":"EnemyCharacter","IsShared":true}},{"Type":"EnemyChaseOrRunning","NodeData":{"Offset":"(-304.462524,140.829468)","ColorIndex":8},"ID":9,"Name":"Chase","Instant":true,"BooleanshouldChase":true,"SingleacceptanceRadius":70,"SharedEnemyControllerEnemyController":{"Type":"SharedEnemyController","Name":"EnemyController","IsShared":true},"SharedEnemyCharacterEnemyCharacter":{"Type":"SharedEnemyCharacter","Name":"EnemyCharacter","IsShared":true}},{"Type":"BehaviorDesigner.Runtime.Tasks.Sequence","NodeData":{"Offset":"(-138.648666,136.4478)"},"ID":10,"Name":"Sequence","Instant":true,"AbortTypeabortType":"None","Children":[{"Type":"BTAction_LookAt","NodeData":{"Offset":"(-593.658936,177.804871)","ColorIndex":8},"ID":11,"Name":"Look
        at Player","Instant":true,"SingleacceptanceAngle":45,"SharedEnemyCharacterenemyCharacterHandle":{"Type":"SharedEnemyCharacter","Name":"EnemyCharacter","IsShared":true},"SharedEnemyControllerenemyControllerHandle":{"Type":"SharedEnemyController","Name":"EnemyController","IsShared":true}},{"Type":"BTTask_DashAttack","NodeData":{"Offset":"(-478.3718,179.188843)","ColorIndex":1},"ID":12,"Name":"Dash
        Attack","Instant":true,"DashAbilityDescriptorabilityDescriptor":2,"SharedEnemyCharacterenemyCharacterHandle":{"Type":"SharedEnemyCharacter","Name":"EnemyCharacter","IsShared":true},"SharedEnemyControllerenemyControllerHandle":{"Type":"SharedEnemyController","Name":"EnemyController","IsShared":true}},{"Type":"BehaviorDesigner.Runtime.Tasks.Wait","NodeData":{"Offset":"(-358.371643,179.188843)"},"ID":13,"Name":"Wait","Instant":true,"SharedFloatwaitTime":{"Type":"BehaviorDesigner.Runtime.SharedFloat","Name":null,"SinglemValue":1.75},"SharedBoolrandomWait":{"Type":"BehaviorDesigner.Runtime.SharedBool","Name":null,"BooleanmValue":false},"SharedFloatrandomWaitMin":{"Type":"BehaviorDesigner.Runtime.SharedFloat","Name":null,"SinglemValue":1},"SharedFloatrandomWaitMax":{"Type":"BehaviorDesigner.Runtime.SharedFloat","Name":null,"SinglemValue":1}},{"Type":"EnemyLookingTarget","NodeData":{"Offset":"(-243.265411,179.795776)","ColorIndex":8},"ID":14,"Name":"Look
        target","Instant":true,"SharedBoolCanAttack":{"Type":"BehaviorDesigner.Runtime.SharedBool","Name":"CanAttack","IsShared":true,"BooleanmValue":false},"SinglelookTargetVelocity":1.75,"Singlevelocity":2.5,"SinglemaxTimeLooking":2,"SingleacceptanceAngle":15,"SharedEnemyControllerEnemyController":{"Type":"SharedEnemyController","Name":"EnemyController","IsShared":true},"SharedEnemyCharacterEnemyCharacter":{"Type":"SharedEnemyCharacter","Name":"EnemyCharacter","IsShared":true}},{"Type":"BTTask_DashAttack","NodeData":{"Offset":"(-118.371727,179.188843)","ColorIndex":1},"ID":15,"Name":"Dash
        Attack","Instant":true,"DashAbilityDescriptorabilityDescriptor":3,"SharedEnemyCharacterenemyCharacterHandle":{"Type":"SharedEnemyCharacter","Name":"EnemyCharacter","IsShared":true},"SharedEnemyControllerenemyControllerHandle":{"Type":"SharedEnemyController","Name":"EnemyController","IsShared":true}},{"Type":"BehaviorDesigner.Runtime.Tasks.Wait","NodeData":{"Offset":"(1.62828636,179.188843)"},"ID":16,"Name":"Wait","Instant":true,"SharedFloatwaitTime":{"Type":"BehaviorDesigner.Runtime.SharedFloat","Name":null,"SinglemValue":2},"SharedBoolrandomWait":{"Type":"BehaviorDesigner.Runtime.SharedBool","Name":null,"BooleanmValue":false},"SharedFloatrandomWaitMin":{"Type":"BehaviorDesigner.Runtime.SharedFloat","Name":null,"SinglemValue":1},"SharedFloatrandomWaitMax":{"Type":"BehaviorDesigner.Runtime.SharedFloat","Name":null,"SinglemValue":1}}]},{"Type":"EnemyChaseOrRunning","NodeData":{"Offset":"(-13.6842346,135.294128)","ColorIndex":8},"ID":17,"Name":"Chase","Instant":true,"BooleanshouldChase":true,"SingleacceptanceRadius":70,"SharedEnemyControllerEnemyController":{"Type":"SharedEnemyController","Name":"EnemyController","IsShared":true},"SharedEnemyCharacterEnemyCharacter":{"Type":"SharedEnemyCharacter","Name":"EnemyCharacter","IsShared":true}},{"Type":"BehaviorDesigner.Runtime.Tasks.Sequence","NodeData":{"Offset":"(109.473633,142.6553)"},"ID":18,"Name":"Sequence","Instant":true,"AbortTypeabortType":"None","Children":[{"Type":"EnemyLookingTarget","NodeData":{"Offset":"(-16.5851269,177.804871)","ColorIndex":8},"ID":19,"Name":"Look
        target","Instant":true,"SharedBoolCanAttack":{"Type":"BehaviorDesigner.Runtime.SharedBool","Name":"CanAttack","IsShared":true,"BooleanmValue":false},"SinglelookTargetVelocity":1.75,"Singlevelocity":2.5,"SinglemaxTimeLooking":2,"SingleacceptanceAngle":15,"SharedEnemyControllerEnemyController":{"Type":"SharedEnemyController","Name":"EnemyController","IsShared":true},"SharedEnemyCharacterEnemyCharacter":{"Type":"SharedEnemyCharacter","Name":"EnemyCharacter","IsShared":true}},{"Type":"BTTask_ShootProjectile","NodeData":{"Offset":"(143.936157,175)","ColorIndex":1},"ID":20,"Name":"Red
        Shoot Attack","Instant":true,"RangedAttackAbilityDescriptorabilityDescriptor":4,"SharedEnemyCharacterenemyCharacterHandle":{"Type":"SharedEnemyCharacter","Name":"EnemyCharacter","IsShared":true},"SharedEnemyControllerenemyControllerHandle":{"Type":"SharedEnemyController","Name":"EnemyController","IsShared":true}},{"Type":"BehaviorDesigner.Runtime.Tasks.Wait","NodeData":{"Offset":"(273.9361,175)"},"ID":21,"Name":"Wait","Instant":true,"SharedFloatwaitTime":{"Type":"BehaviorDesigner.Runtime.SharedFloat","Name":null,"SinglemValue":2},"SharedBoolrandomWait":{"Type":"BehaviorDesigner.Runtime.SharedBool","Name":null,"BooleanmValue":false},"SharedFloatrandomWaitMin":{"Type":"BehaviorDesigner.Runtime.SharedFloat","Name":null,"SinglemValue":1},"SharedFloatrandomWaitMax":{"Type":"BehaviorDesigner.Runtime.SharedFloat","Name":null,"SinglemValue":1}},{"Type":"EnemyLookingTarget","NodeData":{"Offset":"(399.091248,190)","ColorIndex":8},"ID":22,"Name":"Look
        target","Instant":true,"SharedBoolCanAttack":{"Type":"BehaviorDesigner.Runtime.SharedBool","Name":"CanAttack","IsShared":true,"BooleanmValue":false},"SinglelookTargetVelocity":1.75,"Singlevelocity":2.5,"SinglemaxTimeLooking":2,"SingleacceptanceAngle":15,"SharedEnemyControllerEnemyController":{"Type":"SharedEnemyController","Name":"EnemyController","IsShared":true},"SharedEnemyCharacterEnemyCharacter":{"Type":"SharedEnemyCharacter","Name":"EnemyCharacter","IsShared":true}},{"Type":"BTTask_ShootProjectile","NodeData":{"Offset":"(530.957642,175)","ColorIndex":1},"ID":23,"Name":"Red
        Shoot Attack","Instant":true,"RangedAttackAbilityDescriptorabilityDescriptor":5,"SharedEnemyCharacterenemyCharacterHandle":{"Type":"SharedEnemyCharacter","Name":"EnemyCharacter","IsShared":true},"SharedEnemyControllerenemyControllerHandle":{"Type":"SharedEnemyController","Name":"EnemyController","IsShared":true}},{"Type":"BehaviorDesigner.Runtime.Tasks.Wait","NodeData":{"Offset":"(668.457642,177.5)"},"ID":24,"Name":"Wait","Instant":true,"SharedFloatwaitTime":{"Type":"BehaviorDesigner.Runtime.SharedFloat","Name":null,"SinglemValue":1.75},"SharedBoolrandomWait":{"Type":"BehaviorDesigner.Runtime.SharedBool","Name":null,"BooleanmValue":false},"SharedFloatrandomWaitMin":{"Type":"BehaviorDesigner.Runtime.SharedFloat","Name":null,"SinglemValue":1},"SharedFloatrandomWaitMax":{"Type":"BehaviorDesigner.Runtime.SharedFloat","Name":null,"SinglemValue":1}}]},{"Type":"EnemyLookingTarget","NodeData":{"Offset":"(247.272461,135.454346)","ColorIndex":8},"ID":25,"Name":"Look
        target","Instant":true,"SharedBoolCanAttack":{"Type":"BehaviorDesigner.Runtime.SharedBool","Name":"CanAttack","IsShared":true,"BooleanmValue":false},"SinglelookTargetVelocity":1.75,"Singlevelocity":2.5,"SinglemaxTimeLooking":2,"SingleacceptanceAngle":15,"SharedEnemyControllerEnemyController":{"Type":"SharedEnemyController","Name":"EnemyController","IsShared":true},"SharedEnemyCharacterEnemyCharacter":{"Type":"SharedEnemyCharacter","Name":"EnemyCharacter","IsShared":true}},{"Type":"BTTask_SummonEnemies","NodeData":{"Offset":"(388.995026,136.785736)","ColorIndex":1},"ID":26,"Name":"Summon
        Enemies","Instant":true,"SummonEnemiesAbilityDescriptorabilityDescriptor":6,"SharedEnemyCharacterenemyCharacterHandle":{"Type":"SharedEnemyCharacter","Name":"EnemyCharacter","IsShared":true},"SharedEnemyControllerenemyControllerHandle":{"Type":"SharedEnemyController","Name":"EnemyController","IsShared":true}},{"Type":"BehaviorDesigner.Runtime.Tasks.Wait","NodeData":{"Offset":"(528.995056,136.785736)"},"ID":27,"Name":"Wait","Instant":true,"SharedFloatwaitTime":{"Type":"BehaviorDesigner.Runtime.SharedFloat","Name":null,"SinglemValue":3},"SharedBoolrandomWait":{"Type":"BehaviorDesigner.Runtime.SharedBool","Name":null,"BooleanmValue":false},"SharedFloatrandomWaitMin":{"Type":"BehaviorDesigner.Runtime.SharedFloat","Name":null,"SinglemValue":1},"SharedFloatrandomWaitMax":{"Type":"BehaviorDesigner.Runtime.SharedFloat","Name":null,"SinglemValue":1}}]},{"Type":"BehaviorDesigner.Runtime.Tasks.Sequence","NodeData":{"Offset":"(815.65625,148.358459)"},"ID":28,"Name":"Sequence","Instant":true,"AbortTypeabortType":"Self","Children":[{"Type":"BehaviorDesigner.Runtime.Tasks.Inverter","NodeData":{"Offset":"(-98.95741,105.112381)"},"ID":29,"Name":"Inverter","Instant":true,"Children":[{"Type":"BTCondition_IsPlayerDetected","NodeData":{"Offset":"(3.332096,108.332825)","ColorIndex":4},"ID":30,"Name":"Check
        Is Player Detected","Instant":true,"SharedEnemyControllerEnemyController":{"Type":"SharedEnemyController","Name":"EnemyController","IsShared":true},"SharedEnemyCharacterEnemyCharacter":{"Type":"SharedEnemyCharacter","Name":"EnemyCharacter","IsShared":true}}]},{"Type":"EnemyMoveToPosition","NodeData":{"Offset":"(104.3242,112.973022)","ColorIndex":7},"ID":31,"Name":"Move
        inside random position","Instant":true,"SharedBoolIsFocusingPlayer":{"Type":"BehaviorDesigner.Runtime.SharedBool","Name":"IsFocusingPlayer","IsShared":true,"BooleanmValue":false},"SharedFloatareaMultiplier":{"Type":"BehaviorDesigner.Runtime.SharedFloat","Name":"AreaMultiplier","IsShared":true,"SinglemValue":0.82},"SinglemaxStandingTime":1,"SharedEnemyControllerEnemyController":{"Type":"SharedEnemyController","Name":"EnemyController","IsShared":true},"SharedEnemyCharacterEnemyCharacter":{"Type":"SharedEnemyCharacter","Name":"EnemyCharacter","IsShared":true}}]}]}]},"Variables":[{"Type":"SharedEnemyController","Name":"EnemyController","IsShared":true},{"Type":"BehaviorDesigner.Runtime.SharedGameObject","Name":"PlayerGameObject","IsShared":true},{"Type":"SharedEnemyCharacter","Name":"EnemyCharacter","IsShared":true},{"Type":"BehaviorDesigner.Runtime.SharedBool","Name":"playerDetected","IsShared":true,"BooleanmValue":false},{"Type":"BehaviorDesigner.Runtime.SharedBool","Name":"IsFocusingPlayer","IsShared":true,"BooleanmValue":false},{"Type":"BehaviorDesigner.Runtime.SharedFloat","Name":"AreaMultiplier","IsShared":true,"SinglemValue":0.82},{"Type":"BehaviorDesigner.Runtime.SharedBool","Name":"IsDead","IsShared":true,"BooleanmValue":false},{"Type":"BehaviorDesigner.Runtime.SharedBool","Name":"CanMove","IsShared":true,"BooleanmValue":false},{"Type":"BehaviorDesigner.Runtime.SharedBool","Name":"OnKnockBack","IsShared":true,"BooleanmValue":false},{"Type":"BehaviorDesigner.Runtime.SharedBool","Name":"CanAttack","IsShared":true,"BooleanmValue":false}]}'
      fieldSerializationData:
        typeName: []
        fieldNameHash: 
        startIndex: 
        dataPosition: 
        unityObjects:
        - {fileID: 11400000, guid: 4a3d39500815d5d4b8d569d45d265fc7, type: 2}
        - {fileID: 11400000, guid: e92dd001e53448d4c990bd9b16ca3592, type: 2}
        - {fileID: 11400000, guid: f894240c5d2c8ca47a160b411875bd96, type: 2}
        - {fileID: 11400000, guid: f894240c5d2c8ca47a160b411875bd96, type: 2}
        - {fileID: 11400000, guid: 326daa7aad42a5248843b3737e1e47e7, type: 2}
        - {fileID: 11400000, guid: 326daa7aad42a5248843b3737e1e47e7, type: 2}
        - {fileID: 11400000, guid: f0ae15d6ab44c4241a1be073e7e03795, type: 2}
        byteData: 
        byteDataArray: 
      Version: 1.7.4
