%YAML 1.1
%TAG !u! tag:unity3d.com,2011:
--- !u!114 &11400000
MonoBehaviour:
  m_ObjectHideFlags: 0
  m_CorrespondingSourceObject: {fileID: 0}
  m_PrefabInstance: {fileID: 0}
  m_PrefabAsset: {fileID: 0}
  m_GameObject: {fileID: 0}
  m_Enabled: 1
  m_EditorHideFlags: 0
  m_Script: {fileID: 11500000, guid: 1f9839ff07fc3994aa17c3c6b5ecfd28, type: 3}
  m_Name: AbilitiesText
  m_EditorClassIdentifier: 
  m_languageKeys:
  - Default
  - es
  - pt
  - fr
  m_languageValues: 00000000020000000300000004000000
  m_fieldKeys: 0500000008000000090000000a0000000b0000000c0000000d0000000e0000000f00000010000000110000001200000014000000150000001600000017000000
  m_fieldValues:
  - m_fieldName: ElectrickShockName
    m_keys: 00000000020000000300000004000000
    m_values:
    - Electrick shock
    - Electricidad
    - Electrick shock (POR)
    - Electrick shock (FR)
  - m_fieldName: ElectrickShockInstruction
    m_keys: 00000000020000000300000004000000
    m_values:
    - Use L2 or right click
    - Usa L2 o click derecho
    - Electrick shock instruction (POR)
    - Electrick shock instruction (FR)
  - m_fieldName: ElectrickShockDescription
    m_keys: 00000000020000000300000004000000
    m_values:
    - Use the electric shock to stun enemies and lighten bioluminiscent algae
    - 'Usa electricidad para detener enemigos e iluminar algas bioluminiscentes '
    - Electrick shock description (POR)
    - Electrick shock description (FR)
  - m_fieldName: LungeName
    m_keys: 00000000020000000300000004000000
    m_values:
    - 'Lunge '
    - Embestida
    - Lunge (POR)
    - Lunge (FR)
  - m_fieldName: LungeInstruction
    m_keys: 00000000020000000300000004000000
    m_values:
    - Hold circle or the space bar
    - "Sost\xE9n c\xEDrculo o barra espaciadora"
    - Lunge instruction (POR)
    - Lunge instruction (FR)
  - m_fieldName: LungeDescription
    m_keys: 00000000020000000300000004000000
    m_values:
    - Use the lunge to hit large enemies and rocks
    - Usa embestida para golpear enemigos grandes y rocas
    - Lunge description (POR)
    - Lunge description (FR)
  - m_fieldName: PosionedShieldName
    m_keys: 00000000020000000300000004000000
    m_values:
    - Posion shield
    - Escudo de veneno
    - Posioned shield (POR)
    - Posioned shield (FR)
  - m_fieldName: PosionedShieldInstruction
    m_keys: 00000000020000000300000004000000
    m_values:
    - Automatic activation
    - "Activaci\xF3n autom\xE1tica"
    - Posioned shield  instruction (POR)
    - Posioned shield instruction (FR)
  - m_fieldName: PosionedShieldDescription
    m_keys: 00000000020000000300000004000000
    m_values:
    - Use the poison shield to resist for a longer time inside of a poisoned area
      for a longer time
    - "Usa el escudo para resistir m\xE1s tiempo dentro de una zona veneosa"
    - Posioned shield description (POR)
    - Posioned shield description (FR)
  - m_fieldName: ShootName
    m_keys: 00000000020000000300000004000000
    m_values:
    - Shoot
    - Disparo
    - Shoot (POR)
    - Shoot (FR)
  - m_fieldName: ShootInstruction
    m_keys: 00000000020000000300000004000000
    m_values:
    - R2 or left click
    - R2 o click derecho
    - Shoot instruction (POR)
    - Shoot instruction (FR)
  - m_fieldName: ShootDescription
    m_keys: 00000000020000000300000004000000
    m_values:
    - Use shooting to clean corals and hit enemies
    - Usa el disparo para limpiar corales o golpear enemigos
    - Shoot description (POR)
    - Shoot description (FR)
  - m_fieldName: DashName
    m_keys: 0000000002000000
    m_values:
    - Dash
    - Dash
  - m_fieldName: CollectorFlockName
    m_keys: 0000000002000000
    m_values:
    - Flock collector
    - 
  - m_fieldName: CollectorFlockInstruction
    m_keys: 0000000002000000
    m_values:
    - 
    - 
  - m_fieldName: CollectorFlockDescription
    m_keys: 0000000002000000
    m_values:
    - Get close to the flocks to collect it and gain strength
    - 
  m_nextLanguageID: 5
  m_nextFieldID: 24
