%YAML 1.1
%TAG !u! tag:unity3d.com,2011:
--- !u!114 &-7858536621214664233
MonoBehaviour:
  m_ObjectHideFlags: 11
  m_CorrespondingSourceObject: {fileID: 0}
  m_PrefabInstance: {fileID: 0}
  m_PrefabAsset: {fileID: 0}
  m_GameObject: {fileID: 0}
  m_Enabled: 1
  m_EditorHideFlags: 0
  m_Script: {fileID: 11500000, guid: d0353a89b1f911e48b9e16bdc9f2e058, type: 3}
  m_Name: 
  m_EditorClassIdentifier: 
  version: 5
--- !u!21 &2100000
Material:
  serializedVersion: 8
  m_ObjectHideFlags: 0
  m_CorrespondingSourceObject: {fileID: 0}
  m_PrefabInstance: {fileID: 0}
  m_PrefabAsset: {fileID: 0}
  m_Name: CoralRigido_Venado2 naranja Material
  m_Shader: {fileID: -6465566751694194690, guid: f865ffdc3863ca746bd52cd8fd27ec81,
    type: 3}
  m_ValidKeywords:
  - _ALPHATEST_ON
  - _SPECULAR_SETUP
  m_InvalidKeywords: []
  m_LightmapFlags: 0
  m_EnableInstancingVariants: 1
  m_DoubleSidedGI: 0
  m_CustomRenderQueue: 2450
  stringTagMap:
    RenderType: TransparentCutout
  disabledShaderPasses: []
  m_SavedProperties:
    serializedVersion: 3
    m_TexEnvs:
    - _BaseMap:
        m_Texture: {fileID: 2800000, guid: 7b0b1f28e9afb12449b51625f628b47f, type: 3}
        m_Scale: {x: 1, y: 1}
        m_Offset: {x: 0, y: 0}
    - _BrushTexture:
        m_Texture: {fileID: 2800000, guid: c61e12b00f19ecd448a748ee4f011b63, type: 3}
        m_Scale: {x: 1, y: 1}
        m_Offset: {x: 0, y: 0}
    - _BumpMap:
        m_Texture: {fileID: 2800000, guid: 85e4ecc8bb66a5246b7bdca0901883c3, type: 3}
        m_Scale: {x: 1, y: 1}
        m_Offset: {x: 0, y: 0}
    - _DetailAlbedoMap:
        m_Texture: {fileID: 0}
        m_Scale: {x: 1, y: 1}
        m_Offset: {x: 0, y: 0}
    - _DetailMask:
        m_Texture: {fileID: 0}
        m_Scale: {x: 1, y: 1}
        m_Offset: {x: 0, y: 0}
    - _DetailNormalMap:
        m_Texture: {fileID: 0}
        m_Scale: {x: 1, y: 1}
        m_Offset: {x: 0, y: 0}
    - _EmissionMap:
        m_Texture: {fileID: 0}
        m_Scale: {x: 1, y: 1}
        m_Offset: {x: 0, y: 0}
    - _MainTex:
        m_Texture: {fileID: 2800000, guid: 5bcd937d4fea8f14b98f65bd8d4f688c, type: 3}
        m_Scale: {x: 1, y: 1}
        m_Offset: {x: 0, y: 0}
    - _Metallic:
        m_Texture: {fileID: 2800000, guid: 39e3d772ae7730f4f9640dcedeef08f8, type: 3}
        m_Scale: {x: 1, y: 1}
        m_Offset: {x: 0, y: 0}
    - _MetallicGlossMap:
        m_Texture: {fileID: 0}
        m_Scale: {x: 1, y: 1}
        m_Offset: {x: 0, y: 0}
    - _Normal_Map:
        m_Texture: {fileID: 2800000, guid: 3be3b5689c45202489dfdaaa38ccf4ca, type: 3}
        m_Scale: {x: 1, y: 1}
        m_Offset: {x: 0, y: 0}
    - _OcclusionMap:
        m_Texture: {fileID: 0}
        m_Scale: {x: 1, y: 1}
        m_Offset: {x: 0, y: 0}
    - _ParallaxMap:
        m_Texture: {fileID: 2800000, guid: c5d1027709265f940a1d05b27a28bb2c, type: 3}
        m_Scale: {x: 1, y: 1}
        m_Offset: {x: 0, y: 0}
    - _SpecGlossMap:
        m_Texture: {fileID: 0}
        m_Scale: {x: 1, y: 1}
        m_Offset: {x: 0, y: 0}
    - _Tex:
        m_Texture: {fileID: 2800000, guid: ee6fbc4d7a962d34485edb266b1f2809, type: 3}
        m_Scale: {x: 1, y: 1}
        m_Offset: {x: 0, y: 0}
    - _TexNormal:
        m_Texture: {fileID: 2800000, guid: 3be3b5689c45202489dfdaaa38ccf4ca, type: 3}
        m_Scale: {x: 1, y: 1}
        m_Offset: {x: 0, y: 0}
    - _TexNormalSuciedad:
        m_Texture: {fileID: 2800000, guid: 3be3b5689c45202489dfdaaa38ccf4ca, type: 3}
        m_Scale: {x: 1, y: 1}
        m_Offset: {x: 0, y: 0}
    - _TexSuciedad:
        m_Texture: {fileID: 2800000, guid: ee6fbc4d7a962d34485edb266b1f2809, type: 3}
        m_Scale: {x: 1, y: 1}
        m_Offset: {x: 0, y: 0}
    - unity_Lightmaps:
        m_Texture: {fileID: 0}
        m_Scale: {x: 1, y: 1}
        m_Offset: {x: 0, y: 0}
    - unity_LightmapsInd:
        m_Texture: {fileID: 0}
        m_Scale: {x: 1, y: 1}
        m_Offset: {x: 0, y: 0}
    - unity_ShadowMasks:
        m_Texture: {fileID: 0}
        m_Scale: {x: 1, y: 1}
        m_Offset: {x: 0, y: 0}
    m_Ints: []
    m_Floats:
    - Vector1_DFA913BA: 1
    - Vector1_Grow: 1
    - Vector1_Grow_Suciedad: 0
    - _AjusteTamano: 3.18
    - _Alpha: 1
    - _AlphaClip: 1
    - _AlphaClipping: 0.65
    - _AlphaSuciedadEmision: 0
    - _AnchoLineaEmision: 30
    - _Blend: 0
    - _BrushOpacity: 0.853
    - _BrushStrength: 7
    - _BumpScale: 1
    - _CastShadows: 1
    - _ClearCoatMask: 0
    - _ClearCoatSmoothness: 0
    - _ColorClipValue: 0.619
    - _ColorStrength: 0
    - _Cull: 2
    - _Cutoff: 0.5
    - _DepthFactor: 7.8
    - _DepthOffset: 0.15
    - _DetailAlbedoMapScale: 1
    - _DetailNormalMapScale: 1
    - _DstBlend: 0
    - _EdgeWidth: 0.04
    - _EnvironmentReflections: 1
    - _FadeOutlineDetect: 0.2
    - _FlutterAmount: 0
    - _FlutterScale: 1
    - _FlutterSpeed: 0.5
    - _GlossMapScale: 1
    - _Glossiness: 0
    - _GlossyReflections: 1
    - _GradientOffset1: 0.97
    - _GradientOffset2: 3.55
    - _GradientSmoothness1: 1
    - _GradientSmoothness2: 0.15
    - _Height: 181.7
    - _Invert: 1
    - _MainWaveAmount: 0
    - _MainWaveScale: 1
    - _Metallic: 0.147
    - _Mode: 0
    - _ModoAlpha: 0
    - _NoiseScale: 500
    - _NoiseSize: 300
    - _NoiseStregth: 0.25
    - _NoiseSuciedad: 200
    - _NormalStregthSuciedad: 2
    - _NormalStrength: 1
    - _OcclusionStrength: 1
    - _OclussionStrength: 1
    - _OnlyColor: 0
    - _OutlineSize: 1
    - _Parallax: 0.0117
    - _Pruebas: 0
    - _QueueControl: 0
    - _QueueOffset: 0
    - _ReceiveShadows: 1
    - _RotationTexture: 195
    - _ShowDepth: 0
    - _Smoothness: 0.296
    - _SmoothnessTextureChannel: 0
    - _SpecularHighlights: 1
    - _SrcBlend: 1
    - _Surface: 0
    - _UVSec: 0
    - _WaveHeightMultiplier: 1
    - _WaveSpeed: 0.5
    - _WorkflowMode: 0
    - _ZTest: 4
    - _ZWrite: 1
    - _ZWriteControl: 1
    - __dirty: 0
    m_Colors:
    - _BaseColor: {r: 1, g: 1, b: 1, a: 1}
    - _BaseMapTIle: {r: 0, g: 0, b: 0, a: 0}
    - _BrushColor: {r: 0.18867922, g: 0.18600923, b: 0.18600923, a: 1}
    - _Color: {r: 1, g: 1, b: 1, a: 1}
    - _ColorEdge1: {r: 95.87451, g: 51.2, b: 0, a: 1}
    - _ColorEmisionSuciedad: {r: 11.984314, g: 0.3764706, b: 0, a: 1}
    - _ColorSuciedad: {r: 0.006808474, g: 0.010682697, b: 0.028301895, a: 1}
    - _Deformation: {r: 0, g: 0, b: 0, a: 0}
    - _Emission: {r: 0, g: 0, b: 0, a: 0}
    - _EmissionColor: {r: 0, g: 0, b: 0, a: 0}
    - _Emmision: {r: 0, g: 0, b: 0, a: 1}
    - _Emmision1: {r: 0, g: 0, b: 0, a: 1}
    - _MainColor: {r: 0.49056596, g: 0.18280521, b: 0.2650235, a: 1}
    - _MainColor1: {r: 0.24509804, g: 0.092156865, b: 0.13333334, a: 1}
    - _OutlineColor: {r: 0, g: 0, b: 0, a: 0}
    - _Pivot: {r: 0, g: 0, b: 0, a: 0}
    - _SecondaryColor: {r: 1, g: 0.7508735, b: 0.6745283, a: 1}
    - _SpecColor: {r: 0.19999996, g: 0.19999996, b: 0.19999996, a: 1}
    - _TillingTexture: {r: 11, g: 15, b: 0, a: 0}
    - _TopColor: {r: 0.6698113, g: 0.3443841, b: 0.43199915, a: 1}
    - _TopColor1: {r: 0.7830189, g: 0.33610716, b: 0.4564296, a: 1}
  m_BuildTextureStacks: []
