%YAML 1.1
%TAG !u! tag:unity3d.com,2011:
--- !u!114 &11400000
MonoBehaviour:
  m_ObjectHideFlags: 0
  m_CorrespondingSourceObject: {fileID: 0}
  m_PrefabInstance: {fileID: 0}
  m_PrefabAsset: {fileID: 0}
  m_GameObject: {fileID: 0}
  m_Enabled: 1
  m_EditorHideFlags: 0
  m_Script: {fileID: 11500000, guid: d6baabc5d75b4a94b9621be0fd24c5b0, type: 3}
  m_Name: PolypCageChallengeData
  m_EditorClassIdentifier: 
  GrowCoralData: {fileID: 11400000, guid: 9342ec34dcf819b4991e4baa0d3398d7, type: 2}
  isCaptured: 1
  Player: {fileID: 0}
  offsetPosition: {x: 0, y: 0, z: 0}
