%YAML 1.1
%TAG !u! tag:unity3d.com,2011:
--- !u!114 &11400000
MonoBehaviour:
  m_ObjectHideFlags: 0
  m_CorrespondingSourceObject: {fileID: 0}
  m_PrefabInstance: {fileID: 0}
  m_PrefabAsset: {fileID: 0}
  m_GameObject: {fileID: 0}
  m_Enabled: 1
  m_EditorHideFlags: 0
  m_Script: {fileID: 11500000, guid: d7fd9488000d3734a9e00ee676215985, type: 3}
  m_Name: DephOfFIeld
  m_EditorClassIdentifier: 
  components:
  - {fileID: 9176961330448573234}
--- !u!114 &9176961330448573234
MonoBehaviour:
  m_ObjectHideFlags: 3
  m_CorrespondingSourceObject: {fileID: 0}
  m_PrefabInstance: {fileID: 0}
  m_PrefabAsset: {fileID: 0}
  m_GameObject: {fileID: 0}
  m_Enabled: 1
  m_EditorHideFlags: 0
  m_Script: {fileID: 11500000, guid: c01700fd266d6914ababb731e09af2eb, type: 3}
  m_Name: DepthOfField
  m_EditorClassIdentifier: 
  active: 1
  mode:
    m_OverrideState: 1
    m_Value: 1
  gaussianStart:
    m_OverrideState: 1
    m_Value: 25
  gaussianEnd:
    m_OverrideState: 1
    m_Value: 35
  gaussianMaxRadius:
    m_OverrideState: 1
    m_Value: 1.154
  highQualitySampling:
    m_OverrideState: 0
    m_Value: 0
  focusDistance:
    m_OverrideState: 1
    m_Value: 20
  aperture:
    m_OverrideState: 1
    m_Value: 6.6
  focalLength:
    m_OverrideState: 1
    m_Value: 175.2
  bladeCount:
    m_OverrideState: 1
    m_Value: 3
  bladeCurvature:
    m_OverrideState: 1
    m_Value: 0
  bladeRotation:
    m_OverrideState: 1
    m_Value: -178
