%YAML 1.1
%TAG !u! tag:unity3d.com,2011:
--- !u!114 &11400000
MonoBehaviour:
  m_ObjectHideFlags: 0
  m_CorrespondingSourceObject: {fileID: 0}
  m_PrefabInstance: {fileID: 0}
  m_PrefabAsset: {fileID: 0}
  m_GameObject: {fileID: 0}
  m_Enabled: 1
  m_EditorHideFlags: 0
  m_Script: {fileID: 11500000, guid: bf2edee5c58d82540a51f03df9d42094, type: 3}
  m_Name: URP-Xbox
  m_EditorClassIdentifier: 
  k_AssetVersion: 9
  k_AssetPreviousVersion: 9
  m_RendererType: 1
  m_RendererData: {fileID: 0}
  m_RendererDataList:
  - {fileID: 11400000, guid: c40be3174f62c4acf8c1216858c64956, type: 2}
  - {fileID: 11400000, guid: c47f11076cde71241af4afe6d066392c, type: 2}
  - {fileID: 11400000, guid: afd75cc0e449b184d8e9e91ed96dd9bf, type: 2}
  m_DefaultRendererIndex: 0
  m_RequireDepthTexture: 1
  m_RequireOpaqueTexture: 1
  m_OpaqueDownsampling: 1
  m_SupportsTerrainHoles: 1
  m_StoreActionsOptimization: 0
  m_SupportsHDR: 1
  m_MSAA: 2
  m_RenderScale: 1
  m_UpscalingFilter: 0
  m_FsrOverrideSharpness: 0
  m_FsrSharpness: 0.92
  m_MainLightRenderingMode: 1
  m_MainLightShadowsSupported: 1
  m_MainLightShadowmapResolution: 256
  m_AdditionalLightsRenderingMode: 1
  m_AdditionalLightsPerObjectLimit: 2
  m_AdditionalLightShadowsSupported: 0
  m_AdditionalLightsShadowmapResolution: 4096
  m_AdditionalLightsShadowResolutionTierLow: 128
  m_AdditionalLightsShadowResolutionTierMedium: 256
  m_AdditionalLightsShadowResolutionTierHigh: 512
  m_ReflectionProbeBlending: 0
  m_ReflectionProbeBoxProjection: 0
  m_ShadowDistance: 350
  m_ShadowCascadeCount: 2
  m_Cascade2Split: 0.4166667
  m_Cascade3Split: {x: 0.1, y: 0.3}
  m_Cascade4Split: {x: 0.013, y: 0.155, z: 0.572}
  m_CascadeBorder: 0.11111111
  m_ShadowDepthBias: 1
  m_ShadowNormalBias: 1
  m_SoftShadowsSupported: 1
  m_ConservativeEnclosingSphere: 0
  m_NumIterationsEnclosingSphere: 64
  m_AdditionalLightsCookieResolution: 256
  m_AdditionalLightsCookieFormat: 1
  m_UseSRPBatcher: 1
  m_SupportsDynamicBatching: 0
  m_MixedLightingSupported: 1
  m_SupportsLightLayers: 0
  m_DebugLevel: 0
  m_UseAdaptivePerformance: 1
  m_ColorGradingMode: 0
  m_ColorGradingLutSize: 32
  m_UseFastSRGBLinearConversion: 0
  m_ShadowType: 1
  m_LocalShadowsSupported: 0
  m_LocalShadowsAtlasResolution: 256
  m_MaxPixelLights: 0
  m_ShadowAtlasResolution: 256
  m_ShaderVariantLogLevel: 0
  m_VolumeFrameworkUpdateMode: 0
  m_ShadowCascades: 1
