%YAML 1.1
%TAG !u! tag:unity3d.com,2011:
--- !u!1 &1616838300161864238
GameObject:
  m_ObjectHideFlags: 0
  m_CorrespondingSourceObject: {fileID: 0}
  m_PrefabInstance: {fileID: 0}
  m_PrefabAsset: {fileID: 0}
  serializedVersion: 6
  m_Component:
  - component: {fileID: 2106551521009510548}
  m_Layer: 6
  m_Name: Roca10_LOD
  m_TagString: Untagged
  m_Icon: {fileID: 0}
  m_NavMeshLayer: 0
  m_StaticEditorFlags: 2147483647
  m_IsActive: 1
--- !u!4 &2106551521009510548
Transform:
  m_ObjectHideFlags: 0
  m_CorrespondingSourceObject: {fileID: 0}
  m_PrefabInstance: {fileID: 0}
  m_PrefabAsset: {fileID: 0}
  m_GameObject: {fileID: 1616838300161864238}
  m_LocalRotation: {x: 0, y: 0, z: 0, w: 1}
  m_LocalPosition: {x: -238.2, y: 54.405308, z: -87.6}
  m_LocalScale: {x: 1, y: 1, z: 1}
  m_ConstrainProportionsScale: 0
  m_Children:
  - {fileID: 8839914165822160540}
  m_Father: {fileID: 0}
  m_RootOrder: 0
  m_LocalEulerAnglesHint: {x: 0, y: 0, z: 0}
--- !u!1001 &9018201399405091191
PrefabInstance:
  m_ObjectHideFlags: 0
  serializedVersion: 2
  m_Modification:
    m_TransformParent: {fileID: 2106551521009510548}
    m_Modifications:
    - target: {fileID: -8679921383154817045, guid: 919ce009ff4dd244a86d07a5fd25e66e,
        type: 3}
      propertyPath: m_RootOrder
      value: 0
      objectReference: {fileID: 0}
    - target: {fileID: -8679921383154817045, guid: 919ce009ff4dd244a86d07a5fd25e66e,
        type: 3}
      propertyPath: m_LocalPosition.x
      value: 0
      objectReference: {fileID: 0}
    - target: {fileID: -8679921383154817045, guid: 919ce009ff4dd244a86d07a5fd25e66e,
        type: 3}
      propertyPath: m_LocalPosition.y
      value: 0
      objectReference: {fileID: 0}
    - target: {fileID: -8679921383154817045, guid: 919ce009ff4dd244a86d07a5fd25e66e,
        type: 3}
      propertyPath: m_LocalPosition.z
      value: 0
      objectReference: {fileID: 0}
    - target: {fileID: -8679921383154817045, guid: 919ce009ff4dd244a86d07a5fd25e66e,
        type: 3}
      propertyPath: m_LocalRotation.w
      value: 1
      objectReference: {fileID: 0}
    - target: {fileID: -8679921383154817045, guid: 919ce009ff4dd244a86d07a5fd25e66e,
        type: 3}
      propertyPath: m_LocalRotation.x
      value: 0
      objectReference: {fileID: 0}
    - target: {fileID: -8679921383154817045, guid: 919ce009ff4dd244a86d07a5fd25e66e,
        type: 3}
      propertyPath: m_LocalRotation.y
      value: 0
      objectReference: {fileID: 0}
    - target: {fileID: -8679921383154817045, guid: 919ce009ff4dd244a86d07a5fd25e66e,
        type: 3}
      propertyPath: m_LocalRotation.z
      value: 0
      objectReference: {fileID: 0}
    - target: {fileID: -8679921383154817045, guid: 919ce009ff4dd244a86d07a5fd25e66e,
        type: 3}
      propertyPath: m_LocalEulerAnglesHint.x
      value: 0
      objectReference: {fileID: 0}
    - target: {fileID: -8679921383154817045, guid: 919ce009ff4dd244a86d07a5fd25e66e,
        type: 3}
      propertyPath: m_LocalEulerAnglesHint.y
      value: 0
      objectReference: {fileID: 0}
    - target: {fileID: -8679921383154817045, guid: 919ce009ff4dd244a86d07a5fd25e66e,
        type: 3}
      propertyPath: m_LocalEulerAnglesHint.z
      value: 0
      objectReference: {fileID: 0}
    - target: {fileID: -8348811622200807522, guid: 919ce009ff4dd244a86d07a5fd25e66e,
        type: 3}
      propertyPath: m_LocalPosition.x
      value: 0
      objectReference: {fileID: 0}
    - target: {fileID: -8348811622200807522, guid: 919ce009ff4dd244a86d07a5fd25e66e,
        type: 3}
      propertyPath: m_LocalPosition.y
      value: 0
      objectReference: {fileID: 0}
    - target: {fileID: -8348811622200807522, guid: 919ce009ff4dd244a86d07a5fd25e66e,
        type: 3}
      propertyPath: m_LocalPosition.z
      value: 0
      objectReference: {fileID: 0}
    - target: {fileID: -7647483033929818354, guid: 919ce009ff4dd244a86d07a5fd25e66e,
        type: 3}
      propertyPath: m_Materials.Array.data[0]
      value: 
      objectReference: {fileID: 2100000, guid: 7128fe7c8b408fd409c4a116f9eb98a6, type: 2}
    - target: {fileID: -6477229928983699596, guid: 919ce009ff4dd244a86d07a5fd25e66e,
        type: 3}
      propertyPath: m_Materials.Array.data[0]
      value: 
      objectReference: {fileID: 2100000, guid: 7128fe7c8b408fd409c4a116f9eb98a6, type: 2}
    - target: {fileID: -665817616261644573, guid: 919ce009ff4dd244a86d07a5fd25e66e,
        type: 3}
      propertyPath: m_LocalPosition.x
      value: 0
      objectReference: {fileID: 0}
    - target: {fileID: -665817616261644573, guid: 919ce009ff4dd244a86d07a5fd25e66e,
        type: 3}
      propertyPath: m_LocalPosition.z
      value: 0
      objectReference: {fileID: 0}
    - target: {fileID: 919132149155446097, guid: 919ce009ff4dd244a86d07a5fd25e66e,
        type: 3}
      propertyPath: m_Name
      value: Roca10_LOD
      objectReference: {fileID: 0}
    - target: {fileID: 5831788480675772660, guid: 919ce009ff4dd244a86d07a5fd25e66e,
        type: 3}
      propertyPath: m_Materials.Array.data[0]
      value: 
      objectReference: {fileID: 2100000, guid: 7128fe7c8b408fd409c4a116f9eb98a6, type: 2}
    - target: {fileID: 8983050515391259942, guid: 919ce009ff4dd244a86d07a5fd25e66e,
        type: 3}
      propertyPath: m_LocalPosition.x
      value: 0
      objectReference: {fileID: 0}
    m_RemovedComponents: []
  m_SourcePrefab: {fileID: 100100000, guid: 919ce009ff4dd244a86d07a5fd25e66e, type: 3}
--- !u!1 &2263917971646843055 stripped
GameObject:
  m_CorrespondingSourceObject: {fileID: -2140306023597305384, guid: 919ce009ff4dd244a86d07a5fd25e66e,
    type: 3}
  m_PrefabInstance: {fileID: 9018201399405091191}
  m_PrefabAsset: {fileID: 0}
--- !u!64 &5820943341188498564
MeshCollider:
  m_ObjectHideFlags: 0
  m_CorrespondingSourceObject: {fileID: 0}
  m_PrefabInstance: {fileID: 0}
  m_PrefabAsset: {fileID: 0}
  m_GameObject: {fileID: 2263917971646843055}
  m_Material: {fileID: 0}
  m_IsTrigger: 0
  m_Enabled: 1
  serializedVersion: 4
  m_Convex: 0
  m_CookingOptions: 30
  m_Mesh: {fileID: -2500860534040532154, guid: 919ce009ff4dd244a86d07a5fd25e66e, type: 3}
--- !u!4 &8839914165822160540 stripped
Transform:
  m_CorrespondingSourceObject: {fileID: -8679921383154817045, guid: 919ce009ff4dd244a86d07a5fd25e66e,
    type: 3}
  m_PrefabInstance: {fileID: 9018201399405091191}
  m_PrefabAsset: {fileID: 0}
