%YAML 1.1
%TAG !u! tag:unity3d.com,2011:
--- !u!114 &11400000
MonoBehaviour:
  m_ObjectHideFlags: 0
  m_CorrespondingSourceObject: {fileID: 0}
  m_PrefabInstance: {fileID: 0}
  m_PrefabAsset: {fileID: 0}
  m_GameObject: {fileID: 0}
  m_Enabled: 1
  m_EditorHideFlags: 0
  m_Script: {fileID: 11500000, guid: 80d4cf66b2c207443824e93192fd542e, type: 3}
  m_Name: AbilityDescriptor_LionFishBoss_SummonEnemies
  m_EditorClassIdentifier: 
  abilityCooldown: 0
  abilityFXs:
  - {fileID: 4211378582032341078, guid: 8273b6caa150afd41aaeaaf37270d43e, type: 3}
  enemiesToSummon:
  - gameObject: {fileID: 4706762109635200351, guid: 9d4e966a842ee8d488ef4b6efd3e7aa3,
      type: 3}
    locationOffset: {x: 10, y: 7.5, z: 0}
    rotationOffset: {x: 0, y: 0, z: 0}
  - gameObject: {fileID: 4706762109635200351, guid: 9d4e966a842ee8d488ef4b6efd3e7aa3,
      type: 3}
    locationOffset: {x: 10, y: -7.5, z: 0}
    rotationOffset: {x: 0, y: 0, z: 0}
