%YAML 1.1
%TAG !u! tag:unity3d.com,2011:
--- !u!1 &1808048548885048175
GameObject:
  m_ObjectHideFlags: 0
  m_CorrespondingSourceObject: {fileID: 0}
  m_PrefabInstance: {fileID: 0}
  m_PrefabAsset: {fileID: 0}
  serializedVersion: 6
  m_Component:
  - component: {fileID: 1808048548885048080}
  - component: {fileID: 1808048548885048083}
  - component: {fileID: 1808048548885048082}
  - component: {fileID: 1808048548885048172}
  - component: {fileID: 5225827040862581325}
  - component: {fileID: 1377753917614950812}
  - component: {fileID: 117359143008835690}
  m_Layer: 16
  m_Name: RedShotProjectile
  m_TagString: Untagged
  m_Icon: {fileID: 0}
  m_NavMeshLayer: 0
  m_StaticEditorFlags: 0
  m_IsActive: 1
--- !u!4 &1808048548885048080
Transform:
  m_ObjectHideFlags: 0
  m_CorrespondingSourceObject: {fileID: 0}
  m_PrefabInstance: {fileID: 0}
  m_PrefabAsset: {fileID: 0}
  m_GameObject: {fileID: 1808048548885048175}
  m_LocalRotation: {x: 0, y: 0, z: 0, w: 1}
  m_LocalPosition: {x: 0, y: 0, z: 0}
  m_LocalScale: {x: 1, y: 1, z: 0.01}
  m_ConstrainProportionsScale: 0
  m_Children:
  - {fileID: 4140340447283107589}
  - {fileID: 7595134726881885542}
  - {fileID: 6664811067168013855}
  - {fileID: 3024758974420632244}
  m_Father: {fileID: 0}
  m_RootOrder: 0
  m_LocalEulerAnglesHint: {x: 0, y: 0, z: 0}
--- !u!33 &1808048548885048083
MeshFilter:
  m_ObjectHideFlags: 0
  m_CorrespondingSourceObject: {fileID: 0}
  m_PrefabInstance: {fileID: 0}
  m_PrefabAsset: {fileID: 0}
  m_GameObject: {fileID: 1808048548885048175}
  m_Mesh: {fileID: 10210, guid: 0000000000000000e000000000000000, type: 0}
--- !u!23 &1808048548885048082
MeshRenderer:
  m_ObjectHideFlags: 0
  m_CorrespondingSourceObject: {fileID: 0}
  m_PrefabInstance: {fileID: 0}
  m_PrefabAsset: {fileID: 0}
  m_GameObject: {fileID: 1808048548885048175}
  m_Enabled: 1
  m_CastShadows: 1
  m_ReceiveShadows: 1
  m_DynamicOccludee: 1
  m_StaticShadowCaster: 0
  m_MotionVectors: 1
  m_LightProbeUsage: 1
  m_ReflectionProbeUsage: 1
  m_RayTracingMode: 2
  m_RayTraceProcedural: 0
  m_RenderingLayerMask: 1
  m_RendererPriority: 0
  m_Materials:
  - {fileID: 2100000, guid: 22d4bf0b6a8b77048aa3ee90ad651a6f, type: 2}
  m_StaticBatchInfo:
    firstSubMesh: 0
    subMeshCount: 0
  m_StaticBatchRoot: {fileID: 0}
  m_ProbeAnchor: {fileID: 0}
  m_LightProbeVolumeOverride: {fileID: 0}
  m_ScaleInLightmap: 1
  m_ReceiveGI: 1
  m_PreserveUVs: 0
  m_IgnoreNormalsForChartDetection: 0
  m_ImportantGI: 0
  m_StitchLightmapSeams: 1
  m_SelectedEditorRenderState: 3
  m_MinimumChartSize: 4
  m_AutoUVMaxDistance: 0.5
  m_AutoUVMaxAngle: 89
  m_LightmapParameters: {fileID: 0}
  m_SortingLayerID: 0
  m_SortingLayer: 0
  m_SortingOrder: 0
  m_AdditionalVertexStreams: {fileID: 0}
--- !u!54 &1808048548885048172
Rigidbody:
  m_ObjectHideFlags: 0
  m_CorrespondingSourceObject: {fileID: 0}
  m_PrefabInstance: {fileID: 0}
  m_PrefabAsset: {fileID: 0}
  m_GameObject: {fileID: 1808048548885048175}
  serializedVersion: 2
  m_Mass: 1
  m_Drag: 0
  m_AngularDrag: 0.05
  m_UseGravity: 0
  m_IsKinematic: 0
  m_Interpolate: 0
  m_Constraints: 112
  m_CollisionDetection: 0
--- !u!65 &5225827040862581325
BoxCollider:
  m_ObjectHideFlags: 0
  m_CorrespondingSourceObject: {fileID: 0}
  m_PrefabInstance: {fileID: 0}
  m_PrefabAsset: {fileID: 0}
  m_GameObject: {fileID: 1808048548885048175}
  m_Material: {fileID: 0}
  m_IsTrigger: 1
  m_Enabled: 1
  serializedVersion: 2
  m_Size: {x: 0.76128936, y: 0.7351577, z: 83.47149}
  m_Center: {x: 0.0019533634, y: 0.00038194656, z: -40.735752}
--- !u!114 &1377753917614950812
MonoBehaviour:
  m_ObjectHideFlags: 0
  m_CorrespondingSourceObject: {fileID: 0}
  m_PrefabInstance: {fileID: 0}
  m_PrefabAsset: {fileID: 0}
  m_GameObject: {fileID: 1808048548885048175}
  m_Enabled: 1
  m_EditorHideFlags: 0
  m_Script: {fileID: 11500000, guid: 9a6610d2e704f1648819acc8d7460285, type: 3}
  m_Name: 
  m_EditorClassIdentifier: 
  CollisionTag: 
  EventReference:
    Guid:
      Data1: -1910768082
      Data2: 1340146886
      Data3: 1033972114
      Data4: -1360517132
    Path: event:/SFX/Coralium/Water Shot/Water Shot
  Event: 
  PlayEvent: 0
  StopEvent: 0
  AllowFadeout: 1
  TriggerOnce: 0
  Preload: 0
  Params: []
  OverrideAttenuation: 0
  OverrideMinDistance: 1
  OverrideMaxDistance: 20
--- !u!114 &117359143008835690
MonoBehaviour:
  m_ObjectHideFlags: 0
  m_CorrespondingSourceObject: {fileID: 0}
  m_PrefabInstance: {fileID: 0}
  m_PrefabAsset: {fileID: 0}
  m_GameObject: {fileID: 1808048548885048175}
  m_Enabled: 1
  m_EditorHideFlags: 0
  m_Script: {fileID: 11500000, guid: de9910d9b79daa147a021ac1565ec898, type: 3}
  m_Name: 
  m_EditorClassIdentifier: 
  projectileSpeed: 50
  layerData: {fileID: 11400000, guid: d90667e38f692854f871a6ece5614e19, type: 2}
  shootSFX: {fileID: 1377753917614950812}
  shootCollideSFX: {fileID: 9177188109169979892}
  disolvereffect: {fileID: 5078636947414728507}
  burbujas: {fileID: 4140340447283107587}
  trail: {fileID: 3824921386381548725}
  targetSizeMultiplier: 15
  growSpeed: 10
  damage: 1
  damageType: 0
--- !u!1 &1866895624429419328
GameObject:
  m_ObjectHideFlags: 0
  m_CorrespondingSourceObject: {fileID: 0}
  m_PrefabInstance: {fileID: 0}
  m_PrefabAsset: {fileID: 0}
  serializedVersion: 6
  m_Component:
  - component: {fileID: 8347833381344901785}
  - component: {fileID: 1611626423666347649}
  - component: {fileID: 3824921386381548725}
  m_Layer: 0
  m_Name: Cylinder.001
  m_TagString: Untagged
  m_Icon: {fileID: 0}
  m_NavMeshLayer: 0
  m_StaticEditorFlags: 0
  m_IsActive: 1
--- !u!4 &8347833381344901785
Transform:
  m_ObjectHideFlags: 0
  m_CorrespondingSourceObject: {fileID: 0}
  m_PrefabInstance: {fileID: 0}
  m_PrefabAsset: {fileID: 0}
  m_GameObject: {fileID: 1866895624429419328}
  m_LocalRotation: {x: 0, y: 0.7071068, z: 0, w: 0.7071068}
  m_LocalPosition: {x: -0, y: 0, z: -0.905}
  m_LocalScale: {x: 36.575615, y: 32.81796, z: 72.9288}
  m_ConstrainProportionsScale: 0
  m_Children: []
  m_Father: {fileID: 6664811067168013855}
  m_RootOrder: 0
  m_LocalEulerAnglesHint: {x: 0, y: 90, z: 0}
--- !u!33 &1611626423666347649
MeshFilter:
  m_ObjectHideFlags: 0
  m_CorrespondingSourceObject: {fileID: 0}
  m_PrefabInstance: {fileID: 0}
  m_PrefabAsset: {fileID: 0}
  m_GameObject: {fileID: 1866895624429419328}
  m_Mesh: {fileID: 5329809369554974377, guid: e7c63df13907f6e43a1f4f456c663d0a, type: 3}
--- !u!23 &3824921386381548725
MeshRenderer:
  m_ObjectHideFlags: 0
  m_CorrespondingSourceObject: {fileID: 0}
  m_PrefabInstance: {fileID: 0}
  m_PrefabAsset: {fileID: 0}
  m_GameObject: {fileID: 1866895624429419328}
  m_Enabled: 1
  m_CastShadows: 1
  m_ReceiveShadows: 1
  m_DynamicOccludee: 1
  m_StaticShadowCaster: 0
  m_MotionVectors: 1
  m_LightProbeUsage: 1
  m_ReflectionProbeUsage: 1
  m_RayTracingMode: 2
  m_RayTraceProcedural: 0
  m_RenderingLayerMask: 1
  m_RendererPriority: 0
  m_Materials:
  - {fileID: 2100000, guid: 4f42fc249e232cc40b05d70770e1eb5f, type: 2}
  m_StaticBatchInfo:
    firstSubMesh: 0
    subMeshCount: 0
  m_StaticBatchRoot: {fileID: 0}
  m_ProbeAnchor: {fileID: 0}
  m_LightProbeVolumeOverride: {fileID: 0}
  m_ScaleInLightmap: 1
  m_ReceiveGI: 1
  m_PreserveUVs: 0
  m_IgnoreNormalsForChartDetection: 0
  m_ImportantGI: 0
  m_StitchLightmapSeams: 1
  m_SelectedEditorRenderState: 3
  m_MinimumChartSize: 4
  m_AutoUVMaxDistance: 0.5
  m_AutoUVMaxAngle: 89
  m_LightmapParameters: {fileID: 0}
  m_SortingLayerID: 0
  m_SortingLayer: 0
  m_SortingOrder: 0
  m_AdditionalVertexStreams: {fileID: 0}
--- !u!1 &7433489283313190886
GameObject:
  m_ObjectHideFlags: 0
  m_CorrespondingSourceObject: {fileID: 0}
  m_PrefabInstance: {fileID: 0}
  m_PrefabAsset: {fileID: 0}
  serializedVersion: 6
  m_Component:
  - component: {fileID: 3024758974420632244}
  - component: {fileID: 5078636947414728507}
  - component: {fileID: 2307274888687087903}
  - component: {fileID: 9177188109169979892}
  m_Layer: 0
  m_Name: DisolverBala
  m_TagString: Untagged
  m_Icon: {fileID: 0}
  m_NavMeshLayer: 0
  m_StaticEditorFlags: 0
  m_IsActive: 1
--- !u!4 &3024758974420632244
Transform:
  m_ObjectHideFlags: 0
  m_CorrespondingSourceObject: {fileID: 0}
  m_PrefabInstance: {fileID: 0}
  m_PrefabAsset: {fileID: 0}
  m_GameObject: {fileID: 7433489283313190886}
  m_LocalRotation: {x: 0, y: 0, z: 0, w: 1}
  m_LocalPosition: {x: 0, y: 0, z: 0}
  m_LocalScale: {x: 1, y: 1, z: 1}
  m_ConstrainProportionsScale: 0
  m_Children: []
  m_Father: {fileID: 1808048548885048080}
  m_RootOrder: 3
  m_LocalEulerAnglesHint: {x: 0, y: 0, z: 0}
--- !u!2083052967 &5078636947414728507
VisualEffect:
  m_ObjectHideFlags: 0
  m_CorrespondingSourceObject: {fileID: 0}
  m_PrefabInstance: {fileID: 0}
  m_PrefabAsset: {fileID: 0}
  m_GameObject: {fileID: 7433489283313190886}
  m_Enabled: 1
  m_Asset: {fileID: 0}
  m_InitialEventName: 
  m_InitialEventNameOverriden: 1
  m_StartSeed: 0
  m_ResetSeedOnPlay: 1
  m_ResourceVersion: 1
  m_PropertySheet:
    m_Float:
      m_Array:
      - m_Value: 200
        m_Name: Rate
        m_Overridden: 1
      - m_Value: 0.34
        m_Name: CirculoEmision_radius
        m_Overridden: 1
    m_Vector2f:
      m_Array:
      - m_Value: {x: 0.1, y: 0.2}
        m_Name: Size
        m_Overridden: 1
      - m_Value: {x: 1, y: 2}
        m_Name: TiempoVida
        m_Overridden: 1
    m_Vector3f:
      m_Array:
      - m_Value: {x: -0.04, y: -0.04, z: 0}
        m_Name: VelocidadMin
        m_Overridden: 1
      - m_Value: {x: 0.04, y: 0.04, z: 0}
        m_Name: VelocidadMax
        m_Overridden: 1
      - m_Value: {x: 0, y: 0.2, z: 0}
        m_Name: Gravedad
        m_Overridden: 1
      - m_Value: {x: 0, y: 0, z: 0}
        m_Name: CirculoEmision_transform_position
        m_Overridden: 1
      - m_Value: {x: 0, y: 0, z: 0}
        m_Name: CirculoEmision_transform_angles
        m_Overridden: 1
      - m_Value: {x: 1, y: 1, z: 1}
        m_Name: CirculoEmision_transform_scale
        m_Overridden: 1
    m_Vector4f:
      m_Array:
      - m_Value: {x: 125.58491, y: 108.10997, z: 0, w: 1}
        m_Name: Color
        m_Overridden: 1
    m_Uint:
      m_Array: []
    m_Int:
      m_Array: []
    m_Matrix4x4f:
      m_Array: []
    m_AnimationCurve:
      m_Array: []
    m_Gradient:
      m_Array: []
    m_NamedObject:
      m_Array:
      - m_Value: {fileID: 10300, guid: 0000000000000000f000000000000000, type: 0}
        m_Name: Tex
        m_Overridden: 1
    m_Bool:
      m_Array: []
--- !u!73398921 &2307274888687087903
VFXRenderer:
  serializedVersion: 1
  m_ObjectHideFlags: 0
  m_CorrespondingSourceObject: {fileID: 0}
  m_PrefabInstance: {fileID: 0}
  m_PrefabAsset: {fileID: 0}
  m_GameObject: {fileID: 7433489283313190886}
  m_Enabled: 1
  m_CastShadows: 0
  m_ReceiveShadows: 0
  m_DynamicOccludee: 1
  m_StaticShadowCaster: 0
  m_MotionVectors: 0
  m_LightProbeUsage: 0
  m_ReflectionProbeUsage: 0
  m_RayTracingMode: 0
  m_RayTraceProcedural: 0
  m_RenderingLayerMask: 1
  m_RendererPriority: 0
  m_StaticBatchInfo:
    firstSubMesh: 0
    subMeshCount: 0
  m_StaticBatchRoot: {fileID: 0}
  m_ProbeAnchor: {fileID: 0}
  m_LightProbeVolumeOverride: {fileID: 0}
  m_ScaleInLightmap: 1
  m_ReceiveGI: 1
  m_PreserveUVs: 0
  m_IgnoreNormalsForChartDetection: 0
  m_ImportantGI: 0
  m_StitchLightmapSeams: 1
  m_SelectedEditorRenderState: 3
  m_MinimumChartSize: 4
  m_AutoUVMaxDistance: 0.5
  m_AutoUVMaxAngle: 89
  m_LightmapParameters: {fileID: 0}
  m_SortingLayerID: 0
  m_SortingLayer: 0
  m_SortingOrder: 0
--- !u!114 &9177188109169979892
MonoBehaviour:
  m_ObjectHideFlags: 0
  m_CorrespondingSourceObject: {fileID: 0}
  m_PrefabInstance: {fileID: 0}
  m_PrefabAsset: {fileID: 0}
  m_GameObject: {fileID: 7433489283313190886}
  m_Enabled: 1
  m_EditorHideFlags: 0
  m_Script: {fileID: 11500000, guid: 9a6610d2e704f1648819acc8d7460285, type: 3}
  m_Name: 
  m_EditorClassIdentifier: 
  CollisionTag: 
  EventReference:
    Guid:
      Data1: -1798465922
      Data2: 1253443172
      Data3: -41930833
      Data4: -529915023
    Path: event:/SFX/Coralium/Water Shot/Water Shot Impact
  Event: 
  PlayEvent: 0
  StopEvent: 0
  AllowFadeout: 1
  TriggerOnce: 0
  Preload: 0
  Params: []
  OverrideAttenuation: 0
  OverrideMinDistance: 1
  OverrideMaxDistance: 20
--- !u!1 &8508835639023629877
GameObject:
  m_ObjectHideFlags: 0
  m_CorrespondingSourceObject: {fileID: 0}
  m_PrefabInstance: {fileID: 0}
  m_PrefabAsset: {fileID: 0}
  serializedVersion: 6
  m_Component:
  - component: {fileID: 7595134726881885542}
  - component: {fileID: 4965368864438042714}
  m_Layer: 16
  m_Name: Trail
  m_TagString: Untagged
  m_Icon: {fileID: 0}
  m_NavMeshLayer: 0
  m_StaticEditorFlags: 0
  m_IsActive: 0
--- !u!4 &7595134726881885542
Transform:
  m_ObjectHideFlags: 0
  m_CorrespondingSourceObject: {fileID: 0}
  m_PrefabInstance: {fileID: 0}
  m_PrefabAsset: {fileID: 0}
  m_GameObject: {fileID: 8508835639023629877}
  m_LocalRotation: {x: -0, y: -0, z: -0, w: 1}
  m_LocalPosition: {x: 0, y: 0, z: 0}
  m_LocalScale: {x: 1, y: 1, z: 0.01}
  m_ConstrainProportionsScale: 0
  m_Children: []
  m_Father: {fileID: 1808048548885048080}
  m_RootOrder: 1
  m_LocalEulerAnglesHint: {x: 0, y: 0, z: 0}
--- !u!96 &4965368864438042714
TrailRenderer:
  serializedVersion: 2
  m_ObjectHideFlags: 0
  m_CorrespondingSourceObject: {fileID: 0}
  m_PrefabInstance: {fileID: 0}
  m_PrefabAsset: {fileID: 0}
  m_GameObject: {fileID: 8508835639023629877}
  m_Enabled: 1
  m_CastShadows: 1
  m_ReceiveShadows: 1
  m_DynamicOccludee: 1
  m_StaticShadowCaster: 0
  m_MotionVectors: 0
  m_LightProbeUsage: 0
  m_ReflectionProbeUsage: 0
  m_RayTracingMode: 0
  m_RayTraceProcedural: 0
  m_RenderingLayerMask: 1
  m_RendererPriority: 0
  m_Materials:
  - {fileID: 2100000, guid: 8b69d21d616ff9e4d8e80da189142084, type: 2}
  m_StaticBatchInfo:
    firstSubMesh: 0
    subMeshCount: 0
  m_StaticBatchRoot: {fileID: 0}
  m_ProbeAnchor: {fileID: 0}
  m_LightProbeVolumeOverride: {fileID: 0}
  m_ScaleInLightmap: 1
  m_ReceiveGI: 1
  m_PreserveUVs: 0
  m_IgnoreNormalsForChartDetection: 0
  m_ImportantGI: 0
  m_StitchLightmapSeams: 1
  m_SelectedEditorRenderState: 3
  m_MinimumChartSize: 4
  m_AutoUVMaxDistance: 0.5
  m_AutoUVMaxAngle: 89
  m_LightmapParameters: {fileID: 0}
  m_SortingLayerID: 0
  m_SortingLayer: 0
  m_SortingOrder: 0
  m_Time: 5
  m_Parameters:
    serializedVersion: 3
    widthMultiplier: 5
    widthCurve:
      serializedVersion: 2
      m_Curve:
      - serializedVersion: 3
        time: 0
        value: 1
        inSlope: 0
        outSlope: 0
        tangentMode: 0
        weightedMode: 0
        inWeight: 0.33333334
        outWeight: 0.33333334
      m_PreInfinity: 2
      m_PostInfinity: 2
      m_RotationOrder: 4
    colorGradient:
      serializedVersion: 2
      key0: {r: 1, g: 1, b: 1, a: 1}
      key1: {r: 1, g: 1, b: 1, a: 1}
      key2: {r: 0, g: 0, b: 0, a: 0}
      key3: {r: 0, g: 0, b: 0, a: 0}
      key4: {r: 0, g: 0, b: 0, a: 0}
      key5: {r: 0, g: 0, b: 0, a: 0}
      key6: {r: 0, g: 0, b: 0, a: 0}
      key7: {r: 0, g: 0, b: 0, a: 0}
      ctime0: 0
      ctime1: 65535
      ctime2: 0
      ctime3: 0
      ctime4: 0
      ctime5: 0
      ctime6: 0
      ctime7: 0
      atime0: 0
      atime1: 65535
      atime2: 0
      atime3: 0
      atime4: 0
      atime5: 0
      atime6: 0
      atime7: 0
      m_Mode: 0
      m_NumColorKeys: 2
      m_NumAlphaKeys: 2
    numCornerVertices: 0
    numCapVertices: 0
    alignment: 0
    textureMode: 0
    shadowBias: 0.5
    generateLightingData: 0
  m_MinVertexDistance: 0.1
  m_Autodestruct: 0
  m_Emitting: 1
--- !u!1 &8944019585147040900
GameObject:
  m_ObjectHideFlags: 0
  m_CorrespondingSourceObject: {fileID: 0}
  m_PrefabInstance: {fileID: 0}
  m_PrefabAsset: {fileID: 0}
  serializedVersion: 6
  m_Component:
  - component: {fileID: 6664811067168013855}
  m_Layer: 0
  m_Name: cilindrohueco
  m_TagString: Untagged
  m_Icon: {fileID: 0}
  m_NavMeshLayer: 0
  m_StaticEditorFlags: 0
  m_IsActive: 1
--- !u!4 &6664811067168013855
Transform:
  m_ObjectHideFlags: 0
  m_CorrespondingSourceObject: {fileID: 0}
  m_PrefabInstance: {fileID: 0}
  m_PrefabAsset: {fileID: 0}
  m_GameObject: {fileID: 8944019585147040900}
  m_LocalRotation: {x: 0, y: 0, z: 0, w: 1}
  m_LocalPosition: {x: 0, y: 0, z: -26.6}
  m_LocalScale: {x: 0.33206, y: 0.66412, z: 53.1296}
  m_ConstrainProportionsScale: 0
  m_Children:
  - {fileID: 8347833381344901785}
  m_Father: {fileID: 1808048548885048080}
  m_RootOrder: 2
  m_LocalEulerAnglesHint: {x: 0, y: 0, z: 0}
--- !u!1001 &760799908149579511
PrefabInstance:
  m_ObjectHideFlags: 0
  serializedVersion: 2
  m_Modification:
    m_TransformParent: {fileID: 1808048548885048080}
    m_Modifications:
    - target: {fileID: 3745753331010247154, guid: 1f2bd7cc0839c1846a2892988f84bf2e,
        type: 3}
      propertyPath: m_RootOrder
      value: 0
      objectReference: {fileID: 0}
    - target: {fileID: 3745753331010247154, guid: 1f2bd7cc0839c1846a2892988f84bf2e,
        type: 3}
      propertyPath: m_LocalPosition.x
      value: 0
      objectReference: {fileID: 0}
    - target: {fileID: 3745753331010247154, guid: 1f2bd7cc0839c1846a2892988f84bf2e,
        type: 3}
      propertyPath: m_LocalPosition.y
      value: 0
      objectReference: {fileID: 0}
    - target: {fileID: 3745753331010247154, guid: 1f2bd7cc0839c1846a2892988f84bf2e,
        type: 3}
      propertyPath: m_LocalPosition.z
      value: 0
      objectReference: {fileID: 0}
    - target: {fileID: 3745753331010247154, guid: 1f2bd7cc0839c1846a2892988f84bf2e,
        type: 3}
      propertyPath: m_LocalRotation.w
      value: 1
      objectReference: {fileID: 0}
    - target: {fileID: 3745753331010247154, guid: 1f2bd7cc0839c1846a2892988f84bf2e,
        type: 3}
      propertyPath: m_LocalRotation.x
      value: 0
      objectReference: {fileID: 0}
    - target: {fileID: 3745753331010247154, guid: 1f2bd7cc0839c1846a2892988f84bf2e,
        type: 3}
      propertyPath: m_LocalRotation.y
      value: 0
      objectReference: {fileID: 0}
    - target: {fileID: 3745753331010247154, guid: 1f2bd7cc0839c1846a2892988f84bf2e,
        type: 3}
      propertyPath: m_LocalRotation.z
      value: 0
      objectReference: {fileID: 0}
    - target: {fileID: 3745753331010247154, guid: 1f2bd7cc0839c1846a2892988f84bf2e,
        type: 3}
      propertyPath: m_LocalEulerAnglesHint.x
      value: 0
      objectReference: {fileID: 0}
    - target: {fileID: 3745753331010247154, guid: 1f2bd7cc0839c1846a2892988f84bf2e,
        type: 3}
      propertyPath: m_LocalEulerAnglesHint.y
      value: 0
      objectReference: {fileID: 0}
    - target: {fileID: 3745753331010247154, guid: 1f2bd7cc0839c1846a2892988f84bf2e,
        type: 3}
      propertyPath: m_LocalEulerAnglesHint.z
      value: 0
      objectReference: {fileID: 0}
    - target: {fileID: 3745753331010247155, guid: 1f2bd7cc0839c1846a2892988f84bf2e,
        type: 3}
      propertyPath: m_Name
      value: BurbujasCirculoEmision
      objectReference: {fileID: 0}
    - target: {fileID: 3745753331010247155, guid: 1f2bd7cc0839c1846a2892988f84bf2e,
        type: 3}
      propertyPath: m_IsActive
      value: 0
      objectReference: {fileID: 0}
    - target: {fileID: 3745753331010247156, guid: 1f2bd7cc0839c1846a2892988f84bf2e,
        type: 3}
      propertyPath: m_Asset
      value: 
      objectReference: {fileID: 0}
    - target: {fileID: 3745753331010247156, guid: 1f2bd7cc0839c1846a2892988f84bf2e,
        type: 3}
      propertyPath: m_PropertySheet.m_Float.m_Array.Array.size
      value: 6
      objectReference: {fileID: 0}
    - target: {fileID: 3745753331010247156, guid: 1f2bd7cc0839c1846a2892988f84bf2e,
        type: 3}
      propertyPath: m_PropertySheet.m_Float.m_Array.Array.data[5].m_Name
      value: Smooth
      objectReference: {fileID: 0}
    - target: {fileID: 3745753331010247156, guid: 1f2bd7cc0839c1846a2892988f84bf2e,
        type: 3}
      propertyPath: m_PropertySheet.m_Float.m_Array.Array.data[1].m_Value
      value: 300
      objectReference: {fileID: 0}
    - target: {fileID: 3745753331010247156, guid: 1f2bd7cc0839c1846a2892988f84bf2e,
        type: 3}
      propertyPath: m_PropertySheet.m_Float.m_Array.Array.data[4].m_Value
      value: 0.4
      objectReference: {fileID: 0}
    - target: {fileID: 3745753331010247156, guid: 1f2bd7cc0839c1846a2892988f84bf2e,
        type: 3}
      propertyPath: m_PropertySheet.m_Float.m_Array.Array.data[5].m_Value
      value: 0.8
      objectReference: {fileID: 0}
    - target: {fileID: 3745753331010247156, guid: 1f2bd7cc0839c1846a2892988f84bf2e,
        type: 3}
      propertyPath: m_PropertySheet.m_Float.m_Array.Array.data[5].m_Overridden
      value: 1
      objectReference: {fileID: 0}
    - target: {fileID: 3745753331010247156, guid: 1f2bd7cc0839c1846a2892988f84bf2e,
        type: 3}
      propertyPath: m_PropertySheet.m_Vector2f.m_Array.Array.data[0].m_Value.x
      value: 0.08
      objectReference: {fileID: 0}
    - target: {fileID: 3745753331010247156, guid: 1f2bd7cc0839c1846a2892988f84bf2e,
        type: 3}
      propertyPath: m_PropertySheet.m_Vector2f.m_Array.Array.data[0].m_Value.y
      value: 0.12
      objectReference: {fileID: 0}
    - target: {fileID: 3745753331010247156, guid: 1f2bd7cc0839c1846a2892988f84bf2e,
        type: 3}
      propertyPath: m_PropertySheet.m_Vector3f.m_Array.Array.data[0].m_Value.x
      value: 0
      objectReference: {fileID: 0}
    - target: {fileID: 3745753331010247156, guid: 1f2bd7cc0839c1846a2892988f84bf2e,
        type: 3}
      propertyPath: m_PropertySheet.m_Vector3f.m_Array.Array.data[0].m_Value.z
      value: 0
      objectReference: {fileID: 0}
    - target: {fileID: 3745753331010247156, guid: 1f2bd7cc0839c1846a2892988f84bf2e,
        type: 3}
      propertyPath: m_PropertySheet.m_Vector3f.m_Array.Array.data[1].m_Value.x
      value: 0
      objectReference: {fileID: 0}
    - target: {fileID: 3745753331010247156, guid: 1f2bd7cc0839c1846a2892988f84bf2e,
        type: 3}
      propertyPath: m_PropertySheet.m_Vector3f.m_Array.Array.data[1].m_Value.z
      value: 0
      objectReference: {fileID: 0}
    - target: {fileID: 3745753331010247156, guid: 1f2bd7cc0839c1846a2892988f84bf2e,
        type: 3}
      propertyPath: m_PropertySheet.m_Vector3f.m_Array.Array.data[2].m_Value.y
      value: 0.1
      objectReference: {fileID: 0}
    - target: {fileID: 3745753331010247156, guid: 1f2bd7cc0839c1846a2892988f84bf2e,
        type: 3}
      propertyPath: m_PropertySheet.m_Vector3f.m_Array.Array.data[4].m_Value.x
      value: 0
      objectReference: {fileID: 0}
    - target: {fileID: 3745753331010247156, guid: 1f2bd7cc0839c1846a2892988f84bf2e,
        type: 3}
      propertyPath: m_PropertySheet.m_Vector4f.m_Array.Array.data[0].m_Value.w
      value: 1
      objectReference: {fileID: 0}
    - target: {fileID: 3745753331010247156, guid: 1f2bd7cc0839c1846a2892988f84bf2e,
        type: 3}
      propertyPath: m_PropertySheet.m_Vector4f.m_Array.Array.data[0].m_Value.x
      value: 7.8745103
      objectReference: {fileID: 0}
    - target: {fileID: 3745753331010247156, guid: 1f2bd7cc0839c1846a2892988f84bf2e,
        type: 3}
      propertyPath: m_PropertySheet.m_Vector4f.m_Array.Array.data[0].m_Value.y
      value: 0.567971
      objectReference: {fileID: 0}
    - target: {fileID: 3745753331010247156, guid: 1f2bd7cc0839c1846a2892988f84bf2e,
        type: 3}
      propertyPath: m_PropertySheet.m_Vector4f.m_Array.Array.data[0].m_Value.z
      value: 0
      objectReference: {fileID: 0}
    - target: {fileID: 3745753331010247156, guid: 1f2bd7cc0839c1846a2892988f84bf2e,
        type: 3}
      propertyPath: m_PropertySheet.m_Vector4f.m_Array.Array.data[0].m_Overridden
      value: 1
      objectReference: {fileID: 0}
    - target: {fileID: 3745753331010247157, guid: 1f2bd7cc0839c1846a2892988f84bf2e,
        type: 3}
      propertyPath: m_Enabled
      value: 0
      objectReference: {fileID: 0}
    m_RemovedComponents: []
  m_SourcePrefab: {fileID: 100100000, guid: 1f2bd7cc0839c1846a2892988f84bf2e, type: 3}
--- !u!2083052967 &4140340447283107587 stripped
VisualEffect:
  m_CorrespondingSourceObject: {fileID: 3745753331010247156, guid: 1f2bd7cc0839c1846a2892988f84bf2e,
    type: 3}
  m_PrefabInstance: {fileID: 760799908149579511}
  m_PrefabAsset: {fileID: 0}
--- !u!4 &4140340447283107589 stripped
Transform:
  m_CorrespondingSourceObject: {fileID: 3745753331010247154, guid: 1f2bd7cc0839c1846a2892988f84bf2e,
    type: 3}
  m_PrefabInstance: {fileID: 760799908149579511}
  m_PrefabAsset: {fileID: 0}
