%YAML 1.1
%TAG !u! tag:unity3d.com,2011:
--- !u!114 &-4809944826828723390
MonoBehaviour:
  m_ObjectHideFlags: 11
  m_CorrespondingSourceObject: {fileID: 0}
  m_PrefabInstance: {fileID: 0}
  m_PrefabAsset: {fileID: 0}
  m_GameObject: {fileID: 0}
  m_Enabled: 1
  m_EditorHideFlags: 0
  m_Script: {fileID: 11500000, guid: d0353a89b1f911e48b9e16bdc9f2e058, type: 3}
  m_Name: 
  m_EditorClassIdentifier: 
  version: 5
--- !u!21 &2100000
Material:
  serializedVersion: 8
  m_ObjectHideFlags: 0
  m_CorrespondingSourceObject: {fileID: 0}
  m_PrefabInstance: {fileID: 0}
  m_PrefabAsset: {fileID: 0}
  m_Name: Seagrass 14
  m_Shader: {fileID: -6465566751694194690, guid: a89329bcd20a90143ad4670541029dd2,
    type: 3}
  m_ValidKeywords: []
  m_InvalidKeywords: []
  m_LightmapFlags: 4
  m_EnableInstancingVariants: 1
  m_DoubleSidedGI: 0
  m_CustomRenderQueue: 2450
  stringTagMap: {}
  disabledShaderPasses: []
  m_SavedProperties:
    serializedVersion: 3
    m_TexEnvs:
    - Texture2D_79A5C724:
        m_Texture: {fileID: 2800000, guid: dacfa8627d9f0424f9fe8e701d392cd1, type: 3}
        m_Scale: {x: 1, y: 1}
        m_Offset: {x: 0, y: 0}
    - Texture2D_998D3016:
        m_Texture: {fileID: 0}
        m_Scale: {x: 1, y: 1}
        m_Offset: {x: 0, y: 0}
    - _BrushTexture:
        m_Texture: {fileID: 2800000, guid: c61e12b00f19ecd448a748ee4f011b63, type: 3}
        m_Scale: {x: 1, y: 1}
        m_Offset: {x: 0, y: 0}
    - _BumpMap:
        m_Texture: {fileID: 0}
        m_Scale: {x: 1, y: 1}
        m_Offset: {x: 0, y: 0}
    - _DetailAlbedoMap:
        m_Texture: {fileID: 0}
        m_Scale: {x: 1, y: 1}
        m_Offset: {x: 0, y: 0}
    - _DetailMask:
        m_Texture: {fileID: 0}
        m_Scale: {x: 1, y: 1}
        m_Offset: {x: 0, y: 0}
    - _DetailNormalMap:
        m_Texture: {fileID: 0}
        m_Scale: {x: 1, y: 1}
        m_Offset: {x: 0, y: 0}
    - _EmissionMap:
        m_Texture: {fileID: 0}
        m_Scale: {x: 1, y: 1}
        m_Offset: {x: 0, y: 0}
    - _GrassTexture:
        m_Texture: {fileID: 2800000, guid: d7b0df30f84b7354295488dd3b5e5dad, type: 3}
        m_Scale: {x: 1, y: 1}
        m_Offset: {x: 0, y: 0}
    - _MainTex:
        m_Texture: {fileID: 0}
        m_Scale: {x: 1, y: 1}
        m_Offset: {x: 0, y: 0}
    - _MetallicGlossMap:
        m_Texture: {fileID: 0}
        m_Scale: {x: 1, y: 1}
        m_Offset: {x: 0, y: 0}
    - _Normal:
        m_Texture: {fileID: 0}
        m_Scale: {x: 1, y: 1}
        m_Offset: {x: 0, y: 0}
    - _OcclusionMap:
        m_Texture: {fileID: 0}
        m_Scale: {x: 1, y: 1}
        m_Offset: {x: 0, y: 0}
    - _ParallaxMap:
        m_Texture: {fileID: 0}
        m_Scale: {x: 1, y: 1}
        m_Offset: {x: 0, y: 0}
    - _SampleTexture2D_f828d0365cb94d67a8ff6c9d437cbc30_Texture_1:
        m_Texture: {fileID: 2800000, guid: d7b0df30f84b7354295488dd3b5e5dad, type: 3}
        m_Scale: {x: 1, y: 1}
        m_Offset: {x: 0, y: 0}
    - _Tex:
        m_Texture: {fileID: 2800000, guid: dacfa8627d9f0424f9fe8e701d392cd1, type: 3}
        m_Scale: {x: 1, y: 1}
        m_Offset: {x: 0, y: 0}
    - _TexNormal:
        m_Texture: {fileID: 0}
        m_Scale: {x: 1, y: 1}
        m_Offset: {x: 0, y: 0}
    - _Texture:
        m_Texture: {fileID: 0}
        m_Scale: {x: 1, y: 1}
        m_Offset: {x: 0, y: 0}
    - _texcoord:
        m_Texture: {fileID: 0}
        m_Scale: {x: 1, y: 1}
        m_Offset: {x: 0, y: 0}
    - unity_Lightmaps:
        m_Texture: {fileID: 0}
        m_Scale: {x: 1, y: 1}
        m_Offset: {x: 0, y: 0}
    - unity_LightmapsInd:
        m_Texture: {fileID: 0}
        m_Scale: {x: 1, y: 1}
        m_Offset: {x: 0, y: 0}
    - unity_ShadowMasks:
        m_Texture: {fileID: 0}
        m_Scale: {x: 1, y: 1}
        m_Offset: {x: 0, y: 0}
    m_Ints: []
    m_Floats:
    - Vector1_AmplitudeWaveX: 0.046
    - Vector1_AmplitudeWaveX_1: 0.066
    - Vector1_AmplitudeWaveY: 0
    - Vector1_FrequencyWaveX: 0.1
    - Vector1_FrequencyWaveX_1: 6.09
    - Vector1_FrequencyWaveY: 0.71
    - Vector1_Grow: 1
    - Vector1_SpeedWaveX: 0
    - Vector1_SpeedWaveX_1: 0.75
    - Vector1_SpeedWaveX_3: 0
    - Vector1_SpeedWaveY: 1.76
    - _AlphaClip: 1
    - _AvoidStrengh: 4
    - _BrushOpacity: 0.672
    - _BrushStrength: 7.5
    - _BumpScale: 1
    - _ColorStrength: 1
    - _ColorVariation: 0
    - _ColorVariationScale: 0
    - _Cutoff: 0.5
    - _DepthFactor: 7.97
    - _DepthOffset: 0.15
    - _DetailNormalMapScale: 1
    - _Distance: 0.35
    - _DstBlend: 0
    - _EdgeWidth: -4.15
    - _FlutterMultiplier: 3
    - _FlutterScale: 0
    - _FlutterSpeed: 0
    - _GlossMapScale: 1
    - _Glossiness: 0.5
    - _GlossyReflections: 1
    - _GradientAmount: 2.38
    - _GradientOffset: 0
    - _GradientSmoothness: 0
    - _Height: 100
    - _InclinationX: 0
    - _InclinationY: 0
    - _Inclinationz: 0
    - _LowerLightTransmission: 0
    - _Metallic: 0
    - _Mode: 0
    - _NoiseScale: 458
    - _NoiseSize: 50
    - _NoiseStregth: 0.25
    - _NormalStrength: 1
    - _OcclusionStrength: 1
    - _OffsetVisible: 30
    - _OnlyColor: 0
    - _Parallax: 0.02
    - _QueueControl: 1
    - _QueueOffset: 0
    - _Radius: 7.2
    - _RandomMoveSpeed: 2.07
    - _RandomMoveStrength: 1.44
    - _RangoVisible: 0.01
    - _RotationTexture: 195
    - _ShowDepth: 0
    - _ShowPivot: 0
    - _Smooth: 0.5
    - _Smoothness: 0
    - _SmoothnessTextureChannel: 0
    - _SpecularHighlights: 1
    - _SrcBlend: 1
    - _UVSec: 0
    - _UpperLightTransmission: 0
    - _VerPivot: 0
    - _WindNoiseSize: 0.1
    - _WindScale: 1
    - _WindSpeed: 0.95
    - _WindStrength: 1.06
    - _ZWrite: 1
    - __dirty: 0
    m_Colors:
    - _AOColor: {r: 0, g: 0, b: 0, a: 0}
    - _AvoidDirection: {r: 0, g: 0, b: 0, a: 0}
    - _BottomColor: {r: 0.9056604, g: 0.59060144, b: 0.49127805, a: 0}
    - _BrushColor: {r: 0.23921569, g: 1, b: 0, a: 1}
    - _Color: {r: 0.3008188, g: 0.3773585, b: 0.3773585, a: 1}
    - _ColorEdge1: {r: 0, g: 0.7647059, b: 0.7529412, a: 1}
    - _Deformation: {r: 0, g: 0, b: 0, a: 0}
    - _EmissionColor: {r: 0, g: 0, b: 0, a: 1}
    - _Pivot: {r: 0, g: 0, b: 4.89, a: 0}
    - _PivotIntensity: {r: 1, g: 1, b: 1, a: 0}
    - _PivotSize: {r: 10.66, g: 1, b: 1, a: 0}
    - _RandomDirection: {r: 1, g: 1, b: 1, a: 0}
    - _SecondaryWindDirection: {r: 0, g: 0, b: 0, a: 0}
    - _TillingTexture: {r: 5, g: 10, b: 0, a: 0}
    - _TopColor: {r: 0.8207547, g: 0.42045784, b: 0.29036134, a: 0}
    - _TrackedPosition: {r: 0, g: 0, b: 0, a: 0}
    - _WindDirection: {r: 0, g: 0, b: 0, a: 0}
    - _WindStrength: {r: 0.2, g: 0, b: 0.2, a: 0}
  m_BuildTextureStacks: []
