%YAML 1.1
%TAG !u! tag:unity3d.com,2011:
--- !u!114 &-2879214847573158111
MonoBehaviour:
  m_ObjectHideFlags: 11
  m_CorrespondingSourceObject: {fileID: 0}
  m_PrefabInstance: {fileID: 0}
  m_PrefabAsset: {fileID: 0}
  m_GameObject: {fileID: 0}
  m_Enabled: 1
  m_EditorHideFlags: 0
  m_Script: {fileID: 11500000, guid: d0353a89b1f911e48b9e16bdc9f2e058, type: 3}
  m_Name: 
  m_EditorClassIdentifier: 
  version: 5
--- !u!21 &2100000
Material:
  serializedVersion: 8
  m_ObjectHideFlags: 0
  m_CorrespondingSourceObject: {fileID: 0}
  m_PrefabInstance: {fileID: 0}
  m_PrefabAsset: {fileID: 0}
  m_Name: SeaGrass 16
  m_Shader: {fileID: -6465566751694194690, guid: a89329bcd20a90143ad4670541029dd2,
    type: 3}
  m_ValidKeywords: []
  m_InvalidKeywords: []
  m_LightmapFlags: 4
  m_EnableInstancingVariants: 1
  m_DoubleSidedGI: 0
  m_CustomRenderQueue: 2450
  stringTagMap: {}
  disabledShaderPasses: []
  m_SavedProperties:
    serializedVersion: 3
    m_TexEnvs:
    - Base_Map:
        m_Texture: {fileID: 0}
        m_Scale: {x: 1, y: 1}
        m_Offset: {x: 0, y: 0}
    - Normal_Map:
        m_Texture: {fileID: 0}
        m_Scale: {x: 1, y: 1}
        m_Offset: {x: 0, y: 0}
    - _ALpha:
        m_Texture: {fileID: 2800000, guid: d7b0df30f84b7354295488dd3b5e5dad, type: 3}
        m_Scale: {x: 1, y: 1}
        m_Offset: {x: 0, y: 0}
    - _BaseMap:
        m_Texture: {fileID: 0}
        m_Scale: {x: 1, y: 1}
        m_Offset: {x: 0, y: 0}
    - _BrushTexture:
        m_Texture: {fileID: 2800000, guid: c61e12b00f19ecd448a748ee4f011b63, type: 3}
        m_Scale: {x: 1, y: 1}
        m_Offset: {x: 0, y: 0}
    - _BumpMap:
        m_Texture: {fileID: 0}
        m_Scale: {x: 1, y: 1}
        m_Offset: {x: 0, y: 0}
    - _DecalTex:
        m_Texture: {fileID: 0}
        m_Scale: {x: 1, y: 1}
        m_Offset: {x: 0, y: 0}
    - _DetailAlbedoMap:
        m_Texture: {fileID: 0}
        m_Scale: {x: 1, y: 1}
        m_Offset: {x: 0, y: 0}
    - _DetailMask:
        m_Texture: {fileID: 0}
        m_Scale: {x: 1, y: 1}
        m_Offset: {x: 0, y: 0}
    - _DetailNormalMap:
        m_Texture: {fileID: 0}
        m_Scale: {x: 1, y: 1}
        m_Offset: {x: 0, y: 0}
    - _EmissionMap:
        m_Texture: {fileID: 0}
        m_Scale: {x: 1, y: 1}
        m_Offset: {x: 0, y: 0}
    - _MainTex:
        m_Texture: {fileID: 0}
        m_Scale: {x: 1, y: 1}
        m_Offset: {x: 0, y: 0}
    - _MetallicGlossMap:
        m_Texture: {fileID: 0}
        m_Scale: {x: 1, y: 1}
        m_Offset: {x: 0, y: 0}
    - _Normal:
        m_Texture: {fileID: 2800000, guid: e0e7943a22d73af48b0bef2490d1abf3, type: 3}
        m_Scale: {x: 1, y: 1}
        m_Offset: {x: 0, y: 0}
    - _OcclusionMap:
        m_Texture: {fileID: 0}
        m_Scale: {x: 1, y: 1}
        m_Offset: {x: 0, y: 0}
    - _ParallaxMap:
        m_Texture: {fileID: 0}
        m_Scale: {x: 1, y: 1}
        m_Offset: {x: 0, y: 0}
    - _SampleTexture2D_1400aa0c4b6c4d38b4fea9c40ea97a3b_Texture_1:
        m_Texture: {fileID: 10300, guid: 0000000000000000f000000000000000, type: 0}
        m_Scale: {x: 1, y: 1}
        m_Offset: {x: 0, y: 0}
    - _SampleTexture2D_f828d0365cb94d67a8ff6c9d437cbc30_Texture_1:
        m_Texture: {fileID: 2800000, guid: d7b0df30f84b7354295488dd3b5e5dad, type: 3}
        m_Scale: {x: 1, y: 1}
        m_Offset: {x: 0, y: 0}
    - _SpecGlossMap:
        m_Texture: {fileID: 0}
        m_Scale: {x: 1, y: 1}
        m_Offset: {x: 0, y: 0}
    - _Tex:
        m_Texture: {fileID: 2800000, guid: f85e346bb7a09ad41a0d0e3f72cd34bf, type: 3}
        m_Scale: {x: 1, y: 1}
        m_Offset: {x: 0, y: 0}
    - unity_Lightmaps:
        m_Texture: {fileID: 0}
        m_Scale: {x: 1, y: 1}
        m_Offset: {x: 0, y: 0}
    - unity_LightmapsInd:
        m_Texture: {fileID: 0}
        m_Scale: {x: 1, y: 1}
        m_Offset: {x: 0, y: 0}
    - unity_ShadowMasks:
        m_Texture: {fileID: 0}
        m_Scale: {x: 1, y: 1}
        m_Offset: {x: 0, y: 0}
    m_Ints: []
    m_Floats:
    - Normal_Blend: 0.5
    - _Alpha: 1
    - _AlphaClip: 0
    - _AvoidStrengh: 4
    - _Blend: 0
    - _BrushOpacity: 0.672
    - _BrushStrength: 7.5
    - _BumpScale: 1
    - _Caustic_Distortion_Speed: 0.253
    - _Caustic_Distortion_factor: 1.99
    - _Caustic_brightness: 0.146
    - _Caustics_Rotation: 47.3
    - _Caustics_Scale: 4
    - _Caustics_Scale2: 4
    - _Caustics_Speed: 1
    - _Caustics_Speed2: 1
    - _ClearCoatMask: 0
    - _ClearCoatSmoothness: 0
    - _Cull: 2
    - _Cutoff: 0.5
    - _DecalAngleFadeSupported: 1
    - _DecalMeshBiasType: 0
    - _DecalMeshDepthBias: 0
    - _DecalMeshViewBias: 0
    - _Density: 2.2
    - _DepthFactor: 7.97
    - _DepthOffset: 0.15
    - _DetailAlbedoMapScale: 1
    - _DetailNormalMapScale: 1
    - _Distance: -2.87
    - _DrawOrder: 0
    - _DstBlend: 0
    - _EnvironmentReflections: 1
    - _GlossMapScale: 0
    - _Glossiness: 0
    - _GlossyReflections: 0
    - _Metallic: 0
    - _NoiseScale: 458
    - _NoiseStregth: 0.25
    - _NormalStrength: 1
    - _OcclusionStrength: 1
    - _Parallax: 0.005
    - _Power: 8
    - _Power2: 8
    - _QueueControl: 0
    - _QueueOffset: 0
    - _Radius: 5
    - _RandomMoveSpeed: 2.07
    - _RandomMoveStrength: 1.5
    - _ReceiveShadows: 1
    - _RotationTexture: 195
    - _ShowDepth: 0
    - _ShowPivot: 0
    - _Side: 0
    - _Size: 0.1
    - _Smooth: -0.23
    - _Smoothness: 0.195
    - _SmoothnessTextureChannel: 0
    - _SpecularHighlights: 1
    - _Speed: 1.55
    - _Speed2: 0.76
    - _SrcBlend: 1
    - _Strength: 3.65
    - _Strength2: 1.47
    - _Surface: 0
    - _Tile: 0
    - _UseObjectPosition: 1
    - _WindSpeed: 1
    - _WindStrength: 0.24
    - _WorkflowMode: 1
    - _ZWrite: 1
    m_Colors:
    - _AvoidDirection: {r: 1, g: 0, b: 1, a: 0}
    - _BaseColor: {r: 1, g: 1, b: 1, a: 1}
    - _BrushColor: {r: 0.23921569, g: 1, b: 0, a: 1}
    - _Caustics_Tile: {r: 10, g: 10, b: 0, a: 0}
    - _Caustics_offset: {r: 10, g: 10, b: 0, a: 0}
    - _Color: {r: 0.8941177, g: 0.6784314, b: 0.68235296, a: 1}
    - _EmissionColor: {r: 0, g: 0, b: 0, a: 1}
    - _RandomDirection: {r: 0, g: 0, b: 0, a: 0}
    - _SpecColor: {r: 0.19999996, g: 0.19999996, b: 0.19999996, a: 1}
    - _Test: {r: 1, g: 0, b: 0, a: 0}
    - _TillingTexture: {r: 5, g: 10, b: 0, a: 0}
    - _TracekedDirection: {r: 0, g: 0, b: 1, a: 0}
    - _TrackedPosition: {r: 0, g: 0, b: 0, a: 0}
  m_BuildTextureStacks: []
