%YAML 1.1
%TAG !u! tag:unity3d.com,2011:
--- !u!1 &2101374575873472751
GameObject:
  m_ObjectHideFlags: 0
  m_CorrespondingSourceObject: {fileID: 0}
  m_PrefabInstance: {fileID: 0}
  m_PrefabAsset: {fileID: 0}
  serializedVersion: 6
  m_Component:
  - component: {fileID: 2101374575873472748}
  - component: {fileID: 2101374575873472749}
  m_Layer: 0
  m_Name: Flock-Pargo
  m_TagString: Untagged
  m_Icon: {fileID: 0}
  m_NavMeshLayer: 0
  m_StaticEditorFlags: 0
  m_IsActive: 1
--- !u!4 &2101374575873472748
Transform:
  m_ObjectHideFlags: 0
  m_CorrespondingSourceObject: {fileID: 0}
  m_PrefabInstance: {fileID: 0}
  m_PrefabAsset: {fileID: 0}
  m_GameObject: {fileID: 2101374575873472751}
  m_LocalRotation: {x: -0, y: -0, z: -0, w: 1}
  m_LocalPosition: {x: 110, y: 50.3, z: -631}
  m_LocalScale: {x: 1, y: 1, z: 1}
  m_ConstrainProportionsScale: 0
  m_Children: []
  m_Father: {fileID: 0}
  m_RootOrder: 0
  m_LocalEulerAnglesHint: {x: 0, y: 0, z: 0}
--- !u!114 &2101374575873472749
MonoBehaviour:
  m_ObjectHideFlags: 0
  m_CorrespondingSourceObject: {fileID: 0}
  m_PrefabInstance: {fileID: 0}
  m_PrefabAsset: {fileID: 0}
  m_GameObject: {fileID: 2101374575873472751}
  m_Enabled: 1
  m_EditorHideFlags: 0
  m_Script: {fileID: 11500000, guid: 25937ee56d9777341a6a16ca3b102fa8, type: 3}
  m_Name: 
  m_EditorClassIdentifier: 
  drawGuide: 0
  FlocksHandle: {fileID: 0}
  <canChangeFlock>k__BackingField: 0
  useHightligthColor: 0
  hightligthPower: 0
  hightligthColor: {r: 0, g: 0, b: 0, a: 0}
  <FishAmount>k__BackingField: 10
  fishPrefabs:
  - {fileID: 8326876752091194292, guid: f05e4631e8f00b94fb3e7f707fe345e7, type: 3}
  - {fileID: -1767472921335800472, guid: d7fb9f5d3c3edf74d8e6c3a46c28598d, type: 3}
  - {fileID: -7255121329231149701, guid: 9ecf48a1ae8c48d4ea17f4d718e8ea18, type: 3}
  spawnLimit: {x: 12, y: 12, z: 12}
  AllUnit: []
  spawnDirection: {x: -1, y: 1.82, z: -1.3}
  spawnTime: 0.2
  <followObject>k__BackingField: 0
  TargetToFollow: {fileID: 0}
  targetDestinations: {fileID: 0}
  followDistance: 5.06
  followWeight: 50
  followMaxSpeed: 10
  isClosestToTarget: 0
  isRandomOffset: 0
  <randomValues>k__BackingField: 0
  minSpeed: 4.21
  maxSpeed: 8.39
  cohesionDistance: 2.54
  cohesionWeight: 1.65
  avoidanceDistance: 3.21
  avoidanceWeight: 5.67
  aligementDistance: 2.11
  aligementWeight: 1.45
  circularWeight: 0
  circularRadius: 0
  circularArea: 0
  circularHeight: 0
  limitDistance: 69.4
  limitWeight: 7.77
  obstacleDistance: 2
  obstacleWeight: 95.8
  shouldFollow: 0
  speedMultiplier: 1
  playerTransform: {fileID: 0}
  ShouldHide: 1
  factorValueToDeactive: 0.845
