%YAML 1.1
%TAG !u! tag:unity3d.com,2011:
--- !u!1 &906819207884132063
GameObject:
  m_ObjectHideFlags: 0
  m_CorrespondingSourceObject: {fileID: 0}
  m_PrefabInstance: {fileID: 0}
  m_PrefabAsset: {fileID: 0}
  serializedVersion: 6
  m_Component:
  - component: {fileID: 906819207884132056}
  - component: {fileID: 906819207884132057}
  m_Layer: 0
  m_Name: Flock-Ardilla
  m_TagString: Untagged
  m_Icon: {fileID: 0}
  m_NavMeshLayer: 0
  m_StaticEditorFlags: 0
  m_IsActive: 1
--- !u!4 &906819207884132056
Transform:
  m_ObjectHideFlags: 0
  m_CorrespondingSourceObject: {fileID: 0}
  m_PrefabInstance: {fileID: 0}
  m_PrefabAsset: {fileID: 0}
  m_GameObject: {fileID: 906819207884132063}
  m_LocalRotation: {x: -0, y: -0, z: -0, w: 1}
  m_LocalPosition: {x: 5, y: 94.8, z: -72.2}
  m_LocalScale: {x: 1, y: 1, z: 1}
  m_ConstrainProportionsScale: 0
  m_Children: []
  m_Father: {fileID: 0}
  m_RootOrder: 0
  m_LocalEulerAnglesHint: {x: 0, y: 0, z: 0}
--- !u!114 &906819207884132057
MonoBehaviour:
  m_ObjectHideFlags: 0
  m_CorrespondingSourceObject: {fileID: 0}
  m_PrefabInstance: {fileID: 0}
  m_PrefabAsset: {fileID: 0}
  m_GameObject: {fileID: 906819207884132063}
  m_Enabled: 1
  m_EditorHideFlags: 0
  m_Script: {fileID: 11500000, guid: 25937ee56d9777341a6a16ca3b102fa8, type: 3}
  m_Name: 
  m_EditorClassIdentifier: 
  drawGuide: 0
  FlocksHandle: {fileID: 0}
  <canChangeFlock>k__BackingField: 0
  useHightligthColor: 0
  hightligthPower: 0
  hightligthColor: {r: 0, g: 0, b: 0, a: 0}
  <FishAmount>k__BackingField: 20
  fishPrefabs:
  - {fileID: 3883773578867868858, guid: 9ec20abf0acf4634db2053bfbc1a788a, type: 3}
  - {fileID: 525209780758535199, guid: 35865ca6579a688408192c91e7945559, type: 3}
  - {fileID: 4677553536898785298, guid: 6a8360a023da59649858c85b5870eb53, type: 3}
  spawnLimit: {x: 8, y: 8, z: 8}
  AllUnit: []
  spawnDirection: {x: 2.08, y: 1.71, z: 1.69}
  spawnTime: 0.2
  <followObject>k__BackingField: 0
  TargetToFollow: {fileID: 0}
  targetDestinations: {fileID: 0}
  followDistance: 5.06
  followWeight: 50
  followMaxSpeed: 10
  isClosestToTarget: 0
  isRandomOffset: 0
  <randomValues>k__BackingField: 0
  minSpeed: 3.5
  maxSpeed: 6.6
  cohesionDistance: 5.32
  cohesionWeight: 4.23
  avoidanceDistance: 3.21
  avoidanceWeight: 5.67
  aligementDistance: 2.11
  aligementWeight: 1.45
  circularWeight: 0
  circularRadius: 0
  circularArea: 0
  circularHeight: 0
  limitDistance: 69.4
  limitWeight: 7.77
  obstacleDistance: 2
  obstacleWeight: 95.8
  shouldFollow: 0
  speedMultiplier: 1
  playerTransform: {fileID: 0}
  ShouldHide: 1
  factorValueToDeactive: 0.845
