%YAML 1.1
%TAG !u! tag:unity3d.com,2011:
--- !u!114 &11400000
MonoBehaviour:
  m_ObjectHideFlags: 0
  m_CorrespondingSourceObject: {fileID: 0}
  m_PrefabInstance: {fileID: 0}
  m_PrefabAsset: {fileID: 0}
  m_GameObject: {fileID: 0}
  m_Enabled: 1
  m_EditorHideFlags: 0
  m_Script: {fileID: 11500000, guid: 98426992c0a58024c8d3c07ef804bb9e, type: 3}
  m_Name: SO_Exit_Pause
  m_EditorClassIdentifier: 
  kbPromptText:
    FieldName: BackText
    TextTable: {fileID: 11400000, guid: 8901084606b75e24ea2613bd7b8fe066, type: 2}
    TextColor: {r: 0, g: 0, b: 0, a: 1}
  gamepadPromptText:
    FieldName: BackText
    TextTable: {fileID: 11400000, guid: 8901084606b75e24ea2613bd7b8fe066, type: 2}
    TextColor: {r: 0, g: 0, b: 0, a: 1}
  kbButtonPrefab: {fileID: 2845765768324065652, guid: d3acea4cbd5be6d46ad31c7ee35bc964,
    type: 3}
  gamepadButtonPrefab: {fileID: 2845765768324065652, guid: 6cc8c0654063442469fae6574a192eac,
    type: 3}
