%YAML 1.1
%TAG !u! tag:unity3d.com,2011:
--- !u!114 &11400000
MonoBehaviour:
  m_ObjectHideFlags: 0
  m_CorrespondingSourceObject: {fileID: 0}
  m_PrefabInstance: {fileID: 0}
  m_PrefabAsset: {fileID: 0}
  m_GameObject: {fileID: 0}
  m_Enabled: 1
  m_EditorHideFlags: 0
  m_Script: {fileID: 11500000, guid: 98426992c0a58024c8d3c07ef804bb9e, type: 3}
  m_Name: SO_Lunge_Prompt
  m_EditorClassIdentifier: 
  kbPromptText:
    FieldName: HoldText
    TextTable: {fileID: 11400000, guid: 8901084606b75e24ea2613bd7b8fe066, type: 2}
    TextColor: {r: 1, g: 1, b: 1, a: 1}
  gamepadPromptText:
    FieldName: HoldText
    TextTable: {fileID: 11400000, guid: 8901084606b75e24ea2613bd7b8fe066, type: 2}
    TextColor: {r: 1, g: 1, b: 1, a: 1}
  kbButtonPrefab: {fileID: 2845765768324065652, guid: 13fdc044308744c4e9a4c8a62463c21b,
    type: 3}
  gamepadButtonPrefab: {fileID: 2845765768324065652, guid: fe51cb084f3218b4bac79cd3469dc4a6,
    type: 3}
