%YAML 1.1
%TAG !u! tag:unity3d.com,2011:
--- !u!114 &-3648950664136689556
MonoBehaviour:
  m_ObjectHideFlags: 11
  m_CorrespondingSourceObject: {fileID: 0}
  m_PrefabInstance: {fileID: 0}
  m_PrefabAsset: {fileID: 0}
  m_GameObject: {fileID: 0}
  m_Enabled: 1
  m_EditorHideFlags: 0
  m_Script: {fileID: 11500000, guid: d0353a89b1f911e48b9e16bdc9f2e058, type: 3}
  m_Name: 
  m_EditorClassIdentifier: 
  version: 5
--- !u!21 &2100000
Material:
  serializedVersion: 8
  m_ObjectHideFlags: 0
  m_CorrespondingSourceObject: {fileID: 0}
  m_PrefabInstance: {fileID: 0}
  m_PrefabAsset: {fileID: 0}
  m_Name: Cora_Died
  m_Shader: {fileID: -6465566751694194690, guid: 61641684417408342998edbd7f296727,
    type: 3}
  m_ValidKeywords: []
  m_InvalidKeywords: []
  m_LightmapFlags: 4
  m_EnableInstancingVariants: 0
  m_DoubleSidedGI: 0
  m_CustomRenderQueue: -1
  stringTagMap: {}
  disabledShaderPasses: []
  m_SavedProperties:
    serializedVersion: 3
    m_TexEnvs:
    - _AmbienOclusion:
        m_Texture: {fileID: 2800000, guid: e60253cf8c1a93a468f0925df23334ba, type: 3}
        m_Scale: {x: 1, y: 1}
        m_Offset: {x: 0, y: 0}
    - _BaseMap:
        m_Texture: {fileID: 0}
        m_Scale: {x: 1, y: 1}
        m_Offset: {x: 0, y: 0}
    - _BrushTexture:
        m_Texture: {fileID: 2800000, guid: c61e12b00f19ecd448a748ee4f011b63, type: 3}
        m_Scale: {x: 1, y: 1}
        m_Offset: {x: 0, y: 0}
    - _BumpMap:
        m_Texture: {fileID: 0}
        m_Scale: {x: 1, y: 1}
        m_Offset: {x: 0, y: 0}
    - _DetailAlbedoMap:
        m_Texture: {fileID: 0}
        m_Scale: {x: 1, y: 1}
        m_Offset: {x: 0, y: 0}
    - _DetailMask:
        m_Texture: {fileID: 0}
        m_Scale: {x: 1, y: 1}
        m_Offset: {x: 0, y: 0}
    - _DetailNormalMap:
        m_Texture: {fileID: 0}
        m_Scale: {x: 1, y: 1}
        m_Offset: {x: 0, y: 0}
    - _EmissionMap:
        m_Texture: {fileID: 0}
        m_Scale: {x: 1, y: 1}
        m_Offset: {x: 0, y: 0}
    - _MainTex:
        m_Texture: {fileID: 0}
        m_Scale: {x: 1, y: 1}
        m_Offset: {x: 0, y: 0}
    - _MetallicGlossMap:
        m_Texture: {fileID: 0}
        m_Scale: {x: 1, y: 1}
        m_Offset: {x: 0, y: 0}
    - _Normal:
        m_Texture: {fileID: 2800000, guid: c16594193d159804fb54b51aafc4a262, type: 3}
        m_Scale: {x: 1, y: 1}
        m_Offset: {x: 0, y: 0}
    - _OcclusionMap:
        m_Texture: {fileID: 0}
        m_Scale: {x: 1, y: 1}
        m_Offset: {x: 0, y: 0}
    - _ParallaxMap:
        m_Texture: {fileID: 0}
        m_Scale: {x: 1, y: 1}
        m_Offset: {x: 0, y: 0}
    - _SpecGlossMap:
        m_Texture: {fileID: 0}
        m_Scale: {x: 1, y: 1}
        m_Offset: {x: 0, y: 0}
    - _Tex:
        m_Texture: {fileID: 2800000, guid: 6a2fd8a6e7485e54390585834ef4fa90, type: 3}
        m_Scale: {x: 1, y: 1}
        m_Offset: {x: 0, y: 0}
    - _TexAO:
        m_Texture: {fileID: 2800000, guid: 1456d3f73ac53e049833b39175823ceb, type: 3}
        m_Scale: {x: 1, y: 1}
        m_Offset: {x: 0, y: 0}
    - _TexNormal:
        m_Texture: {fileID: 2800000, guid: 1953eac690fa66244a3457ef1adf06ee, type: 3}
        m_Scale: {x: 1, y: 1}
        m_Offset: {x: 0, y: 0}
    - unity_Lightmaps:
        m_Texture: {fileID: 0}
        m_Scale: {x: 1, y: 1}
        m_Offset: {x: 0, y: 0}
    - unity_LightmapsInd:
        m_Texture: {fileID: 0}
        m_Scale: {x: 1, y: 1}
        m_Offset: {x: 0, y: 0}
    - unity_ShadowMasks:
        m_Texture: {fileID: 0}
        m_Scale: {x: 1, y: 1}
        m_Offset: {x: 0, y: 0}
    m_Ints: []
    m_Floats:
    - Vector1_AmplitudeWaveX: 0.03
    - Vector1_AmplitudeWaveY: 0.07
    - Vector1_AmplitudeWaveZ: 0.1
    - Vector1_FrequencyWaveX: 0.3
    - Vector1_FrequencyWaveY: 0.34
    - Vector1_FrequencyWaveZ: 2
    - Vector1_SpeedWaveX: 0.69
    - Vector1_SpeedWaveY: 0.52
    - Vector1_SpeedWaveZ: 2
    - _AOStrength: 1
    - _AlphaClip: 0
    - _AmplitudeFactor: 0.1
    - _AnchoLinea: 0.07
    - _Blend: 0
    - _BrushOpacity: 1
    - _BrushStrength: 7.04
    - _BumpScale: 1
    - _ClearCoatMask: 0
    - _ClearCoatSmoothness: 0
    - _Cull: 2
    - _Cutoff: 0.5
    - _DepthFactor: 7.85
    - _DepthOffset: 0.15
    - _DetailAlbedoMapScale: 1
    - _DetailNormalMapScale: 1
    - _Disolve: 0.01
    - _DstBlend: 0
    - _EnvironmentReflections: 1
    - _FrecuencyFactor: 0.1
    - _GlossMapScale: 0
    - _Glossiness: 0
    - _GlossyReflections: 0
    - _Metallic: 0
    - _NoiseScale: 157.93
    - _NoiseScale_1: 458
    - _NoiseStregth: 0.25
    - _NormalStrength: 1
    - _OcclusionStrength: 1
    - _OnlyColor: 0
    - _Parallax: 0.005
    - _QueueControl: 0
    - _QueueOffset: 0
    - _ReceiveShadows: 1
    - _RotationTexture: 208
    - _ShowDepth: 0
    - _Smoothness: 0.124
    - _SmoothnessTextureChannel: 0
    - _SpecularHighlights: 1
    - _SpeedFactor: 0.1
    - _SrcBlend: 1
    - _Surface: 0
    - _VerPivot: 0
    - _WorkflowMode: 1
    - _ZWrite: 1
    m_Colors:
    - _BaseColor: {r: 1, g: 1, b: 1, a: 1}
    - _BrushColor: {r: 0.3568628, g: 0.3333333, b: 0.3176471, a: 0.2627451}
    - _Color: {r: 1, g: 1, b: 1, a: 1}
    - _DisolveColor: {r: 1, g: 0, b: 0, a: 1}
    - _EmissionColor: {r: 0, g: 0, b: 0, a: 1}
    - _Pivot: {r: 0, g: 0, b: 0, a: 0}
    - _PivotIntensity: {r: 1, g: 1, b: 1, a: 0}
    - _PivotSize: {r: 1, g: 1, b: 1, a: 0}
    - _SpecColor: {r: 0.19999996, g: 0.19999996, b: 0.19999996, a: 1}
    - _TillingTexture: {r: 10, g: 15, b: 0, a: 0}
  m_BuildTextureStacks: []
