%YAML 1.1
%TAG !u! tag:unity3d.com,2011:
--- !u!21 &2100000
Material:
  serializedVersion: 8
  m_ObjectHideFlags: 0
  m_CorrespondingSourceObject: {fileID: 0}
  m_PrefabInstance: {fileID: 0}
  m_PrefabAsset: {fileID: 0}
  m_Name: Cora_Feliz
  m_Shader: {fileID: -6465566751694194690, guid: f615da5996d9a41a4b7a87c284733a78,
    type: 3}
  m_ValidKeywords: []
  m_InvalidKeywords: []
  m_LightmapFlags: 4
  m_EnableInstancingVariants: 0
  m_DoubleSidedGI: 0
  m_CustomRenderQueue: 2000
  stringTagMap:
    RenderType: Opaque
  disabledShaderPasses: []
  m_SavedProperties:
    serializedVersion: 3
    m_TexEnvs:
    - Texture2D_Texture:
        m_Texture: {fileID: 2800000, guid: e7a33138e9fe8bd4caed4c4806cda37a, type: 3}
        m_Scale: {x: 1, y: 1}
        m_Offset: {x: 0, y: 0}
    - _BaseMap:
        m_Texture: {fileID: 0}
        m_Scale: {x: 1, y: 1}
        m_Offset: {x: 0, y: 0}
    - _BrushTexture:
        m_Texture: {fileID: 2800000, guid: c61e12b00f19ecd448a748ee4f011b63, type: 3}
        m_Scale: {x: 1, y: 1}
        m_Offset: {x: 0, y: 0}
    - _BumpMap:
        m_Texture: {fileID: 0}
        m_Scale: {x: 1, y: 1}
        m_Offset: {x: 0, y: 0}
    - _DetailAlbedoMap:
        m_Texture: {fileID: 0}
        m_Scale: {x: 1, y: 1}
        m_Offset: {x: 0, y: 0}
    - _DetailMask:
        m_Texture: {fileID: 0}
        m_Scale: {x: 1, y: 1}
        m_Offset: {x: 0, y: 0}
    - _DetailNormalMap:
        m_Texture: {fileID: 0}
        m_Scale: {x: 1, y: 1}
        m_Offset: {x: 0, y: 0}
    - _EmisionTex:
        m_Texture: {fileID: 2800000, guid: 78a42134d474dd8428e0dfc45bfce288, type: 3}
        m_Scale: {x: 1, y: 1}
        m_Offset: {x: 0, y: 0}
    - _EmissionMap:
        m_Texture: {fileID: 0}
        m_Scale: {x: 1, y: 1}
        m_Offset: {x: 0, y: 0}
    - _MainTex:
        m_Texture: {fileID: 0}
        m_Scale: {x: 1, y: 1}
        m_Offset: {x: 0, y: 0}
    - _MetallicGlossMap:
        m_Texture: {fileID: 0}
        m_Scale: {x: 1, y: 1}
        m_Offset: {x: 0, y: 0}
    - _OcclusionMap:
        m_Texture: {fileID: 0}
        m_Scale: {x: 1, y: 1}
        m_Offset: {x: 0, y: 0}
    - _ParallaxMap:
        m_Texture: {fileID: 0}
        m_Scale: {x: 1, y: 1}
        m_Offset: {x: 0, y: 0}
    - _ParallaxOcclusionMapping_a360b81e41c34032b634f43449899d5f_Heightmap_2:
        m_Texture: {fileID: 0}
        m_Scale: {x: 1, y: 1}
        m_Offset: {x: 0, y: 0}
    - _SpecGlossMap:
        m_Texture: {fileID: 0}
        m_Scale: {x: 1, y: 1}
        m_Offset: {x: 0, y: 0}
    - _TexAO:
        m_Texture: {fileID: 2800000, guid: 94e5febbd9cc4964d930ece7cb6b41a6, type: 3}
        m_Scale: {x: 1, y: 1}
        m_Offset: {x: 0, y: 0}
    - _TexAlpha:
        m_Texture: {fileID: 2800000, guid: 78a42134d474dd8428e0dfc45bfce288, type: 3}
        m_Scale: {x: 1, y: 1}
        m_Offset: {x: 0, y: 0}
    - _TexHeightl:
        m_Texture: {fileID: 0}
        m_Scale: {x: 1, y: 1}
        m_Offset: {x: 0, y: 0}
    - _TexMask:
        m_Texture: {fileID: 2800000, guid: e7a33138e9fe8bd4caed4c4806cda37a, type: 3}
        m_Scale: {x: 1, y: 1}
        m_Offset: {x: 0, y: 0}
    - _TexMetallic:
        m_Texture: {fileID: 0}
        m_Scale: {x: 1, y: 1}
        m_Offset: {x: 0, y: 0}
    - _TexNormal:
        m_Texture: {fileID: 2800000, guid: ceb6a4b7d5b8165418bf05bead6d282b, type: 3}
        m_Scale: {x: 1, y: 1}
        m_Offset: {x: 0, y: 0}
    - _TexSmoothness:
        m_Texture: {fileID: 0}
        m_Scale: {x: 1, y: 1}
        m_Offset: {x: 0, y: 0}
    - unity_Lightmaps:
        m_Texture: {fileID: 0}
        m_Scale: {x: 1, y: 1}
        m_Offset: {x: 0, y: 0}
    - unity_LightmapsInd:
        m_Texture: {fileID: 0}
        m_Scale: {x: 1, y: 1}
        m_Offset: {x: 0, y: 0}
    - unity_ShadowMasks:
        m_Texture: {fileID: 0}
        m_Scale: {x: 1, y: 1}
        m_Offset: {x: 0, y: 0}
    m_Ints: []
    m_Floats:
    - Vector1_AmplitudFactor: 0.41
    - Vector1_AmplitudeDeformationZ: 0
    - Vector1_AmplitudeMovementX: 0
    - Vector1_AmplitudeMovementY: 0
    - Vector1_AmplitudeWaveX: 0.074
    - Vector1_AmplitudeWaveY: 0
    - Vector1_AmplitudeWaveZ: 0.102
    - Vector1_CenteWavePowerX: 1
    - Vector1_CenterDeformationPowerZ: 0
    - Vector1_CenterWavePowerY: 1
    - Vector1_CenterWaveSizeZ: 2
    - Vector1_FrequencyDeformationZ: 0
    - Vector1_FrequencyWaveX: 1.13
    - Vector1_FrequencyWaveY: 0
    - Vector1_FrequencyWaveZ: 1.22
    - Vector1_SpeedDeformationZ: 0
    - Vector1_SpeedFactor: 5
    - Vector1_SpeedMovementX: 0
    - Vector1_SpeedMovementY: 0
    - Vector1_SpeedWaveX: 3.8
    - Vector1_SpeedWaveY: 0
    - Vector1_SpeedWaveZ: 8
    - _AOStrength: 0.56
    - _Alpha: 1
    - _AlphaClip: 0
    - _AmplitudFactor: 1
    - _AnchoLinea: 0.2
    - _Blend: 0
    - _BrushStrength: 7
    - _BumpScale: 1
    - _CastShadows: 1
    - _ClearCoatMask: 0
    - _ClearCoatSmoothness: 0
    - _ColorStrength: 0
    - _Cull: 2
    - _Cutoff: 0.5
    - _DepthFactor: 7.85
    - _DepthOffset: 0.15
    - _DetailAlbedoMapScale: 1
    - _DetailNormalMapScale: 1
    - _DstBlend: 0
    - _EnvironmentReflections: 1
    - _Float: 0
    - _FrecuencyFactor: 0.096
    - _GlossMapScale: 0
    - _Glossiness: 0
    - _GlossyReflections: 0
    - _HighligthPower: 0
    - _HightlighSmoothness: 1.2
    - _Metallic: 0
    - _MetallicValue: 0
    - _NoiseScale: 500
    - _NoiseStregth: 0.25
    - _NormalStrength: 0
    - _OcclusionStrength: 1
    - _OnlyColor: 0
    - _Parallax: 0.005
    - _PoderLinea: 10
    - _Prueba: 0
    - _PruebaInclinacion: 0
    - _QueueControl: 0
    - _QueueOffset: 0
    - _ReceiveShadows: 1
    - _RotationTexture: 0
    - _ShowDepth: 0
    - _SizeLine: 0
    - _Smoothness: 0.492
    - _SmoothnessTextureChannel: 0
    - _SmoothnessValue: 0.25
    - _SpecularHighlights: 1
    - _SrcBlend: 1
    - _Surface: 0
    - _UseMetallicTex: 0
    - _UseSmoothnessTex: 0
    - _ValorRotacion: -1
    - _VelocidadLinea: 0
    - _VerPivotX: 0
    - _WorkflowMode: 1
    - _ZTest: 4
    - _ZWrite: 1
    - _ZWriteControl: 0
    - _prueba2: 1
    m_Colors:
    - Vector2_CenterDeformationSizeZ: {r: 1, g: 1, b: 0, a: 0}
    - Vector2_CenterDeformationZ: {r: 1, g: 0.5, b: 0, a: 0}
    - Vector2_CenterWaveSizeX: {r: 0, g: 1, b: 0, a: 0}
    - Vector2_CenterWaveSizeY: {r: 1, g: 1, b: 0, a: 0}
    - Vector2_CenterWaveSizeZ: {r: 1, g: 1, b: 0, a: 0}
    - Vector2_CenterWaveX: {r: 0.5, g: 0.5, b: 0, a: 0}
    - Vector2_CenterWaveY: {r: 0, g: 0.5, b: 0, a: 0}
    - Vector2_CenterWaveZ: {r: 1, g: 0.5, b: 0, a: 0}
    - _BaseColor: {r: 1, g: 1, b: 1, a: 1}
    - _Color: {r: 1.0118003, g: 1.0118003, b: 1.0118003, a: 1}
    - _ColorEmission: {r: 0, g: 2.144237, b: 3.4415908, a: 1}
    - _ColorLinea: {r: 95.87451, g: 50.69804, b: 0, a: 1}
    - _ColorLinea_1: {r: 0, g: 0, b: 0, a: 0}
    - _EmissionColor: {r: 0, g: 0, b: 0, a: 1}
    - _HightligthColor: {r: 0, g: 0, b: 0, a: 0}
    - _Pivot: {r: 0, g: -0.18, b: 0.23, a: 0}
    - _PivotDeformationZ: {r: 0, g: 0, b: 0, a: 0}
    - _PivotDeformationZIntensity: {r: 0, g: 0, b: 0, a: 0}
    - _PivotDirection: {r: 0, g: 0, b: 1, a: 0}
    - _PivotIntensity: {r: 1, g: 1, b: 1.26, a: 0}
    - _PivotSize: {r: 1, g: 1, b: 1.31, a: 0}
    - _PivotX: {r: 0, g: 0.3, b: 0.4, a: 0}
    - _PivotXIntensity: {r: 0.4, g: 0.4, b: 0.4, a: 0}
    - _PivotY: {r: 0, g: 0, b: 0, a: 0}
    - _PivotYIntensity: {r: 0, g: 0, b: 0, a: 0}
    - _PivotZ: {r: 0.06, g: -0.23, b: 0, a: 0}
    - _PivotZIntensity: {r: 1, g: 1, b: 1, a: 0}
    - _RangoLinea: {r: 0.9, g: -3, b: 0, a: 0}
    - _SpecColor: {r: 0.19999996, g: 0.19999996, b: 0.19999996, a: 1}
    - _Tilling_Texture: {r: 11, g: 15, b: 0, a: 0}
  m_BuildTextureStacks: []
--- !u!114 &606044219209717246
MonoBehaviour:
  m_ObjectHideFlags: 11
  m_CorrespondingSourceObject: {fileID: 0}
  m_PrefabInstance: {fileID: 0}
  m_PrefabAsset: {fileID: 0}
  m_GameObject: {fileID: 0}
  m_Enabled: 1
  m_EditorHideFlags: 0
  m_Script: {fileID: 11500000, guid: d0353a89b1f911e48b9e16bdc9f2e058, type: 3}
  m_Name: 
  m_EditorClassIdentifier: 
  version: 5
