%YAML 1.1
%TAG !u! tag:unity3d.com,2011:
--- !u!21 &2100000
Material:
  serializedVersion: 8
  m_ObjectHideFlags: 0
  m_CorrespondingSourceObject: {fileID: 0}
  m_PrefabInstance: {fileID: 0}
  m_PrefabAsset: {fileID: 0}
  m_Name: CoralSuave_Anemona3 Material
  m_Shader: {fileID: -6465566751694194690, guid: bdb4c7e549701e24894b9ddf05eca7b1,
    type: 3}
  m_ValidKeywords:
  - _ALPHATEST_ON
  m_InvalidKeywords: []
  m_LightmapFlags: 4
  m_EnableInstancingVariants: 1
  m_DoubleSidedGI: 0
  m_CustomRenderQueue: 2450
  stringTagMap:
    RenderType: TransparentCutout
  disabledShaderPasses: []
  m_SavedProperties:
    serializedVersion: 3
    m_TexEnvs:
    - _BaseMap:
        m_Texture: {fileID: 2800000, guid: 2dfb46750f6b4834f838ecc840347aca, type: 3}
        m_Scale: {x: 1, y: 1}
        m_Offset: {x: 0, y: 0}
    - _BrushTexture:
        m_Texture: {fileID: 2800000, guid: c61e12b00f19ecd448a748ee4f011b63, type: 3}
        m_Scale: {x: 1, y: 1}
        m_Offset: {x: 0, y: 0}
    - _BumpMap:
        m_Texture: {fileID: 2800000, guid: f3ec7159ec5559f4a90745af173ac0ca, type: 3}
        m_Scale: {x: 1, y: 1}
        m_Offset: {x: 0, y: 0}
    - _DetailAlbedoMap:
        m_Texture: {fileID: 0}
        m_Scale: {x: 1, y: 1}
        m_Offset: {x: 0, y: 0}
    - _DetailMask:
        m_Texture: {fileID: 0}
        m_Scale: {x: 1, y: 1}
        m_Offset: {x: 0, y: 0}
    - _DetailNormalMap:
        m_Texture: {fileID: 0}
        m_Scale: {x: 1, y: 1}
        m_Offset: {x: 0, y: 0}
    - _EmissionMap:
        m_Texture: {fileID: 0}
        m_Scale: {x: 1, y: 1}
        m_Offset: {x: 0, y: 0}
    - _MainTex:
        m_Texture: {fileID: 2800000, guid: 659a952eea2229f4389573bfdabbd434, type: 3}
        m_Scale: {x: 1, y: 1}
        m_Offset: {x: 0, y: 0}
    - _MetallicGlossMap:
        m_Texture: {fileID: 0}
        m_Scale: {x: 1, y: 1}
        m_Offset: {x: 0, y: 0}
    - _MetallicMap:
        m_Texture: {fileID: 0}
        m_Scale: {x: 1, y: 1}
        m_Offset: {x: 0, y: 0}
    - _NormalMap:
        m_Texture: {fileID: 2800000, guid: ce778200cd02fc246a4941f74220d6fa, type: 3}
        m_Scale: {x: 1, y: 1}
        m_Offset: {x: 0, y: 0}
    - _OcclusionMap:
        m_Texture: {fileID: 0}
        m_Scale: {x: 1, y: 1}
        m_Offset: {x: 0, y: 0}
    - _OclussionMap:
        m_Texture: {fileID: 0}
        m_Scale: {x: 1, y: 1}
        m_Offset: {x: 0, y: 0}
    - _ParallaxMap:
        m_Texture: {fileID: 2800000, guid: 80709a7d49318e9459e9d183455be311, type: 3}
        m_Scale: {x: 1, y: 1}
        m_Offset: {x: 0, y: 0}
    - _SpecGlossMap:
        m_Texture: {fileID: 0}
        m_Scale: {x: 1, y: 1}
        m_Offset: {x: 0, y: 0}
    - _Tex:
        m_Texture: {fileID: 2800000, guid: 2dfb46750f6b4834f838ecc840347aca, type: 3}
        m_Scale: {x: 1, y: 1}
        m_Offset: {x: 0, y: 0}
    - _TexAO:
        m_Texture: {fileID: 0}
        m_Scale: {x: 1, y: 1}
        m_Offset: {x: 0, y: 0}
    - _TexNormal:
        m_Texture: {fileID: 2800000, guid: ce778200cd02fc246a4941f74220d6fa, type: 3}
        m_Scale: {x: 1, y: 1}
        m_Offset: {x: 0, y: 0}
    - _TexNormalSuciedad:
        m_Texture: {fileID: 2800000, guid: 6f26b438aadf11747a916bb7b6efd302, type: 3}
        m_Scale: {x: 1, y: 1}
        m_Offset: {x: 0, y: 0}
    - _TexSuciedad:
        m_Texture: {fileID: 2800000, guid: f04e743d73a8f2d4794b334aca6dfc4d, type: 3}
        m_Scale: {x: 1, y: 1}
        m_Offset: {x: 0, y: 0}
    - unity_Lightmaps:
        m_Texture: {fileID: 0}
        m_Scale: {x: 1, y: 1}
        m_Offset: {x: 0, y: 0}
    - unity_LightmapsInd:
        m_Texture: {fileID: 0}
        m_Scale: {x: 1, y: 1}
        m_Offset: {x: 0, y: 0}
    - unity_ShadowMasks:
        m_Texture: {fileID: 0}
        m_Scale: {x: 1, y: 1}
        m_Offset: {x: 0, y: 0}
    m_Ints: []
    m_Floats:
    - Vector1_AmplitudeWaveX: 0.002
    - Vector1_AmplitudeWaveY: 0.02
    - Vector1_FrequencyWaveX: 0.68
    - Vector1_FrequencyWaveY: 0.58
    - Vector1_Grow: 1
    - Vector1_Grow_Suciedad: 0
    - Vector1_SpeedWaveX: 0.69
    - Vector1_SpeedWaveY: 0.82
    - _AOStrength: 7.09
    - _AjusteTamano: 4.68
    - _Alpha: 1
    - _AlphaClip: 1
    - _AlphaClipping: 0.6
    - _AlphaSuciedadEmision: 0
    - _AmplitudeFactor: 0.1
    - _AnchoLineaEmision: 30
    - _Blend: 0
    - _BrushStrength: 7.5
    - _BumpScale: 1
    - _CastShadows: 1
    - _ClearCoatMask: 0
    - _ClearCoatSmoothness: 0
    - _ColorStrength: 1
    - _Cull: 2
    - _Cutoff: 0.5
    - _DepthFactor: 8.75
    - _DepthOffset: 0.15
    - _DetailAlbedoMapScale: 1
    - _DetailNormalMapScale: 1
    - _DstBlend: 0
    - _EdgeWidth: 0.04
    - _EnvironmentReflections: 1
    - _FrecuencyFactor: 0.5
    - _GlossMapScale: 1
    - _Glossiness: 0.5
    - _GlossyReflections: 1
    - _Height: 476.4
    - _InclinationX: 0
    - _InclinationY: 0
    - _Invert: 1
    - _Metallic: 0
    - _Mode: 0
    - _NoiseScale: 458
    - _NoiseSize: 50
    - _NoiseStregth: 0.25
    - _NoiseSuciedad: 200
    - _NormalStregthSuciedad: 0
    - _NormalStrength: 0.74
    - _OcclusionStrength: 1
    - _OclussionStrength: 1
    - _OnlyColor: 0
    - _Parallax: 0.02
    - _Pruebas: 0
    - _QueueControl: 0
    - _QueueOffset: 0
    - _ReceiveShadows: 1
    - _RotationTexture: 195
    - _ShowDepth: 0
    - _Smoothness: 0.5
    - _SmoothnessTextureChannel: 0
    - _SpecularHighlights: 1
    - _SpeedFactor: 1
    - _SrcBlend: 1
    - _Surface: 0
    - _UVSec: 0
    - _VerPivot: 0
    - _WindDensity: 0
    - _WindStrength: 1
    - _WorkflowMode: 1
    - _ZTest: 4
    - _ZWrite: 1
    - _ZWriteControl: 1
    m_Colors:
    - _Amplitude: {r: 0.2, g: 0.05, b: 0.2, a: 0}
    - _BaseColor: {r: 1, g: 1, b: 1, a: 1}
    - _Color: {r: 1, g: 1, b: 1, a: 1}
    - _ColorEdge1: {r: 97.88236, g: 23.061289, b: 0, a: 1}
    - _ColorEmisionSuciedad: {r: 0.7490196, g: 0.7647059, b: 0.7529412, a: 1}
    - _ColorSuciedad: {r: 0.014195448, g: 0.043136083, b: 0.103773594, a: 1}
    - _Deformation: {r: 0, g: 0, b: 0, a: 0}
    - _Emission: {r: 0, g: 0, b: 0, a: 0}
    - _EmissionColor: {r: 0, g: 0, b: 0, a: 1}
    - _Frecuency: {r: 0.5, g: 0.25, b: 0.5, a: 0}
    - _Pivot: {r: 0, g: -3.39, b: -2.35, a: 0}
    - _PivotIntensity: {r: 1, g: 1, b: 1, a: 0}
    - _PivotSize: {r: 3, g: 2.73, b: 3, a: 0}
    - _SpecColor: {r: 0.19999996, g: 0.19999996, b: 0.19999996, a: 1}
    - _Speed: {r: 1, g: 0.5, b: 1, a: 0}
    - _TillingTexture: {r: 10, g: 15, b: 0, a: 0}
    - _WindMovement: {r: 6, g: 0, b: 0, a: 0}
  m_BuildTextureStacks: []
--- !u!114 &6539682385075186006
MonoBehaviour:
  m_ObjectHideFlags: 11
  m_CorrespondingSourceObject: {fileID: 0}
  m_PrefabInstance: {fileID: 0}
  m_PrefabAsset: {fileID: 0}
  m_GameObject: {fileID: 0}
  m_Enabled: 1
  m_EditorHideFlags: 0
  m_Script: {fileID: 11500000, guid: d0353a89b1f911e48b9e16bdc9f2e058, type: 3}
  m_Name: 
  m_EditorClassIdentifier: 
  version: 5
