%YAML 1.1
%TAG !u! tag:unity3d.com,2011:
--- !u!21 &2100000
Material:
  serializedVersion: 8
  m_ObjectHideFlags: 0
  m_CorrespondingSourceObject: {fileID: 0}
  m_PrefabInstance: {fileID: 0}
  m_PrefabAsset: {fileID: 0}
  m_Name: EsponjaSuave_Tubo3 naranja Material
  m_Shader: {fileID: -6465566751694194690, guid: bdb4c7e549701e24894b9ddf05eca7b1,
    type: 3}
  m_ValidKeywords:
  - _ALPHATEST_ON
  m_InvalidKeywords: []
  m_LightmapFlags: 4
  m_EnableInstancingVariants: 1
  m_DoubleSidedGI: 0
  m_CustomRenderQueue: 2450
  stringTagMap:
    RenderType: TransparentCutout
  disabledShaderPasses: []
  m_SavedProperties:
    serializedVersion: 3
    m_TexEnvs:
    - _BaseMap:
        m_Texture: {fileID: 2800000, guid: 1e903471fb814f44891ab1dd6001720f, type: 3}
        m_Scale: {x: 1, y: 1}
        m_Offset: {x: 0, y: 0}
    - _BrushTexture:
        m_Texture: {fileID: 2800000, guid: c61e12b00f19ecd448a748ee4f011b63, type: 3}
        m_Scale: {x: 1, y: 1}
        m_Offset: {x: 0, y: 0}
    - _BumpMap:
        m_Texture: {fileID: 0}
        m_Scale: {x: 1, y: 1}
        m_Offset: {x: 0, y: 0}
    - _DetailAlbedoMap:
        m_Texture: {fileID: 0}
        m_Scale: {x: 1, y: 1}
        m_Offset: {x: 0, y: 0}
    - _DetailMask:
        m_Texture: {fileID: 0}
        m_Scale: {x: 1, y: 1}
        m_Offset: {x: 0, y: 0}
    - _DetailNormalMap:
        m_Texture: {fileID: 0}
        m_Scale: {x: 1, y: 1}
        m_Offset: {x: 0, y: 0}
    - _EmissionMap:
        m_Texture: {fileID: 0}
        m_Scale: {x: 1, y: 1}
        m_Offset: {x: 0, y: 0}
    - _MainTex:
        m_Texture: {fileID: 0}
        m_Scale: {x: 1, y: 1}
        m_Offset: {x: 0, y: 0}
    - _MetallicGlossMap:
        m_Texture: {fileID: 0}
        m_Scale: {x: 1, y: 1}
        m_Offset: {x: 0, y: 0}
    - _MetallicMap:
        m_Texture: {fileID: 0}
        m_Scale: {x: 1, y: 1}
        m_Offset: {x: 0, y: 0}
    - _NormalMap:
        m_Texture: {fileID: 2800000, guid: acd490a80aa34e340a07fc3e561fdd17, type: 3}
        m_Scale: {x: 1, y: 1}
        m_Offset: {x: 0, y: 0}
    - _OcclusionMap:
        m_Texture: {fileID: 0}
        m_Scale: {x: 1, y: 1}
        m_Offset: {x: 0, y: 0}
    - _OclussionMap:
        m_Texture: {fileID: 0}
        m_Scale: {x: 1, y: 1}
        m_Offset: {x: 0, y: 0}
    - _ParallaxMap:
        m_Texture: {fileID: 0}
        m_Scale: {x: 1, y: 1}
        m_Offset: {x: 0, y: 0}
    - _SpecGlossMap:
        m_Texture: {fileID: 0}
        m_Scale: {x: 1, y: 1}
        m_Offset: {x: 0, y: 0}
    - _Tex:
        m_Texture: {fileID: 2800000, guid: 1e903471fb814f44891ab1dd6001720f, type: 3}
        m_Scale: {x: 1, y: 1}
        m_Offset: {x: 0, y: 0}
    - _TexAO:
        m_Texture: {fileID: 0}
        m_Scale: {x: 1, y: 1}
        m_Offset: {x: 0, y: 0}
    - _TexNormal:
        m_Texture: {fileID: 2800000, guid: acd490a80aa34e340a07fc3e561fdd17, type: 3}
        m_Scale: {x: 1, y: 1}
        m_Offset: {x: 0, y: 0}
    - _TexNormalSuciedad:
        m_Texture: {fileID: 2800000, guid: 2f10afaa351e7f748a12bd44b6e13ae1, type: 3}
        m_Scale: {x: 1, y: 1}
        m_Offset: {x: 0, y: 0}
    - _TexSuciedad:
        m_Texture: {fileID: 2800000, guid: 1e903471fb814f44891ab1dd6001720f, type: 3}
        m_Scale: {x: 1, y: 1}
        m_Offset: {x: 0, y: 0}
    - unity_Lightmaps:
        m_Texture: {fileID: 0}
        m_Scale: {x: 1, y: 1}
        m_Offset: {x: 0, y: 0}
    - unity_LightmapsInd:
        m_Texture: {fileID: 0}
        m_Scale: {x: 1, y: 1}
        m_Offset: {x: 0, y: 0}
    - unity_ShadowMasks:
        m_Texture: {fileID: 0}
        m_Scale: {x: 1, y: 1}
        m_Offset: {x: 0, y: 0}
    m_Ints: []
    m_Floats:
    - Vector1_AmplitudeWaveX: 0.041
    - Vector1_AmplitudeWaveY: 0.07
    - Vector1_DFA913BA: 1
    - Vector1_FrequencyWaveX: 0.14
    - Vector1_FrequencyWaveY: 0.07
    - Vector1_Grow: 1
    - Vector1_Grow_Suciedad: 0
    - Vector1_SpeedWaveX: 0.76
    - Vector1_SpeedWaveY: 0.32
    - _AOStrength: 7.09
    - _AjusteTamano: 14.5
    - _Alpha: 1
    - _AlphaClip: 1
    - _AlphaClipping: 0.6
    - _AlphaSuciedadEmision: 0
    - _AmplitudeFactor: 0.1
    - _AnchoLineaEmision: 30
    - _Blend: 0
    - _BrushStrength: 7.5
    - _BumpScale: 1
    - _CastShadows: 1
    - _ClearCoatMask: 0
    - _ClearCoatSmoothness: 0
    - _ColorStrength: 1
    - _Cull: 2
    - _Cutoff: 0.5
    - _DepthFactor: 8.75
    - _DepthOffset: 0.15
    - _DetailAlbedoMapScale: 1
    - _DetailNormalMapScale: 1
    - _DstBlend: 0
    - _EdgeWidth: 0
    - _EnvironmentReflections: 1
    - _FrecuencyFactor: 0.25
    - _GlossMapScale: 0
    - _Glossiness: 0
    - _GlossyReflections: 0
    - _Height: 1150
    - _InclinationX: 0
    - _InclinationY: 0
    - _Invert: 1
    - _Metallic: 0
    - _NoiseScale: 458
    - _NoiseSize: 50
    - _NoiseStregth: 0.25
    - _NoiseSuciedad: 200
    - _NormalStregthSuciedad: 1.16
    - _NormalStrength: 1
    - _OcclusionStrength: 1
    - _OclussionStrength: 1
    - _OnlyColor: 0
    - _Parallax: 0.005
    - _Pruebas: 0
    - _QueueControl: 0
    - _QueueOffset: 0
    - _ReceiveShadows: 1
    - _RotationTexture: 195
    - _ShowDepth: 0
    - _Smoothness: 0.5
    - _SmoothnessTextureChannel: 0
    - _SpecularHighlights: 1
    - _SpeedFactor: 3
    - _SrcBlend: 1
    - _Surface: 0
    - _VerPivot: 0
    - _WindDensity: 0
    - _WindStrength: 1
    - _WorkflowMode: 1
    - _ZTest: 4
    - _ZWrite: 1
    - _ZWriteControl: 1
    m_Colors:
    - _Amplitude: {r: 0.25, g: 0.05, b: 0.25, a: 0}
    - _BaseColor: {r: 1, g: 1, b: 1, a: 1}
    - _Color: {r: 1, g: 1, b: 1, a: 1}
    - _ColorEdge1: {r: 97.88236, g: 23.061289, b: 0, a: 1}
    - _ColorEmisionSuciedad: {r: 23.968628, g: 0.7529412, b: 0, a: 1}
    - _ColorSuciedad: {r: 0, g: 0.24799581, b: 0.7647059, a: 1}
    - _Deformation: {r: 0, g: 0, b: 0, a: 0}
    - _Emission: {r: 0, g: 0, b: 0, a: 0}
    - _EmissionColor: {r: 0, g: 0, b: 0, a: 1}
    - _Frecuency: {r: 0.5, g: 0.25, b: 0.5, a: 0}
    - _Pivot: {r: 0, g: -6.2, b: 0, a: 0}
    - _PivotIntensity: {r: 1, g: 1, b: 1, a: 0}
    - _PivotSize: {r: 10, g: 4, b: 10, a: 0}
    - _SpecColor: {r: 0.19999996, g: 0.19999996, b: 0.19999996, a: 1}
    - _Speed: {r: 2, g: 0.5, b: 2, a: 0}
    - _TillingTexture: {r: 10, g: 15, b: 0, a: 0}
    - _WindMovement: {r: 6, g: 0, b: 0, a: 0}
  m_BuildTextureStacks: []
--- !u!114 &8864581507529831162
MonoBehaviour:
  m_ObjectHideFlags: 11
  m_CorrespondingSourceObject: {fileID: 0}
  m_PrefabInstance: {fileID: 0}
  m_PrefabAsset: {fileID: 0}
  m_GameObject: {fileID: 0}
  m_Enabled: 1
  m_EditorHideFlags: 0
  m_Script: {fileID: 11500000, guid: d0353a89b1f911e48b9e16bdc9f2e058, type: 3}
  m_Name: 
  m_EditorClassIdentifier: 
  version: 5
