%YAML 1.1
%TAG !u! tag:unity3d.com,2011:
--- !u!1 &2871690131064468124
GameObject:
  m_ObjectHideFlags: 0
  m_CorrespondingSourceObject: {fileID: 0}
  m_PrefabInstance: {fileID: 0}
  m_PrefabAsset: {fileID: 0}
  serializedVersion: 6
  m_Component:
  - component: {fileID: 2871690131064468125}
  - component: {fileID: 2871690131064468126}
  m_Layer: 6
  m_Name: Decal5
  m_TagString: Untagged
  m_Icon: {fileID: 0}
  m_NavMeshLayer: 0
  m_StaticEditorFlags: 0
  m_IsActive: 1
--- !u!4 &2871690131064468125
Transform:
  m_ObjectHideFlags: 0
  m_CorrespondingSourceObject: {fileID: 0}
  m_PrefabInstance: {fileID: 0}
  m_PrefabAsset: {fileID: 0}
  m_GameObject: {fileID: 2871690131064468124}
  m_LocalRotation: {x: 0.54080355, y: -0.4555563, z: -0.5408036, w: 0.45555627}
  m_LocalPosition: {x: 4.04, y: 5.408, z: -0.11}
  m_LocalScale: {x: 162.60927, y: 64.06859, z: 2948.0342}
  m_ConstrainProportionsScale: 0
  m_Children: []
  m_Father: {fileID: 0}
  m_RootOrder: 0
  m_LocalEulerAnglesHint: {x: 0, y: 0, z: 0}
--- !u!114 &2871690131064468126
MonoBehaviour:
  m_ObjectHideFlags: 0
  m_CorrespondingSourceObject: {fileID: 0}
  m_PrefabInstance: {fileID: 0}
  m_PrefabAsset: {fileID: 0}
  m_GameObject: {fileID: 2871690131064468124}
  m_Enabled: 1
  m_EditorHideFlags: 0
  m_Script: {fileID: 11500000, guid: 0777d029ed3dffa4692f417d4aba19ca, type: 3}
  m_Name: 
  m_EditorClassIdentifier: 
  m_Material: {fileID: 2100000, guid: e45f5141b0afb9c46b501d6e7895e0d2, type: 2}
  m_DrawDistance: 1000
  m_FadeScale: 0.9
  m_StartAngleFade: 180
  m_EndAngleFade: 180
  m_UVScale: {x: 1, y: 1}
  m_UVBias: {x: 0, y: 0}
  m_ScaleMode: 0
  m_Offset: {x: 9.039913, y: -5.9806733, z: 10}
  m_Size: {x: 20, y: 20, z: 20}
  m_FadeFactor: 1
