%YAML 1.1
%TAG !u! tag:unity3d.com,2011:
--- !u!114 &11400000
MonoBehaviour:
  m_ObjectHideFlags: 0
  m_CorrespondingSourceObject: {fileID: 0}
  m_PrefabInstance: {fileID: 0}
  m_PrefabAsset: {fileID: 0}
  m_GameObject: {fileID: 0}
  m_Enabled: 1
  m_EditorHideFlags: 0
  m_Script: {fileID: 11500000, guid: e9620f8c34305754d8cc9a7e49e852d9, type: 3}
  m_Name: LocalizationTable_es
  m_EditorClassIdentifier: 
  m_LocaleId:
    m_Code: es
  m_SharedData: {fileID: 11400000, guid: ab1b5a13dd8772f44a714214ab000957, type: 2}
  m_Metadata:
    m_Items: []
  m_TableData: []
  references:
    version: 2
    RefIds: []
