%YAML 1.1
%TAG !u! tag:unity3d.com,2011:
--- !u!1 &1649895239033181676
GameObject:
  m_ObjectHideFlags: 0
  m_CorrespondingSourceObject: {fileID: 0}
  m_PrefabInstance: {fileID: 0}
  m_PrefabAsset: {fileID: 0}
  serializedVersion: 6
  m_Component:
  - component: {fileID: 2138728610261765974}
  m_Layer: 6
  m_Name: Roca3
  m_TagString: Untagged
  m_Icon: {fileID: 0}
  m_NavMeshLayer: 0
  m_StaticEditorFlags: 2147483647
  m_IsActive: 1
--- !u!4 &2138728610261765974
Transform:
  m_ObjectHideFlags: 0
  m_CorrespondingSourceObject: {fileID: 0}
  m_PrefabInstance: {fileID: 0}
  m_PrefabAsset: {fileID: 0}
  m_GameObject: {fileID: 1649895239033181676}
  m_LocalRotation: {x: 0, y: -0, z: -0, w: 1}
  m_LocalPosition: {x: 0, y: 0, z: 0}
  m_LocalScale: {x: 1, y: 1, z: 1}
  m_ConstrainProportionsScale: 0
  m_Children:
  - {fileID: 3945531869473414759}
  m_Father: {fileID: 0}
  m_RootOrder: 0
  m_LocalEulerAnglesHint: {x: 0, y: 0, z: 0}
--- !u!1001 &3552180300665551244
PrefabInstance:
  m_ObjectHideFlags: 0
  serializedVersion: 2
  m_Modification:
    m_TransformParent: {fileID: 2138728610261765974}
    m_Modifications:
    - target: {fileID: -8679921383154817045, guid: b4a6bc6bc1860f24e8b474fb2b2612fe,
        type: 3}
      propertyPath: m_RootOrder
      value: 0
      objectReference: {fileID: 0}
    - target: {fileID: -8679921383154817045, guid: b4a6bc6bc1860f24e8b474fb2b2612fe,
        type: 3}
      propertyPath: m_LocalPosition.x
      value: 0
      objectReference: {fileID: 0}
    - target: {fileID: -8679921383154817045, guid: b4a6bc6bc1860f24e8b474fb2b2612fe,
        type: 3}
      propertyPath: m_LocalPosition.y
      value: 0
      objectReference: {fileID: 0}
    - target: {fileID: -8679921383154817045, guid: b4a6bc6bc1860f24e8b474fb2b2612fe,
        type: 3}
      propertyPath: m_LocalPosition.z
      value: 0
      objectReference: {fileID: 0}
    - target: {fileID: -8679921383154817045, guid: b4a6bc6bc1860f24e8b474fb2b2612fe,
        type: 3}
      propertyPath: m_LocalRotation.w
      value: 1
      objectReference: {fileID: 0}
    - target: {fileID: -8679921383154817045, guid: b4a6bc6bc1860f24e8b474fb2b2612fe,
        type: 3}
      propertyPath: m_LocalRotation.x
      value: 0
      objectReference: {fileID: 0}
    - target: {fileID: -8679921383154817045, guid: b4a6bc6bc1860f24e8b474fb2b2612fe,
        type: 3}
      propertyPath: m_LocalRotation.y
      value: 0
      objectReference: {fileID: 0}
    - target: {fileID: -8679921383154817045, guid: b4a6bc6bc1860f24e8b474fb2b2612fe,
        type: 3}
      propertyPath: m_LocalRotation.z
      value: 0
      objectReference: {fileID: 0}
    - target: {fileID: -8679921383154817045, guid: b4a6bc6bc1860f24e8b474fb2b2612fe,
        type: 3}
      propertyPath: m_LocalEulerAnglesHint.x
      value: 0
      objectReference: {fileID: 0}
    - target: {fileID: -8679921383154817045, guid: b4a6bc6bc1860f24e8b474fb2b2612fe,
        type: 3}
      propertyPath: m_LocalEulerAnglesHint.y
      value: 0
      objectReference: {fileID: 0}
    - target: {fileID: -8679921383154817045, guid: b4a6bc6bc1860f24e8b474fb2b2612fe,
        type: 3}
      propertyPath: m_LocalEulerAnglesHint.z
      value: 0
      objectReference: {fileID: 0}
    - target: {fileID: -7079228034658639983, guid: b4a6bc6bc1860f24e8b474fb2b2612fe,
        type: 3}
      propertyPath: m_Materials.Array.data[0]
      value: 
      objectReference: {fileID: 2100000, guid: 9d45caca7d2f2464dbe04d55fb497616, type: 2}
    - target: {fileID: -5764611307021889702, guid: b4a6bc6bc1860f24e8b474fb2b2612fe,
        type: 3}
      propertyPath: m_Materials.Array.data[0]
      value: 
      objectReference: {fileID: 2100000, guid: 9d45caca7d2f2464dbe04d55fb497616, type: 2}
    - target: {fileID: -3980531892903495866, guid: b4a6bc6bc1860f24e8b474fb2b2612fe,
        type: 3}
      propertyPath: m_LocalPosition.x
      value: 0
      objectReference: {fileID: 0}
    - target: {fileID: -3980531892903495866, guid: b4a6bc6bc1860f24e8b474fb2b2612fe,
        type: 3}
      propertyPath: m_LocalPosition.y
      value: 0
      objectReference: {fileID: 0}
    - target: {fileID: -3980531892903495866, guid: b4a6bc6bc1860f24e8b474fb2b2612fe,
        type: 3}
      propertyPath: m_LocalPosition.z
      value: 0
      objectReference: {fileID: 0}
    - target: {fileID: 174141021731983873, guid: b4a6bc6bc1860f24e8b474fb2b2612fe,
        type: 3}
      propertyPath: m_StaticEditorFlags
      value: 2147483647
      objectReference: {fileID: 0}
    - target: {fileID: 645531113937051947, guid: b4a6bc6bc1860f24e8b474fb2b2612fe,
        type: 3}
      propertyPath: m_LocalPosition.x
      value: 0
      objectReference: {fileID: 0}
    - target: {fileID: 645531113937051947, guid: b4a6bc6bc1860f24e8b474fb2b2612fe,
        type: 3}
      propertyPath: m_LocalPosition.y
      value: 0
      objectReference: {fileID: 0}
    - target: {fileID: 645531113937051947, guid: b4a6bc6bc1860f24e8b474fb2b2612fe,
        type: 3}
      propertyPath: m_LocalPosition.z
      value: 0
      objectReference: {fileID: 0}
    - target: {fileID: 911839742487232234, guid: b4a6bc6bc1860f24e8b474fb2b2612fe,
        type: 3}
      propertyPath: m_LocalPosition.x
      value: 0
      objectReference: {fileID: 0}
    - target: {fileID: 911839742487232234, guid: b4a6bc6bc1860f24e8b474fb2b2612fe,
        type: 3}
      propertyPath: m_LocalPosition.y
      value: 0
      objectReference: {fileID: 0}
    - target: {fileID: 911839742487232234, guid: b4a6bc6bc1860f24e8b474fb2b2612fe,
        type: 3}
      propertyPath: m_LocalPosition.z
      value: 0
      objectReference: {fileID: 0}
    - target: {fileID: 919132149155446097, guid: b4a6bc6bc1860f24e8b474fb2b2612fe,
        type: 3}
      propertyPath: m_Name
      value: Roca3
      objectReference: {fileID: 0}
    - target: {fileID: 919132149155446097, guid: b4a6bc6bc1860f24e8b474fb2b2612fe,
        type: 3}
      propertyPath: m_StaticEditorFlags
      value: 2147483647
      objectReference: {fileID: 0}
    - target: {fileID: 1379857030387893367, guid: b4a6bc6bc1860f24e8b474fb2b2612fe,
        type: 3}
      propertyPath: m_LocalPosition.x
      value: 0
      objectReference: {fileID: 0}
    - target: {fileID: 1379857030387893367, guid: b4a6bc6bc1860f24e8b474fb2b2612fe,
        type: 3}
      propertyPath: m_LocalPosition.y
      value: 0
      objectReference: {fileID: 0}
    - target: {fileID: 1379857030387893367, guid: b4a6bc6bc1860f24e8b474fb2b2612fe,
        type: 3}
      propertyPath: m_LocalPosition.z
      value: 0
      objectReference: {fileID: 0}
    - target: {fileID: 4742473837712756890, guid: b4a6bc6bc1860f24e8b474fb2b2612fe,
        type: 3}
      propertyPath: m_FadeMode
      value: 1
      objectReference: {fileID: 0}
    - target: {fileID: 4742473837712756890, guid: b4a6bc6bc1860f24e8b474fb2b2612fe,
        type: 3}
      propertyPath: m_LocalReferencePoint.x
      value: 3.2891445
      objectReference: {fileID: 0}
    - target: {fileID: 4742473837712756890, guid: b4a6bc6bc1860f24e8b474fb2b2612fe,
        type: 3}
      propertyPath: m_LocalReferencePoint.y
      value: 3.7788334
      objectReference: {fileID: 0}
    - target: {fileID: 4742473837712756890, guid: b4a6bc6bc1860f24e8b474fb2b2612fe,
        type: 3}
      propertyPath: m_LocalReferencePoint.z
      value: -0.3292699
      objectReference: {fileID: 0}
    - target: {fileID: 4742473837712756890, guid: b4a6bc6bc1860f24e8b474fb2b2612fe,
        type: 3}
      propertyPath: m_LODs.Array.data[0].fadeTransitionWidth
      value: 0.32
      objectReference: {fileID: 0}
    - target: {fileID: 4742473837712756890, guid: b4a6bc6bc1860f24e8b474fb2b2612fe,
        type: 3}
      propertyPath: m_LODs.Array.data[1].fadeTransitionWidth
      value: 0.32
      objectReference: {fileID: 0}
    - target: {fileID: 4742473837712756890, guid: b4a6bc6bc1860f24e8b474fb2b2612fe,
        type: 3}
      propertyPath: m_LODs.Array.data[2].fadeTransitionWidth
      value: 0.32
      objectReference: {fileID: 0}
    - target: {fileID: 4742473837712756890, guid: b4a6bc6bc1860f24e8b474fb2b2612fe,
        type: 3}
      propertyPath: m_LODs.Array.data[3].fadeTransitionWidth
      value: 0.32
      objectReference: {fileID: 0}
    - target: {fileID: 4742473837712756890, guid: b4a6bc6bc1860f24e8b474fb2b2612fe,
        type: 3}
      propertyPath: m_LODs.Array.data[0].screenRelativeHeight
      value: 0.46692944
      objectReference: {fileID: 0}
    - target: {fileID: 4742473837712756890, guid: b4a6bc6bc1860f24e8b474fb2b2612fe,
        type: 3}
      propertyPath: m_LODs.Array.data[1].screenRelativeHeight
      value: 0.18249449
      objectReference: {fileID: 0}
    - target: {fileID: 4742473837712756890, guid: b4a6bc6bc1860f24e8b474fb2b2612fe,
        type: 3}
      propertyPath: m_LODs.Array.data[2].screenRelativeHeight
      value: 0.08449638
      objectReference: {fileID: 0}
    - target: {fileID: 4742473837712756890, guid: b4a6bc6bc1860f24e8b474fb2b2612fe,
        type: 3}
      propertyPath: m_LODs.Array.data[3].screenRelativeHeight
      value: 0.028761294
      objectReference: {fileID: 0}
    - target: {fileID: 5632574526114844688, guid: b4a6bc6bc1860f24e8b474fb2b2612fe,
        type: 3}
      propertyPath: m_Materials.Array.data[0]
      value: 
      objectReference: {fileID: 2100000, guid: 9d45caca7d2f2464dbe04d55fb497616, type: 2}
    - target: {fileID: 6339775535123677892, guid: b4a6bc6bc1860f24e8b474fb2b2612fe,
        type: 3}
      propertyPath: m_StaticEditorFlags
      value: 2147483647
      objectReference: {fileID: 0}
    - target: {fileID: 7615781974870141090, guid: b4a6bc6bc1860f24e8b474fb2b2612fe,
        type: 3}
      propertyPath: m_StaticEditorFlags
      value: 2147483647
      objectReference: {fileID: 0}
    - target: {fileID: 8263021585475698733, guid: b4a6bc6bc1860f24e8b474fb2b2612fe,
        type: 3}
      propertyPath: m_Layer
      value: 18
      objectReference: {fileID: 0}
    - target: {fileID: 8263021585475698733, guid: b4a6bc6bc1860f24e8b474fb2b2612fe,
        type: 3}
      propertyPath: m_StaticEditorFlags
      value: 2147483647
      objectReference: {fileID: 0}
    - target: {fileID: 8862962973402895653, guid: b4a6bc6bc1860f24e8b474fb2b2612fe,
        type: 3}
      propertyPath: m_Materials.Array.data[0]
      value: 
      objectReference: {fileID: 2100000, guid: 9d45caca7d2f2464dbe04d55fb497616, type: 2}
    m_RemovedComponents: []
  m_SourcePrefab: {fileID: 100100000, guid: b4a6bc6bc1860f24e8b474fb2b2612fe, type: 3}
--- !u!4 &3945531869473414759 stripped
Transform:
  m_CorrespondingSourceObject: {fileID: -8679921383154817045, guid: b4a6bc6bc1860f24e8b474fb2b2612fe,
    type: 3}
  m_PrefabInstance: {fileID: 3552180300665551244}
  m_PrefabAsset: {fileID: 0}
--- !u!1 &4893098819092576673 stripped
GameObject:
  m_CorrespondingSourceObject: {fileID: 8263021585475698733, guid: b4a6bc6bc1860f24e8b474fb2b2612fe,
    type: 3}
  m_PrefabInstance: {fileID: 3552180300665551244}
  m_PrefabAsset: {fileID: 0}
--- !u!64 &2774958241058507211
MeshCollider:
  m_ObjectHideFlags: 0
  m_CorrespondingSourceObject: {fileID: 0}
  m_PrefabInstance: {fileID: 0}
  m_PrefabAsset: {fileID: 0}
  m_GameObject: {fileID: 4893098819092576673}
  m_Material: {fileID: 0}
  m_IsTrigger: 0
  m_Enabled: 1
  serializedVersion: 4
  m_Convex: 0
  m_CookingOptions: 30
  m_Mesh: {fileID: -8414824987793852002, guid: b4a6bc6bc1860f24e8b474fb2b2612fe, type: 3}
--- !u!114 &1816380404325521111
MonoBehaviour:
  m_ObjectHideFlags: 0
  m_CorrespondingSourceObject: {fileID: 0}
  m_PrefabInstance: {fileID: 0}
  m_PrefabAsset: {fileID: 0}
  m_GameObject: {fileID: 4893098819092576673}
  m_Enabled: 1
  m_EditorHideFlags: 0
  m_Script: {fileID: 11500000, guid: 61a2602c9dcbf7c43a47883e2cddec42, type: 3}
  m_Name: 
  m_EditorClassIdentifier: 
  alphaValue: 0.5
