%YAML 1.1
%TAG !u! tag:unity3d.com,2011:
--- !u!1 &6270339065446623850
GameObject:
  m_ObjectHideFlags: 0
  m_CorrespondingSourceObject: {fileID: 0}
  m_PrefabInstance: {fileID: 0}
  m_PrefabAsset: {fileID: 0}
  serializedVersion: 6
  m_Component:
  - component: {fileID: 6651650091121848528}
  m_Layer: 6
  m_Name: Roca11
  m_TagString: Untagged
  m_Icon: {fileID: 0}
  m_NavMeshLayer: 0
  m_StaticEditorFlags: 2147483647
  m_IsActive: 1
--- !u!4 &6651650091121848528
Transform:
  m_ObjectHideFlags: 0
  m_CorrespondingSourceObject: {fileID: 0}
  m_PrefabInstance: {fileID: 0}
  m_PrefabAsset: {fileID: 0}
  m_GameObject: {fileID: 6270339065446623850}
  m_LocalRotation: {x: 0, y: -0, z: -0, w: 1}
  m_LocalPosition: {x: 0, y: 0, z: 0}
  m_LocalScale: {x: 1, y: 1, z: 1}
  m_ConstrainProportionsScale: 0
  m_Children:
  - {fileID: 4844313258037370233}
  m_Father: {fileID: 0}
  m_RootOrder: 0
  m_LocalEulerAnglesHint: {x: 0, y: 0, z: 0}
--- !u!1001 &4949680568157944466
PrefabInstance:
  m_ObjectHideFlags: 0
  serializedVersion: 2
  m_Modification:
    m_TransformParent: {fileID: 6651650091121848528}
    m_Modifications:
    - target: {fileID: -8928473891637432436, guid: 3095f1dc986f0bb4cbc5eaf2546b7c60,
        type: 3}
      propertyPath: m_LocalPosition.x
      value: 0
      objectReference: {fileID: 0}
    - target: {fileID: -8928473891637432436, guid: 3095f1dc986f0bb4cbc5eaf2546b7c60,
        type: 3}
      propertyPath: m_LocalPosition.y
      value: 0
      objectReference: {fileID: 0}
    - target: {fileID: -8928473891637432436, guid: 3095f1dc986f0bb4cbc5eaf2546b7c60,
        type: 3}
      propertyPath: m_LocalPosition.z
      value: 0
      objectReference: {fileID: 0}
    - target: {fileID: -8679921383154817045, guid: 3095f1dc986f0bb4cbc5eaf2546b7c60,
        type: 3}
      propertyPath: m_RootOrder
      value: 0
      objectReference: {fileID: 0}
    - target: {fileID: -8679921383154817045, guid: 3095f1dc986f0bb4cbc5eaf2546b7c60,
        type: 3}
      propertyPath: m_LocalPosition.x
      value: 0
      objectReference: {fileID: 0}
    - target: {fileID: -8679921383154817045, guid: 3095f1dc986f0bb4cbc5eaf2546b7c60,
        type: 3}
      propertyPath: m_LocalPosition.y
      value: 0
      objectReference: {fileID: 0}
    - target: {fileID: -8679921383154817045, guid: 3095f1dc986f0bb4cbc5eaf2546b7c60,
        type: 3}
      propertyPath: m_LocalPosition.z
      value: 0
      objectReference: {fileID: 0}
    - target: {fileID: -8679921383154817045, guid: 3095f1dc986f0bb4cbc5eaf2546b7c60,
        type: 3}
      propertyPath: m_LocalRotation.w
      value: 1
      objectReference: {fileID: 0}
    - target: {fileID: -8679921383154817045, guid: 3095f1dc986f0bb4cbc5eaf2546b7c60,
        type: 3}
      propertyPath: m_LocalRotation.x
      value: 0
      objectReference: {fileID: 0}
    - target: {fileID: -8679921383154817045, guid: 3095f1dc986f0bb4cbc5eaf2546b7c60,
        type: 3}
      propertyPath: m_LocalRotation.y
      value: 0
      objectReference: {fileID: 0}
    - target: {fileID: -8679921383154817045, guid: 3095f1dc986f0bb4cbc5eaf2546b7c60,
        type: 3}
      propertyPath: m_LocalRotation.z
      value: 0
      objectReference: {fileID: 0}
    - target: {fileID: -8679921383154817045, guid: 3095f1dc986f0bb4cbc5eaf2546b7c60,
        type: 3}
      propertyPath: m_LocalEulerAnglesHint.x
      value: 0
      objectReference: {fileID: 0}
    - target: {fileID: -8679921383154817045, guid: 3095f1dc986f0bb4cbc5eaf2546b7c60,
        type: 3}
      propertyPath: m_LocalEulerAnglesHint.y
      value: 0
      objectReference: {fileID: 0}
    - target: {fileID: -8679921383154817045, guid: 3095f1dc986f0bb4cbc5eaf2546b7c60,
        type: 3}
      propertyPath: m_LocalEulerAnglesHint.z
      value: 0
      objectReference: {fileID: 0}
    - target: {fileID: -8532147721018180748, guid: 3095f1dc986f0bb4cbc5eaf2546b7c60,
        type: 3}
      propertyPath: m_Layer
      value: 18
      objectReference: {fileID: 0}
    - target: {fileID: -8532147721018180748, guid: 3095f1dc986f0bb4cbc5eaf2546b7c60,
        type: 3}
      propertyPath: m_StaticEditorFlags
      value: 2147483647
      objectReference: {fileID: 0}
    - target: {fileID: -7830982373310168685, guid: 3095f1dc986f0bb4cbc5eaf2546b7c60,
        type: 3}
      propertyPath: m_StaticEditorFlags
      value: 2147483647
      objectReference: {fileID: 0}
    - target: {fileID: -6922132834836052962, guid: 3095f1dc986f0bb4cbc5eaf2546b7c60,
        type: 3}
      propertyPath: m_LocalPosition.x
      value: 0
      objectReference: {fileID: 0}
    - target: {fileID: -6922132834836052962, guid: 3095f1dc986f0bb4cbc5eaf2546b7c60,
        type: 3}
      propertyPath: m_LocalPosition.y
      value: 0
      objectReference: {fileID: 0}
    - target: {fileID: -6922132834836052962, guid: 3095f1dc986f0bb4cbc5eaf2546b7c60,
        type: 3}
      propertyPath: m_LocalPosition.z
      value: 0
      objectReference: {fileID: 0}
    - target: {fileID: -5339865318632961915, guid: 3095f1dc986f0bb4cbc5eaf2546b7c60,
        type: 3}
      propertyPath: m_Materials.Array.data[0]
      value: 
      objectReference: {fileID: 2100000, guid: 3fb7769c562205d43bf12dae194fdbb2, type: 2}
    - target: {fileID: -4395682219018441406, guid: 3095f1dc986f0bb4cbc5eaf2546b7c60,
        type: 3}
      propertyPath: m_Materials.Array.data[0]
      value: 
      objectReference: {fileID: 2100000, guid: 3fb7769c562205d43bf12dae194fdbb2, type: 2}
    - target: {fileID: -1719978759452622752, guid: 3095f1dc986f0bb4cbc5eaf2546b7c60,
        type: 3}
      propertyPath: m_Materials.Array.data[0]
      value: 
      objectReference: {fileID: 2100000, guid: 3fb7769c562205d43bf12dae194fdbb2, type: 2}
    - target: {fileID: 919132149155446097, guid: 3095f1dc986f0bb4cbc5eaf2546b7c60,
        type: 3}
      propertyPath: m_Name
      value: Roca11
      objectReference: {fileID: 0}
    - target: {fileID: 919132149155446097, guid: 3095f1dc986f0bb4cbc5eaf2546b7c60,
        type: 3}
      propertyPath: m_StaticEditorFlags
      value: 2147483647
      objectReference: {fileID: 0}
    - target: {fileID: 1564605303772955026, guid: 3095f1dc986f0bb4cbc5eaf2546b7c60,
        type: 3}
      propertyPath: m_LocalPosition.x
      value: 0
      objectReference: {fileID: 0}
    - target: {fileID: 1564605303772955026, guid: 3095f1dc986f0bb4cbc5eaf2546b7c60,
        type: 3}
      propertyPath: m_LocalPosition.y
      value: 0
      objectReference: {fileID: 0}
    - target: {fileID: 1564605303772955026, guid: 3095f1dc986f0bb4cbc5eaf2546b7c60,
        type: 3}
      propertyPath: m_LocalPosition.z
      value: 0
      objectReference: {fileID: 0}
    - target: {fileID: 4742473837712756890, guid: 3095f1dc986f0bb4cbc5eaf2546b7c60,
        type: 3}
      propertyPath: m_Size
      value: 23.112738
      objectReference: {fileID: 0}
    - target: {fileID: 4742473837712756890, guid: 3095f1dc986f0bb4cbc5eaf2546b7c60,
        type: 3}
      propertyPath: m_FadeMode
      value: 1
      objectReference: {fileID: 0}
    - target: {fileID: 4742473837712756890, guid: 3095f1dc986f0bb4cbc5eaf2546b7c60,
        type: 3}
      propertyPath: m_LocalReferencePoint.x
      value: -0.15689945
      objectReference: {fileID: 0}
    - target: {fileID: 4742473837712756890, guid: 3095f1dc986f0bb4cbc5eaf2546b7c60,
        type: 3}
      propertyPath: m_LocalReferencePoint.y
      value: 6.67949
      objectReference: {fileID: 0}
    - target: {fileID: 4742473837712756890, guid: 3095f1dc986f0bb4cbc5eaf2546b7c60,
        type: 3}
      propertyPath: m_LocalReferencePoint.z
      value: 2.2090168
      objectReference: {fileID: 0}
    - target: {fileID: 4742473837712756890, guid: 3095f1dc986f0bb4cbc5eaf2546b7c60,
        type: 3}
      propertyPath: m_LODs.Array.data[0].fadeTransitionWidth
      value: 0.42
      objectReference: {fileID: 0}
    - target: {fileID: 4742473837712756890, guid: 3095f1dc986f0bb4cbc5eaf2546b7c60,
        type: 3}
      propertyPath: m_LODs.Array.data[1].fadeTransitionWidth
      value: 0.42
      objectReference: {fileID: 0}
    - target: {fileID: 4742473837712756890, guid: 3095f1dc986f0bb4cbc5eaf2546b7c60,
        type: 3}
      propertyPath: m_LODs.Array.data[2].fadeTransitionWidth
      value: 0.42
      objectReference: {fileID: 0}
    - target: {fileID: 4742473837712756890, guid: 3095f1dc986f0bb4cbc5eaf2546b7c60,
        type: 3}
      propertyPath: m_LODs.Array.data[0].screenRelativeHeight
      value: 0.3653435
      objectReference: {fileID: 0}
    - target: {fileID: 4742473837712756890, guid: 3095f1dc986f0bb4cbc5eaf2546b7c60,
        type: 3}
      propertyPath: m_LODs.Array.data[1].screenRelativeHeight
      value: 0.1513738
      objectReference: {fileID: 0}
    - target: {fileID: 4742473837712756890, guid: 3095f1dc986f0bb4cbc5eaf2546b7c60,
        type: 3}
      propertyPath: m_LODs.Array.data[2].screenRelativeHeight
      value: 0.019948753
      objectReference: {fileID: 0}
    - target: {fileID: 9195573292804856237, guid: 3095f1dc986f0bb4cbc5eaf2546b7c60,
        type: 3}
      propertyPath: m_StaticEditorFlags
      value: 2147483647
      objectReference: {fileID: 0}
    m_RemovedComponents: []
  m_SourcePrefab: {fileID: 100100000, guid: 3095f1dc986f0bb4cbc5eaf2546b7c60, type: 3}
--- !u!4 &4844313258037370233 stripped
Transform:
  m_CorrespondingSourceObject: {fileID: -8679921383154817045, guid: 3095f1dc986f0bb4cbc5eaf2546b7c60,
    type: 3}
  m_PrefabInstance: {fileID: 4949680568157944466}
  m_PrefabAsset: {fileID: 0}
--- !u!1 &5559540473228968422 stripped
GameObject:
  m_CorrespondingSourceObject: {fileID: -8532147721018180748, guid: 3095f1dc986f0bb4cbc5eaf2546b7c60,
    type: 3}
  m_PrefabInstance: {fileID: 4949680568157944466}
  m_PrefabAsset: {fileID: 0}
--- !u!114 &8363023087664339474
MonoBehaviour:
  m_ObjectHideFlags: 0
  m_CorrespondingSourceObject: {fileID: 0}
  m_PrefabInstance: {fileID: 0}
  m_PrefabAsset: {fileID: 0}
  m_GameObject: {fileID: 5559540473228968422}
  m_Enabled: 1
  m_EditorHideFlags: 0
  m_Script: {fileID: 11500000, guid: 61a2602c9dcbf7c43a47883e2cddec42, type: 3}
  m_Name: 
  m_EditorClassIdentifier: 
  alphaValue: 0.5
--- !u!64 &1799725140064665546
MeshCollider:
  m_ObjectHideFlags: 0
  m_CorrespondingSourceObject: {fileID: 0}
  m_PrefabInstance: {fileID: 0}
  m_PrefabAsset: {fileID: 0}
  m_GameObject: {fileID: 5559540473228968422}
  m_Material: {fileID: 0}
  m_IsTrigger: 0
  m_Enabled: 1
  serializedVersion: 4
  m_Convex: 0
  m_CookingOptions: 30
  m_Mesh: {fileID: 8740278904621950354, guid: 3095f1dc986f0bb4cbc5eaf2546b7c60, type: 3}
