%YAML 1.1
%TAG !u! tag:unity3d.com,2011:
--- !u!114 &11400000
MonoBehaviour:
  m_ObjectHideFlags: 0
  m_CorrespondingSourceObject: {fileID: 0}
  m_PrefabInstance: {fileID: 0}
  m_PrefabAsset: {fileID: 0}
  m_GameObject: {fileID: 0}
  m_Enabled: 1
  m_EditorHideFlags: 0
  m_Script: {fileID: 11500000, guid: 6ac3e644351d3c340a27c620a1a27beb, type: 3}
  m_Name: ExtraLifeAmulet_Temp
  m_EditorClassIdentifier: 
  Name:
    FieldName: 
    TextTable: {fileID: 11400000, guid: b903c7e71bd37c64bb0010f1081954d3, type: 2}
    TextColor: {r: 1, g: 1, b: 1, a: 1}
  Description:
    FieldName: 
    TextTable: {fileID: 11400000, guid: b903c7e71bd37c64bb0010f1081954d3, type: 2}
    TextColor: {r: 1, g: 1, b: 1, a: 1}
  Price: 400
  Icon: {fileID: 2800000, guid: 84f2a1eb2e3bf40edbbfa365ba480de5, type: 3}
  purchased: 0
  CanBuy: 1
  isEquipped: 0
  amountOfLife: 4
