%YAML 1.1
%TAG !u! tag:unity3d.com,2011:
--- !u!114 &11400000
MonoBehaviour:
  m_ObjectHideFlags: 0
  m_CorrespondingSourceObject: {fileID: 0}
  m_PrefabInstance: {fileID: 0}
  m_PrefabAsset: {fileID: 0}
  m_GameObject: {fileID: 0}
  m_Enabled: 1
  m_EditorHideFlags: 0
  m_Script: {fileID: 11500000, guid: 3ba90318c70294a4499a855137a3488f, type: 3}
  m_Name: LungeInputInteractionData
  m_EditorClassIdentifier: 
  inputActionReference: {fileID: -1002854924392442077, guid: ec17c8a8375bbfe409ce3d56be7e5ab3,
    type: 3}
