%YAML 1.1
%TAG !u! tag:unity3d.com,2011:
--- !u!114 &11400000
MonoBehaviour:
  m_ObjectHideFlags: 0
  m_CorrespondingSourceObject: {fileID: 0}
  m_PrefabInstance: {fileID: 0}
  m_PrefabAsset: {fileID: 0}
  m_GameObject: {fileID: 0}
  m_Enabled: 1
  m_EditorHideFlags: 0
  m_Script: {fileID: 11500000, guid: c4aef42203edced43992d289d1e89a28, type: 3}
  m_Name: GrowCoralLungeData
  m_EditorClassIdentifier: 
  abilityData: {fileID: 11400000, guid: f8756285be6c43f41a88dd57cfae35e1, type: 2}
  <AbilityToUnlock>k__BackingField:
    playerAbilities: {fileID: 11400000, guid: 843e793a5f4d0a34f8a36be49d10e8cb, type: 2}
    <Ability>k__BackingField: {fileID: -8087768560676880702, guid: 711a28badb1520c43869c1ee1042647e,
      type: 3}
    effect: {fileID: 7699676740571871477, guid: da10800771d6cfe439114811a7c8976e,
      type: 3}
    islocked: 1
  <FoodNumber>k__BackingField: 1
  <LevelIntensityMusic>k__BackingField: 1
  <LayerData>k__BackingField: {fileID: 11400000, guid: d90667e38f692854f871a6ece5614e19,
    type: 2}
  <collectableData>k__BackingField: {fileID: 11400000, guid: 9ef9b2f47ee5f6544aae81c146d8a3d4,
    type: 2}
  isPlanted: 0
