%YAML 1.1
%TAG !u! tag:unity3d.com,2011:
--- !u!1 &3203973607962052044
GameObject:
  m_ObjectHideFlags: 0
  m_CorrespondingSourceObject: {fileID: 0}
  m_PrefabInstance: {fileID: 0}
  m_PrefabAsset: {fileID: 0}
  serializedVersion: 6
  m_Component:
  - component: {fileID: 6967314067155581358}
  m_Layer: 0
  m_Name: CoralRigido_Dedo1
  m_TagString: Untagged
  m_Icon: {fileID: 0}
  m_NavMeshLayer: 0
  m_StaticEditorFlags: 2147483647
  m_IsActive: 1
--- !u!4 &6967314067155581358
Transform:
  m_ObjectHideFlags: 0
  m_CorrespondingSourceObject: {fileID: 0}
  m_PrefabInstance: {fileID: 0}
  m_PrefabAsset: {fileID: 0}
  m_GameObject: {fileID: 3203973607962052044}
  m_LocalRotation: {x: 0, y: 0, z: 0, w: 1}
  m_LocalPosition: {x: 0, y: 0, z: 0}
  m_LocalScale: {x: 1, y: 1, z: 1}
  m_ConstrainProportionsScale: 0
  m_Children:
  - {fileID: 3766668824693780680}
  m_Father: {fileID: 0}
  m_RootOrder: 0
  m_LocalEulerAnglesHint: {x: 0, y: 0, z: 0}
--- !u!1001 &3733303958497941283
PrefabInstance:
  m_ObjectHideFlags: 0
  serializedVersion: 2
  m_Modification:
    m_TransformParent: {fileID: 6967314067155581358}
    m_Modifications:
    - target: {fileID: -8679921383154817045, guid: 1557623411cbbe44fab8877a265fc490,
        type: 3}
      propertyPath: m_RootOrder
      value: 0
      objectReference: {fileID: 0}
    - target: {fileID: -8679921383154817045, guid: 1557623411cbbe44fab8877a265fc490,
        type: 3}
      propertyPath: m_LocalPosition.x
      value: 0
      objectReference: {fileID: 0}
    - target: {fileID: -8679921383154817045, guid: 1557623411cbbe44fab8877a265fc490,
        type: 3}
      propertyPath: m_LocalPosition.y
      value: 0
      objectReference: {fileID: 0}
    - target: {fileID: -8679921383154817045, guid: 1557623411cbbe44fab8877a265fc490,
        type: 3}
      propertyPath: m_LocalPosition.z
      value: 0
      objectReference: {fileID: 0}
    - target: {fileID: -8679921383154817045, guid: 1557623411cbbe44fab8877a265fc490,
        type: 3}
      propertyPath: m_LocalRotation.w
      value: 1
      objectReference: {fileID: 0}
    - target: {fileID: -8679921383154817045, guid: 1557623411cbbe44fab8877a265fc490,
        type: 3}
      propertyPath: m_LocalRotation.x
      value: 0
      objectReference: {fileID: 0}
    - target: {fileID: -8679921383154817045, guid: 1557623411cbbe44fab8877a265fc490,
        type: 3}
      propertyPath: m_LocalRotation.y
      value: 0
      objectReference: {fileID: 0}
    - target: {fileID: -8679921383154817045, guid: 1557623411cbbe44fab8877a265fc490,
        type: 3}
      propertyPath: m_LocalRotation.z
      value: 0
      objectReference: {fileID: 0}
    - target: {fileID: -8679921383154817045, guid: 1557623411cbbe44fab8877a265fc490,
        type: 3}
      propertyPath: m_LocalEulerAnglesHint.x
      value: 0
      objectReference: {fileID: 0}
    - target: {fileID: -8679921383154817045, guid: 1557623411cbbe44fab8877a265fc490,
        type: 3}
      propertyPath: m_LocalEulerAnglesHint.y
      value: 0
      objectReference: {fileID: 0}
    - target: {fileID: -8679921383154817045, guid: 1557623411cbbe44fab8877a265fc490,
        type: 3}
      propertyPath: m_LocalEulerAnglesHint.z
      value: 0
      objectReference: {fileID: 0}
    - target: {fileID: -7511558181221131132, guid: 1557623411cbbe44fab8877a265fc490,
        type: 3}
      propertyPath: m_Materials.Array.data[0]
      value: 
      objectReference: {fileID: 2100000, guid: 004153ece9655e042840a2c9ff0aeded, type: 2}
    - target: {fileID: 919132149155446097, guid: 1557623411cbbe44fab8877a265fc490,
        type: 3}
      propertyPath: m_Name
      value: coral dedos1
      objectReference: {fileID: 0}
    - target: {fileID: 995815251250064025, guid: 1557623411cbbe44fab8877a265fc490,
        type: 3}
      propertyPath: m_Materials.Array.data[0]
      value: 
      objectReference: {fileID: 2100000, guid: 004153ece9655e042840a2c9ff0aeded, type: 2}
    - target: {fileID: 4742473837712756890, guid: 1557623411cbbe44fab8877a265fc490,
        type: 3}
      propertyPath: m_FadeMode
      value: 1
      objectReference: {fileID: 0}
    - target: {fileID: 4742473837712756890, guid: 1557623411cbbe44fab8877a265fc490,
        type: 3}
      propertyPath: m_LODs.Array.data[0].screenRelativeHeight
      value: 0.21685442
      objectReference: {fileID: 0}
    - target: {fileID: 4742473837712756890, guid: 1557623411cbbe44fab8877a265fc490,
        type: 3}
      propertyPath: m_LODs.Array.data[1].screenRelativeHeight
      value: 0.0813379
      objectReference: {fileID: 0}
    - target: {fileID: 4742473837712756890, guid: 1557623411cbbe44fab8877a265fc490,
        type: 3}
      propertyPath: m_LODs.Array.data[2].screenRelativeHeight
      value: 0.0086
      objectReference: {fileID: 0}
    - target: {fileID: 5594613154262402335, guid: 1557623411cbbe44fab8877a265fc490,
        type: 3}
      propertyPath: m_ScaleInLightmap
      value: 0.5
      objectReference: {fileID: 0}
    - target: {fileID: 5594613154262402335, guid: 1557623411cbbe44fab8877a265fc490,
        type: 3}
      propertyPath: m_Materials.Array.data[0]
      value: 
      objectReference: {fileID: 2100000, guid: 004153ece9655e042840a2c9ff0aeded, type: 2}
    - target: {fileID: 7695957235417224447, guid: 1557623411cbbe44fab8877a265fc490,
        type: 3}
      propertyPath: m_ScaleInLightmap
      value: 0.5
      objectReference: {fileID: 0}
    - target: {fileID: 7695957235417224447, guid: 1557623411cbbe44fab8877a265fc490,
        type: 3}
      propertyPath: m_Materials.Array.data[0]
      value: 
      objectReference: {fileID: 2100000, guid: 004153ece9655e042840a2c9ff0aeded, type: 2}
    m_RemovedComponents: []
  m_SourcePrefab: {fileID: 100100000, guid: 1557623411cbbe44fab8877a265fc490, type: 3}
--- !u!4 &3766668824693780680 stripped
Transform:
  m_CorrespondingSourceObject: {fileID: -8679921383154817045, guid: 1557623411cbbe44fab8877a265fc490,
    type: 3}
  m_PrefabInstance: {fileID: 3733303958497941283}
  m_PrefabAsset: {fileID: 0}
