%YAML 1.1
%TAG !u! tag:unity3d.com,2011:
--- !u!1 &5496003801808846798
GameObject:
  m_ObjectHideFlags: 0
  m_CorrespondingSourceObject: {fileID: 0}
  m_PrefabInstance: {fileID: 0}
  m_PrefabAsset: {fileID: 0}
  serializedVersion: 6
  m_Component:
  - component: {fileID: 1778471189075778992}
  m_Layer: 6
  m_Name: CoralRigido_Lechuga1 azul
  m_TagString: Untagged
  m_Icon: {fileID: 0}
  m_NavMeshLayer: 0
  m_StaticEditorFlags: 2147483647
  m_IsActive: 1
--- !u!4 &1778471189075778992
Transform:
  m_ObjectHideFlags: 0
  m_CorrespondingSourceObject: {fileID: 0}
  m_PrefabInstance: {fileID: 0}
  m_PrefabAsset: {fileID: 0}
  m_GameObject: {fileID: 5496003801808846798}
  m_LocalRotation: {x: 0, y: 0, z: 0, w: 1}
  m_LocalPosition: {x: 0, y: 0, z: 0}
  m_LocalScale: {x: 0.67310536, y: 0.83552563, z: 0.6731053}
  m_ConstrainProportionsScale: 0
  m_Children:
  - {fileID: 7738252856384046094}
  m_Father: {fileID: 0}
  m_RootOrder: 0
  m_LocalEulerAnglesHint: {x: 0, y: 0, z: 0}
--- !u!1001 &7847929737741673445
PrefabInstance:
  m_ObjectHideFlags: 0
  serializedVersion: 2
  m_Modification:
    m_TransformParent: {fileID: 1778471189075778992}
    m_Modifications:
    - target: {fileID: -8679921383154817045, guid: f8f158cbaa6daa749ae99f502959b7dd,
        type: 3}
      propertyPath: m_RootOrder
      value: 0
      objectReference: {fileID: 0}
    - target: {fileID: -8679921383154817045, guid: f8f158cbaa6daa749ae99f502959b7dd,
        type: 3}
      propertyPath: m_LocalPosition.x
      value: 0
      objectReference: {fileID: 0}
    - target: {fileID: -8679921383154817045, guid: f8f158cbaa6daa749ae99f502959b7dd,
        type: 3}
      propertyPath: m_LocalPosition.y
      value: 0
      objectReference: {fileID: 0}
    - target: {fileID: -8679921383154817045, guid: f8f158cbaa6daa749ae99f502959b7dd,
        type: 3}
      propertyPath: m_LocalPosition.z
      value: 0
      objectReference: {fileID: 0}
    - target: {fileID: -8679921383154817045, guid: f8f158cbaa6daa749ae99f502959b7dd,
        type: 3}
      propertyPath: m_LocalRotation.w
      value: 1
      objectReference: {fileID: 0}
    - target: {fileID: -8679921383154817045, guid: f8f158cbaa6daa749ae99f502959b7dd,
        type: 3}
      propertyPath: m_LocalRotation.x
      value: 0
      objectReference: {fileID: 0}
    - target: {fileID: -8679921383154817045, guid: f8f158cbaa6daa749ae99f502959b7dd,
        type: 3}
      propertyPath: m_LocalRotation.y
      value: 0
      objectReference: {fileID: 0}
    - target: {fileID: -8679921383154817045, guid: f8f158cbaa6daa749ae99f502959b7dd,
        type: 3}
      propertyPath: m_LocalRotation.z
      value: 0
      objectReference: {fileID: 0}
    - target: {fileID: -8679921383154817045, guid: f8f158cbaa6daa749ae99f502959b7dd,
        type: 3}
      propertyPath: m_LocalEulerAnglesHint.x
      value: 0
      objectReference: {fileID: 0}
    - target: {fileID: -8679921383154817045, guid: f8f158cbaa6daa749ae99f502959b7dd,
        type: 3}
      propertyPath: m_LocalEulerAnglesHint.y
      value: 0
      objectReference: {fileID: 0}
    - target: {fileID: -8679921383154817045, guid: f8f158cbaa6daa749ae99f502959b7dd,
        type: 3}
      propertyPath: m_LocalEulerAnglesHint.z
      value: 0
      objectReference: {fileID: 0}
    - target: {fileID: -8019117180369479412, guid: f8f158cbaa6daa749ae99f502959b7dd,
        type: 3}
      propertyPath: m_StaticEditorFlags
      value: 2147483647
      objectReference: {fileID: 0}
    - target: {fileID: -7705073119738741878, guid: f8f158cbaa6daa749ae99f502959b7dd,
        type: 3}
      propertyPath: m_Layer
      value: 6
      objectReference: {fileID: 0}
    - target: {fileID: -7705073119738741878, guid: f8f158cbaa6daa749ae99f502959b7dd,
        type: 3}
      propertyPath: m_IsActive
      value: 0
      objectReference: {fileID: 0}
    - target: {fileID: -7705073119738741878, guid: f8f158cbaa6daa749ae99f502959b7dd,
        type: 3}
      propertyPath: m_StaticEditorFlags
      value: 2147483647
      objectReference: {fileID: 0}
    - target: {fileID: -7511558181221131132, guid: f8f158cbaa6daa749ae99f502959b7dd,
        type: 3}
      propertyPath: m_Materials.Array.data[0]
      value: 
      objectReference: {fileID: 2100000, guid: 4fa5cacdb4ea7164ebf3825545a930cc, type: 2}
    - target: {fileID: -6818341671862876512, guid: f8f158cbaa6daa749ae99f502959b7dd,
        type: 3}
      propertyPath: m_LocalPosition.x
      value: 0
      objectReference: {fileID: 0}
    - target: {fileID: -6818341671862876512, guid: f8f158cbaa6daa749ae99f502959b7dd,
        type: 3}
      propertyPath: m_LocalPosition.y
      value: 0
      objectReference: {fileID: 0}
    - target: {fileID: -6818341671862876512, guid: f8f158cbaa6daa749ae99f502959b7dd,
        type: 3}
      propertyPath: m_LocalPosition.z
      value: 0
      objectReference: {fileID: 0}
    - target: {fileID: -6470259968348278827, guid: f8f158cbaa6daa749ae99f502959b7dd,
        type: 3}
      propertyPath: m_Materials.Array.data[0]
      value: 
      objectReference: {fileID: 2100000, guid: 4fa5cacdb4ea7164ebf3825545a930cc, type: 2}
    - target: {fileID: -6414979748502491411, guid: f8f158cbaa6daa749ae99f502959b7dd,
        type: 3}
      propertyPath: m_Materials.Array.data[0]
      value: 
      objectReference: {fileID: 2100000, guid: 4fa5cacdb4ea7164ebf3825545a930cc, type: 2}
    - target: {fileID: -6219841787932546992, guid: f8f158cbaa6daa749ae99f502959b7dd,
        type: 3}
      propertyPath: m_Materials.Array.data[0]
      value: 
      objectReference: {fileID: 2100000, guid: 4fa5cacdb4ea7164ebf3825545a930cc, type: 2}
    - target: {fileID: -4600937346697651503, guid: f8f158cbaa6daa749ae99f502959b7dd,
        type: 3}
      propertyPath: m_LocalPosition.x
      value: 1.8
      objectReference: {fileID: 0}
    - target: {fileID: -4600937346697651503, guid: f8f158cbaa6daa749ae99f502959b7dd,
        type: 3}
      propertyPath: m_LocalPosition.y
      value: 9.8
      objectReference: {fileID: 0}
    - target: {fileID: -4445345564776523007, guid: f8f158cbaa6daa749ae99f502959b7dd,
        type: 3}
      propertyPath: m_Materials.Array.data[0]
      value: 
      objectReference: {fileID: 2100000, guid: 4fa5cacdb4ea7164ebf3825545a930cc, type: 2}
    - target: {fileID: -2783089312458539361, guid: f8f158cbaa6daa749ae99f502959b7dd,
        type: 3}
      propertyPath: m_StaticEditorFlags
      value: 2147483647
      objectReference: {fileID: 0}
    - target: {fileID: -1983014353610897527, guid: f8f158cbaa6daa749ae99f502959b7dd,
        type: 3}
      propertyPath: m_Layer
      value: 6
      objectReference: {fileID: 0}
    - target: {fileID: -1983014353610897527, guid: f8f158cbaa6daa749ae99f502959b7dd,
        type: 3}
      propertyPath: m_StaticEditorFlags
      value: 2147483647
      objectReference: {fileID: 0}
    - target: {fileID: -1038040511535942458, guid: f8f158cbaa6daa749ae99f502959b7dd,
        type: 3}
      propertyPath: m_StaticEditorFlags
      value: 2147483647
      objectReference: {fileID: 0}
    - target: {fileID: 737558198020413390, guid: f8f158cbaa6daa749ae99f502959b7dd,
        type: 3}
      propertyPath: m_Layer
      value: 18
      objectReference: {fileID: 0}
    - target: {fileID: 737558198020413390, guid: f8f158cbaa6daa749ae99f502959b7dd,
        type: 3}
      propertyPath: m_StaticEditorFlags
      value: 2147483647
      objectReference: {fileID: 0}
    - target: {fileID: 919132149155446097, guid: f8f158cbaa6daa749ae99f502959b7dd,
        type: 3}
      propertyPath: m_Name
      value: coral lechuga1
      objectReference: {fileID: 0}
    - target: {fileID: 919132149155446097, guid: f8f158cbaa6daa749ae99f502959b7dd,
        type: 3}
      propertyPath: m_Layer
      value: 6
      objectReference: {fileID: 0}
    - target: {fileID: 919132149155446097, guid: f8f158cbaa6daa749ae99f502959b7dd,
        type: 3}
      propertyPath: m_StaticEditorFlags
      value: 2147483647
      objectReference: {fileID: 0}
    - target: {fileID: 1070665788723474480, guid: f8f158cbaa6daa749ae99f502959b7dd,
        type: 3}
      propertyPath: m_Materials.Array.data[0]
      value: 
      objectReference: {fileID: 2100000, guid: e2ba879e40004874cac8bcdd478f08af, type: 2}
    - target: {fileID: 3154221227624975483, guid: f8f158cbaa6daa749ae99f502959b7dd,
        type: 3}
      propertyPath: m_Materials.Array.data[0]
      value: 
      objectReference: {fileID: 2100000, guid: 73bf9e531dbe4544c94c613bd5cef4b2, type: 2}
    - target: {fileID: 4530964438637355165, guid: f8f158cbaa6daa749ae99f502959b7dd,
        type: 3}
      propertyPath: m_LocalPosition.x
      value: 0
      objectReference: {fileID: 0}
    - target: {fileID: 4530964438637355165, guid: f8f158cbaa6daa749ae99f502959b7dd,
        type: 3}
      propertyPath: m_LocalPosition.y
      value: 0
      objectReference: {fileID: 0}
    - target: {fileID: 4530964438637355165, guid: f8f158cbaa6daa749ae99f502959b7dd,
        type: 3}
      propertyPath: m_LocalPosition.z
      value: 0
      objectReference: {fileID: 0}
    - target: {fileID: 4742473837712756890, guid: f8f158cbaa6daa749ae99f502959b7dd,
        type: 3}
      propertyPath: m_FadeMode
      value: 1
      objectReference: {fileID: 0}
    - target: {fileID: 4742473837712756890, guid: f8f158cbaa6daa749ae99f502959b7dd,
        type: 3}
      propertyPath: m_LocalReferencePoint.x
      value: -0.0000019073486
      objectReference: {fileID: 0}
    - target: {fileID: 4742473837712756890, guid: f8f158cbaa6daa749ae99f502959b7dd,
        type: 3}
      propertyPath: m_LocalReferencePoint.y
      value: -0.00000071525574
      objectReference: {fileID: 0}
    - target: {fileID: 4742473837712756890, guid: f8f158cbaa6daa749ae99f502959b7dd,
        type: 3}
      propertyPath: m_LocalReferencePoint.z
      value: 0
      objectReference: {fileID: 0}
    - target: {fileID: 4742473837712756890, guid: f8f158cbaa6daa749ae99f502959b7dd,
        type: 3}
      propertyPath: m_LODs.Array.data[0].fadeTransitionWidth
      value: 0.25
      objectReference: {fileID: 0}
    - target: {fileID: 4742473837712756890, guid: f8f158cbaa6daa749ae99f502959b7dd,
        type: 3}
      propertyPath: m_LODs.Array.data[1].fadeTransitionWidth
      value: 0.25
      objectReference: {fileID: 0}
    - target: {fileID: 4742473837712756890, guid: f8f158cbaa6daa749ae99f502959b7dd,
        type: 3}
      propertyPath: m_LODs.Array.data[2].fadeTransitionWidth
      value: 0.25
      objectReference: {fileID: 0}
    - target: {fileID: 4742473837712756890, guid: f8f158cbaa6daa749ae99f502959b7dd,
        type: 3}
      propertyPath: m_LODs.Array.data[3].screenRelativeHeight
      value: 0.031400003
      objectReference: {fileID: 0}
    - target: {fileID: 5907829723298685186, guid: f8f158cbaa6daa749ae99f502959b7dd,
        type: 3}
      propertyPath: m_LocalPosition.x
      value: 0
      objectReference: {fileID: 0}
    - target: {fileID: 5907829723298685186, guid: f8f158cbaa6daa749ae99f502959b7dd,
        type: 3}
      propertyPath: m_LocalPosition.y
      value: 0
      objectReference: {fileID: 0}
    - target: {fileID: 5907829723298685186, guid: f8f158cbaa6daa749ae99f502959b7dd,
        type: 3}
      propertyPath: m_LocalPosition.z
      value: 0
      objectReference: {fileID: 0}
    - target: {fileID: 9148114774987631499, guid: f8f158cbaa6daa749ae99f502959b7dd,
        type: 3}
      propertyPath: m_LocalPosition.x
      value: 0
      objectReference: {fileID: 0}
    - target: {fileID: 9148114774987631499, guid: f8f158cbaa6daa749ae99f502959b7dd,
        type: 3}
      propertyPath: m_LocalPosition.y
      value: 0
      objectReference: {fileID: 0}
    - target: {fileID: 9148114774987631499, guid: f8f158cbaa6daa749ae99f502959b7dd,
        type: 3}
      propertyPath: m_LocalPosition.z
      value: 0
      objectReference: {fileID: 0}
    m_RemovedComponents: []
  m_SourcePrefab: {fileID: 100100000, guid: f8f158cbaa6daa749ae99f502959b7dd, type: 3}
--- !u!1 &6928818082158485172 stripped
GameObject:
  m_CorrespondingSourceObject: {fileID: 919132149155446097, guid: f8f158cbaa6daa749ae99f502959b7dd,
    type: 3}
  m_PrefabInstance: {fileID: 7847929737741673445}
  m_PrefabAsset: {fileID: 0}
--- !u!64 &3120705515311719032
MeshCollider:
  m_ObjectHideFlags: 0
  m_CorrespondingSourceObject: {fileID: 0}
  m_PrefabInstance: {fileID: 0}
  m_PrefabAsset: {fileID: 0}
  m_GameObject: {fileID: 6928818082158485172}
  m_Material: {fileID: 0}
  m_IsTrigger: 0
  m_Enabled: 1
  serializedVersion: 4
  m_Convex: 0
  m_CookingOptions: 30
  m_Mesh: {fileID: 0}
--- !u!4 &7738252856384046094 stripped
Transform:
  m_CorrespondingSourceObject: {fileID: -8679921383154817045, guid: f8f158cbaa6daa749ae99f502959b7dd,
    type: 3}
  m_PrefabInstance: {fileID: 7847929737741673445}
  m_PrefabAsset: {fileID: 0}
