%YAML 1.1
%TAG !u! tag:unity3d.com,2011:
--- !u!1 &480694760547824498
GameObject:
  m_ObjectHideFlags: 0
  m_CorrespondingSourceObject: {fileID: 0}
  m_PrefabInstance: {fileID: 0}
  m_PrefabAsset: {fileID: 0}
  serializedVersion: 6
  m_Component:
  - component: {fileID: 3656730199122285190}
  m_Layer: 6
  m_Name: CoralRigido_Venado2 rosado
  m_TagString: Untagged
  m_Icon: {fileID: 0}
  m_NavMeshLayer: 0
  m_StaticEditorFlags: 2147483647
  m_IsActive: 1
--- !u!4 &3656730199122285190
Transform:
  m_ObjectHideFlags: 0
  m_CorrespondingSourceObject: {fileID: 0}
  m_PrefabInstance: {fileID: 0}
  m_PrefabAsset: {fileID: 0}
  m_GameObject: {fileID: 480694760547824498}
  m_LocalRotation: {x: 0, y: 0, z: 0, w: 1}
  m_LocalPosition: {x: 0, y: 0, z: 0}
  m_LocalScale: {x: 2.1932, y: 2.1932003, z: 2.1932003}
  m_ConstrainProportionsScale: 0
  m_Children:
  - {fileID: 6514255368197022008}
  m_Father: {fileID: 0}
  m_RootOrder: 0
  m_LocalEulerAnglesHint: {x: 0, y: 0, z: 0}
--- !u!1001 &6768331635687278291
PrefabInstance:
  m_ObjectHideFlags: 0
  serializedVersion: 2
  m_Modification:
    m_TransformParent: {fileID: 3656730199122285190}
    m_Modifications:
    - target: {fileID: -8982057025739283079, guid: 2f40a17f7a7c66948b9fbb075a58a5ca,
        type: 3}
      propertyPath: m_Layer
      value: 6
      objectReference: {fileID: 0}
    - target: {fileID: -8982057025739283079, guid: 2f40a17f7a7c66948b9fbb075a58a5ca,
        type: 3}
      propertyPath: m_StaticEditorFlags
      value: 2147483647
      objectReference: {fileID: 0}
    - target: {fileID: -8875025624839877058, guid: 2f40a17f7a7c66948b9fbb075a58a5ca,
        type: 3}
      propertyPath: m_StaticEditorFlags
      value: 2147483647
      objectReference: {fileID: 0}
    - target: {fileID: -8679921383154817045, guid: 2f40a17f7a7c66948b9fbb075a58a5ca,
        type: 3}
      propertyPath: m_RootOrder
      value: 0
      objectReference: {fileID: 0}
    - target: {fileID: -8679921383154817045, guid: 2f40a17f7a7c66948b9fbb075a58a5ca,
        type: 3}
      propertyPath: m_LocalPosition.x
      value: 0
      objectReference: {fileID: 0}
    - target: {fileID: -8679921383154817045, guid: 2f40a17f7a7c66948b9fbb075a58a5ca,
        type: 3}
      propertyPath: m_LocalPosition.y
      value: 0
      objectReference: {fileID: 0}
    - target: {fileID: -8679921383154817045, guid: 2f40a17f7a7c66948b9fbb075a58a5ca,
        type: 3}
      propertyPath: m_LocalPosition.z
      value: 0
      objectReference: {fileID: 0}
    - target: {fileID: -8679921383154817045, guid: 2f40a17f7a7c66948b9fbb075a58a5ca,
        type: 3}
      propertyPath: m_LocalRotation.w
      value: 1
      objectReference: {fileID: 0}
    - target: {fileID: -8679921383154817045, guid: 2f40a17f7a7c66948b9fbb075a58a5ca,
        type: 3}
      propertyPath: m_LocalRotation.x
      value: 0
      objectReference: {fileID: 0}
    - target: {fileID: -8679921383154817045, guid: 2f40a17f7a7c66948b9fbb075a58a5ca,
        type: 3}
      propertyPath: m_LocalRotation.y
      value: 0
      objectReference: {fileID: 0}
    - target: {fileID: -8679921383154817045, guid: 2f40a17f7a7c66948b9fbb075a58a5ca,
        type: 3}
      propertyPath: m_LocalRotation.z
      value: 0
      objectReference: {fileID: 0}
    - target: {fileID: -8679921383154817045, guid: 2f40a17f7a7c66948b9fbb075a58a5ca,
        type: 3}
      propertyPath: m_LocalEulerAnglesHint.x
      value: 0
      objectReference: {fileID: 0}
    - target: {fileID: -8679921383154817045, guid: 2f40a17f7a7c66948b9fbb075a58a5ca,
        type: 3}
      propertyPath: m_LocalEulerAnglesHint.y
      value: 0
      objectReference: {fileID: 0}
    - target: {fileID: -8679921383154817045, guid: 2f40a17f7a7c66948b9fbb075a58a5ca,
        type: 3}
      propertyPath: m_LocalEulerAnglesHint.z
      value: 0
      objectReference: {fileID: 0}
    - target: {fileID: -8601418778375119788, guid: 2f40a17f7a7c66948b9fbb075a58a5ca,
        type: 3}
      propertyPath: m_StaticEditorFlags
      value: 2147483647
      objectReference: {fileID: 0}
    - target: {fileID: -8097619159801327281, guid: 2f40a17f7a7c66948b9fbb075a58a5ca,
        type: 3}
      propertyPath: m_Materials.Array.data[0]
      value: 
      objectReference: {fileID: 2100000, guid: 42e33484c50795141a31b9338e8e9e1f, type: 2}
    - target: {fileID: -7872123201011562179, guid: 2f40a17f7a7c66948b9fbb075a58a5ca,
        type: 3}
      propertyPath: m_LocalPosition.x
      value: 0
      objectReference: {fileID: 0}
    - target: {fileID: -7511558181221131132, guid: 2f40a17f7a7c66948b9fbb075a58a5ca,
        type: 3}
      propertyPath: m_Materials.Array.data[0]
      value: 
      objectReference: {fileID: 2100000, guid: b1413a0f7b7c15b4f9a3543c7c4dc70d, type: 2}
    - target: {fileID: -5581878136122444641, guid: 2f40a17f7a7c66948b9fbb075a58a5ca,
        type: 3}
      propertyPath: m_LocalPosition.x
      value: 0
      objectReference: {fileID: 0}
    - target: {fileID: -3596611643581410344, guid: 2f40a17f7a7c66948b9fbb075a58a5ca,
        type: 3}
      propertyPath: m_Materials.Array.data[0]
      value: 
      objectReference: {fileID: 2100000, guid: 42e33484c50795141a31b9338e8e9e1f, type: 2}
    - target: {fileID: -3546084891375693153, guid: 2f40a17f7a7c66948b9fbb075a58a5ca,
        type: 3}
      propertyPath: m_StaticEditorFlags
      value: 2147483647
      objectReference: {fileID: 0}
    - target: {fileID: -1961278414269009154, guid: 2f40a17f7a7c66948b9fbb075a58a5ca,
        type: 3}
      propertyPath: m_Materials.Array.data[0]
      value: 
      objectReference: {fileID: 2100000, guid: 42e33484c50795141a31b9338e8e9e1f, type: 2}
    - target: {fileID: 188629092620958888, guid: 2f40a17f7a7c66948b9fbb075a58a5ca,
        type: 3}
      propertyPath: m_LocalPosition.x
      value: 0
      objectReference: {fileID: 0}
    - target: {fileID: 919132149155446097, guid: 2f40a17f7a7c66948b9fbb075a58a5ca,
        type: 3}
      propertyPath: m_Name
      value: coral venado2
      objectReference: {fileID: 0}
    - target: {fileID: 919132149155446097, guid: 2f40a17f7a7c66948b9fbb075a58a5ca,
        type: 3}
      propertyPath: m_Layer
      value: 6
      objectReference: {fileID: 0}
    - target: {fileID: 919132149155446097, guid: 2f40a17f7a7c66948b9fbb075a58a5ca,
        type: 3}
      propertyPath: m_StaticEditorFlags
      value: 2147483647
      objectReference: {fileID: 0}
    - target: {fileID: 1403981591522548038, guid: 2f40a17f7a7c66948b9fbb075a58a5ca,
        type: 3}
      propertyPath: m_LocalPosition.x
      value: 0
      objectReference: {fileID: 0}
    - target: {fileID: 2386303996349674136, guid: 2f40a17f7a7c66948b9fbb075a58a5ca,
        type: 3}
      propertyPath: m_Layer
      value: 18
      objectReference: {fileID: 0}
    - target: {fileID: 2386303996349674136, guid: 2f40a17f7a7c66948b9fbb075a58a5ca,
        type: 3}
      propertyPath: m_StaticEditorFlags
      value: 2147483647
      objectReference: {fileID: 0}
    - target: {fileID: 2535880305515975974, guid: 2f40a17f7a7c66948b9fbb075a58a5ca,
        type: 3}
      propertyPath: m_Materials.Array.data[0]
      value: 
      objectReference: {fileID: 2100000, guid: 42e33484c50795141a31b9338e8e9e1f, type: 2}
    - target: {fileID: 4393816715147244289, guid: 2f40a17f7a7c66948b9fbb075a58a5ca,
        type: 3}
      propertyPath: m_Materials.Array.data[0]
      value: 
      objectReference: {fileID: 2100000, guid: 5dac6ed72e8559c40bf69756d75c55b4, type: 2}
    - target: {fileID: 4742473837712756890, guid: 2f40a17f7a7c66948b9fbb075a58a5ca,
        type: 3}
      propertyPath: m_FadeMode
      value: 1
      objectReference: {fileID: 0}
    - target: {fileID: 4742473837712756890, guid: 2f40a17f7a7c66948b9fbb075a58a5ca,
        type: 3}
      propertyPath: m_LODs.Array.data[0].fadeTransitionWidth
      value: 0.25
      objectReference: {fileID: 0}
    - target: {fileID: 4742473837712756890, guid: 2f40a17f7a7c66948b9fbb075a58a5ca,
        type: 3}
      propertyPath: m_LODs.Array.data[1].fadeTransitionWidth
      value: 0.25
      objectReference: {fileID: 0}
    - target: {fileID: 4742473837712756890, guid: 2f40a17f7a7c66948b9fbb075a58a5ca,
        type: 3}
      propertyPath: m_LODs.Array.data[2].fadeTransitionWidth
      value: 0.25
      objectReference: {fileID: 0}
    - target: {fileID: 4742473837712756890, guid: 2f40a17f7a7c66948b9fbb075a58a5ca,
        type: 3}
      propertyPath: m_LODs.Array.data[3].screenRelativeHeight
      value: 0.0046
      objectReference: {fileID: 0}
    - target: {fileID: 7373906709293734702, guid: 2f40a17f7a7c66948b9fbb075a58a5ca,
        type: 3}
      propertyPath: m_Layer
      value: 6
      objectReference: {fileID: 0}
    - target: {fileID: 7373906709293734702, guid: 2f40a17f7a7c66948b9fbb075a58a5ca,
        type: 3}
      propertyPath: m_IsActive
      value: 0
      objectReference: {fileID: 0}
    - target: {fileID: 7373906709293734702, guid: 2f40a17f7a7c66948b9fbb075a58a5ca,
        type: 3}
      propertyPath: m_StaticEditorFlags
      value: 2147483647
      objectReference: {fileID: 0}
    - target: {fileID: 9181842665093507488, guid: 2f40a17f7a7c66948b9fbb075a58a5ca,
        type: 3}
      propertyPath: m_Materials.Array.data[0]
      value: 
      objectReference: {fileID: 2100000, guid: e2ba879e40004874cac8bcdd478f08af, type: 2}
    m_RemovedComponents: []
  m_SourcePrefab: {fileID: 100100000, guid: 2f40a17f7a7c66948b9fbb075a58a5ca, type: 3}
--- !u!4 &6514255368197022008 stripped
Transform:
  m_CorrespondingSourceObject: {fileID: -8679921383154817045, guid: 2f40a17f7a7c66948b9fbb075a58a5ca,
    type: 3}
  m_PrefabInstance: {fileID: 6768331635687278291}
  m_PrefabAsset: {fileID: 0}
