%YAML 1.1
%TAG !u! tag:unity3d.com,2011:
--- !u!319 &31900000
AvatarMask:
  m_ObjectHideFlags: 0
  m_CorrespondingSourceObject: {fileID: 0}
  m_PrefabInstance: {fileID: 0}
  m_PrefabAsset: {fileID: 0}
  m_Name: RightFinLionFish
  m_Mask: 01000000010000000100000001000000010000000100000001000000010000000100000001000000010000000100000001000000
  m_Elements:
  - m_Path: 
    m_Weight: 1
  - m_Path: pasted__j_cadera9
    m_Weight: 1
  - m_Path: pasted__j_cadera9/pasted__j_aleta_der
    m_Weight: 1
  - m_Path: pasted__j_cadera9/pasted__j_aleta_der/pasted__j_aleta_der2
    m_Weight: 1
  - m_Path: pasted__j_cadera9/pasted__j_aleta_der/pasted__j_aleta_der2/pasted__j_aleta_der3
    m_Weight: 0
  - m_Path: pasted__j_cadera9/pasted__j_aleta_izq
    m_Weight: 0
  - m_Path: pasted__j_cadera9/pasted__j_aleta_izq/pasted__j_aleta_izq2
    m_Weight: 0
  - m_Path: pasted__j_cadera9/pasted__j_cabeza
    m_Weight: 0
  - m_Path: pasted__j_cadera9/pasted__j_cabeza/pasted__j_cabeza2
    m_Weight: 0
  - m_Path: pasted__j_cadera9/pasted__j_cadera2
    m_Weight: 0
  - m_Path: pasted__j_cadera9/pasted__j_cadera2/pasted__j_cadera3
    m_Weight: 0
  - m_Path: pasted__j_cadera9/pasted__j_cadera2/pasted__j_cadera3/pasted__j_cadera4
    m_Weight: 0
  - m_Path: pasted__j_cadera9/pasted__j_cadera2/pasted__j_cadera3/pasted__j_cadera4/pasted__j_cadera5
    m_Weight: 0
  - m_Path: pasted__j_cadera9/pasted__j_cadera2/pasted__j_cadera3/pasted__j_cadera4/pasted__j_cadera5/pasted__j_cadera8
    m_Weight: 0
  - m_Path: pasted__j_cadera9/pasted__j_espina_arriba
    m_Weight: 0
  - m_Path: pasted__j_cadera9/pasted__j_espina_arriba/pasted__j_espina_arriba2
    m_Weight: 0
  - m_Path: Pez_leon
    m_Weight: 0
