%YAML 1.1
%TAG !u! tag:unity3d.com,2011:
--- !u!114 &-6250204319660873909
MonoBehaviour:
  m_ObjectHideFlags: 11
  m_CorrespondingSourceObject: {fileID: 0}
  m_PrefabInstance: {fileID: 0}
  m_PrefabAsset: {fileID: 0}
  m_GameObject: {fileID: 0}
  m_Enabled: 1
  m_EditorHideFlags: 0
  m_Script: {fileID: 11500000, guid: d0353a89b1f911e48b9e16bdc9f2e058, type: 3}
  m_Name: 
  m_EditorClassIdentifier: 
  version: 5
--- !u!21 &2100000
Material:
  serializedVersion: 8
  m_ObjectHideFlags: 0
  m_CorrespondingSourceObject: {fileID: 0}
  m_PrefabInstance: {fileID: 0}
  m_PrefabAsset: {fileID: 0}
  m_Name: P_mariposa2
  m_Shader: {fileID: -6465566751694194690, guid: f615da5996d9a41a4b7a87c284733a78,
    type: 3}
  m_ValidKeywords: []
  m_InvalidKeywords: []
  m_LightmapFlags: 4
  m_EnableInstancingVariants: 1
  m_DoubleSidedGI: 0
  m_CustomRenderQueue: 2000
  stringTagMap:
    RenderType: Opaque
  disabledShaderPasses: []
  m_SavedProperties:
    serializedVersion: 3
    m_TexEnvs:
    - Texture2D_Texture:
        m_Texture: {fileID: 2800000, guid: 3c1e8564ac188e24dbba9ca62a6fa5d4, type: 3}
        m_Scale: {x: 1, y: 1}
        m_Offset: {x: 0, y: 0}
    - _BaseMap:
        m_Texture: {fileID: 2800000, guid: 3c1e8564ac188e24dbba9ca62a6fa5d4, type: 3}
        m_Scale: {x: 1, y: 1}
        m_Offset: {x: 0, y: 0}
    - _BrushTexture:
        m_Texture: {fileID: 2800000, guid: c61e12b00f19ecd448a748ee4f011b63, type: 3}
        m_Scale: {x: 1, y: 1}
        m_Offset: {x: 0, y: 0}
    - _BumpMap:
        m_Texture: {fileID: 2800000, guid: 77c309de20c1bf94292b7366624a2360, type: 3}
        m_Scale: {x: 1, y: 1}
        m_Offset: {x: 0, y: 0}
    - _DetailAlbedoMap:
        m_Texture: {fileID: 0}
        m_Scale: {x: 1, y: 1}
        m_Offset: {x: 0, y: 0}
    - _DetailMask:
        m_Texture: {fileID: 0}
        m_Scale: {x: 1, y: 1}
        m_Offset: {x: 0, y: 0}
    - _DetailNormalMap:
        m_Texture: {fileID: 0}
        m_Scale: {x: 1, y: 1}
        m_Offset: {x: 0, y: 0}
    - _EmisionTex:
        m_Texture: {fileID: 0}
        m_Scale: {x: 1, y: 1}
        m_Offset: {x: 0, y: 0}
    - _EmissionMap:
        m_Texture: {fileID: 0}
        m_Scale: {x: 1, y: 1}
        m_Offset: {x: 0, y: 0}
    - _MainTex:
        m_Texture: {fileID: 2800000, guid: 3c1e8564ac188e24dbba9ca62a6fa5d4, type: 3}
        m_Scale: {x: 1, y: 1}
        m_Offset: {x: 0, y: 0}
    - _MetallicGlossMap:
        m_Texture: {fileID: 0}
        m_Scale: {x: 1, y: 1}
        m_Offset: {x: 0, y: 0}
    - _OcclusionMap:
        m_Texture: {fileID: 2800000, guid: da94ab8fb915dd543821decabd80a205, type: 3}
        m_Scale: {x: 1, y: 1}
        m_Offset: {x: 0, y: 0}
    - _ParallaxMap:
        m_Texture: {fileID: 0}
        m_Scale: {x: 1, y: 1}
        m_Offset: {x: 0, y: 0}
    - _SpecGlossMap:
        m_Texture: {fileID: 0}
        m_Scale: {x: 1, y: 1}
        m_Offset: {x: 0, y: 0}
    - _TexAO:
        m_Texture: {fileID: 2800000, guid: da94ab8fb915dd543821decabd80a205, type: 3}
        m_Scale: {x: 1, y: 1}
        m_Offset: {x: 0, y: 0}
    - _TexAlpha:
        m_Texture: {fileID: 0}
        m_Scale: {x: 1, y: 1}
        m_Offset: {x: 0, y: 0}
    - _TexMask:
        m_Texture: {fileID: 0}
        m_Scale: {x: 1, y: 1}
        m_Offset: {x: 0, y: 0}
    - _TexMetallic:
        m_Texture: {fileID: 0}
        m_Scale: {x: 1, y: 1}
        m_Offset: {x: 0, y: 0}
    - _TexNormal:
        m_Texture: {fileID: 2800000, guid: 77c309de20c1bf94292b7366624a2360, type: 3}
        m_Scale: {x: 1, y: 1}
        m_Offset: {x: 0, y: 0}
    - _TexSmoothness:
        m_Texture: {fileID: 0}
        m_Scale: {x: 1, y: 1}
        m_Offset: {x: 0, y: 0}
    - unity_Lightmaps:
        m_Texture: {fileID: 0}
        m_Scale: {x: 1, y: 1}
        m_Offset: {x: 0, y: 0}
    - unity_LightmapsInd:
        m_Texture: {fileID: 0}
        m_Scale: {x: 1, y: 1}
        m_Offset: {x: 0, y: 0}
    - unity_ShadowMasks:
        m_Texture: {fileID: 0}
        m_Scale: {x: 1, y: 1}
        m_Offset: {x: 0, y: 0}
    m_Ints: []
    m_Floats:
    - Vector1_AmplitudFactor: 1
    - Vector1_AmplitudeDeformationZ: 0
    - Vector1_AmplitudeMovementX: 0
    - Vector1_AmplitudeMovementY: 0
    - Vector1_AmplitudeWaveX: 0.155
    - Vector1_AmplitudeWaveY: 0
    - Vector1_AmplitudeWaveZ: 0
    - Vector1_FrequencyDeformationZ: 0
    - Vector1_FrequencyWaveX: 2.96
    - Vector1_FrequencyWaveY: 0
    - Vector1_FrequencyWaveZ: 0
    - Vector1_SpeedDeformationZ: 0
    - Vector1_SpeedFactor: 1
    - Vector1_SpeedMovementX: 0
    - Vector1_SpeedMovementY: 0
    - Vector1_SpeedWaveX: 1.86
    - Vector1_SpeedWaveY: 0
    - Vector1_SpeedWaveZ: 0
    - _AOStrength: 0.27
    - _Alpha: 1
    - _AlphaClip: 0
    - _AnchoLinea: 0
    - _Blend: 0
    - _BrushStrength: 7.5
    - _BumpScale: 2
    - _CastShadows: 1
    - _ClearCoatMask: 0
    - _ClearCoatSmoothness: 0
    - _ColorStrength: 0
    - _Cull: 2
    - _Cutoff: 0.5
    - _DepthFactor: 7
    - _DepthOffset: 0.15
    - _DetailAlbedoMapScale: 1
    - _DetailNormalMapScale: 1
    - _DstBlend: 0
    - _EnvironmentReflections: 1
    - _Float: 0
    - _FrecuencyFactor: 1
    - _GlossMapScale: 0
    - _Glossiness: 0
    - _GlossyReflections: 0
    - _HighligthPower: 0
    - _HightlighSmoothness: 1.2
    - _Metallic: 0
    - _MetallicValue: 0
    - _NoiseScale: 500
    - _NoiseStregth: 0.25
    - _NormalStrength: 0.7
    - _OcclusionStrength: 1
    - _OnlyColor: 0
    - _Parallax: 0.005
    - _PoderLinea: 0
    - _PruebaInclinacion: 0
    - _QueueControl: 0
    - _QueueOffset: 0
    - _ReceiveShadows: 1
    - _RotationTexture: 0
    - _ShowDepth: 0
    - _SizeLine: 0
    - _Smoothness: 0.5
    - _SmoothnessTextureChannel: 0
    - _SmoothnessValue: 0.25
    - _SpecularHighlights: 1
    - _SrcBlend: 1
    - _Surface: 0
    - _UseMetallicTex: 0
    - _UseSmoothnessTex: 0
    - _ValorRotacion: 0
    - _VelocidadLinea: 0
    - _VerPivotX: 0
    - _WorkflowMode: 1
    - _ZTest: 4
    - _ZWrite: 1
    - _ZWriteControl: 0
    - _prueba2: 1
    m_Colors:
    - _BaseColor: {r: 1, g: 1, b: 1, a: 1}
    - _Color: {r: 1, g: 1, b: 1, a: 1}
    - _ColorEmission: {r: 0, g: 0, b: 0, a: 0}
    - _ColorLinea: {r: 0, g: 0, b: 0, a: 0}
    - _ColorLinea_1: {r: 0, g: 0, b: 0, a: 0}
    - _EmissionColor: {r: 0, g: 0, b: 0, a: 1}
    - _HightligthColor: {r: 0, g: 0, b: 0, a: 0}
    - _Pivot: {r: 0, g: 0.5, b: 0.81, a: 0}
    - _PivotDirection: {r: 0, g: 0, b: 1, a: 0}
    - _PivotIntensity: {r: 1, g: 1, b: 0.65, a: 0}
    - _PivotSize: {r: 1, g: 2.22, b: 1.68, a: 0}
    - _RangoLinea: {r: 0, g: 0, b: 0, a: 0}
    - _SpecColor: {r: 0.19999996, g: 0.19999996, b: 0.19999996, a: 1}
    - _Tilling_Texture: {r: 11, g: 15, b: 0, a: 0}
  m_BuildTextureStacks: []
